login as: root
root@192.168.225.114's password:
Last login: Mon Apr  1 22:49:02 2019 from 192.168.225.253
[root@mnode1 ~]# oc login 192.168.222.212:8443 --token=eyJhbGciOiJSUzI1NiIsInR5c                                                                             CI6IkpXVCJ9.eyJpc3MiOiJrdWJlcm5ldGVzL3NlcnZpY2VhY2NvdW50Iiwia3ViZXJuZXRlcy5pby9z                                                                             ZXJ2aWNlYWNjb3VudC9uYW1lc3BhY2UiOiJheGFzZ3NpdCIsImt1YmVybmV0ZXMuaW8vc2VydmljZWFj                                                                             Y291bnQvc2VjcmV0Lm5hbWUiOiJheGFzZ3VzZXItdG9rZW4tOXo0Z2MiLCJrdWJlcm5ldGVzLmlvL3Nl                                                                             cnZpY2VhY2NvdW50L3NlcnZpY2UtYWNjb3VudC5uYW1lIjoiYXhhc2d1c2VyIiwia3ViZXJuZXRlcy5p                                                                             by9zZXJ2aWNlYWNjb3VudC9zZXJ2aWNlLWFjY291bnQudWlkIjoiYTRmNTUwMmEtNTUyMC0xMWU5LWI0                                                                             MDYtMDAxNTVkZGViOTAzIiwic3ViIjoic3lzdGVtOnNlcnZpY2VhY2NvdW50OmF4YXNnc2l0OmF4YXNn                                                                             dXNlciJ9.Wicvvm4uInARmjNNB6zCPcDEeItXuY0VZQM0ZoWS7gaRXpBnkzqJJ56wQ1k5-DPDAxlmUz8                                                                             21E6KkIdKbCq688VFIeLL_C6vke4OY_o1zFycfn5RTj5HTzNFxv3om1xenRmjKXPUr4mgbvvRmdC9AoL                                                                             kchjebzvtUC7Fj0A62TgMfonAjkwAsx7_d5PvNHZ5IzUfQ_gGSqeeDLtvXQN0xGlQckNS-p-SH6y3JU-                                                                             RKV_ZYOi2LfvwphY9t3wLArJ-0VoBjt6LvyoIO-kaoVfpkldTraIlPocWc0GG5NvAXRp-NpdUFnnRXft                                                                             3FM-WPc3Q-nI9g-kSkaKhkNLwdCH9RA
The server uses a certificate signed by an unknown authority.
You can bypass the certificate check, but any data you send to the server could                                                                              be intercepted by others.
Use insecure connections? (y/n): y

error: The token provided is invalid or expired.

You have new mail in /var/spool/mail/root
[root@mnode1 ~]# oc login --token=eyJhbGciOiJSUzI1NiIsInR5cCI6IkpXVCJ9.eyJpc3MiOiJrdWJlcm5                                                                   ldGVzL3NlcnZpY2VhY2NvdW50Iiwia3ViZXJuZXRlcy5pby9zZXJ2aWNlYWNjb3VudC9uYW1lc3BhY2UiOiJheGFzZ                                                                   3NpdCIsImt1YmVybmV0ZXMuaW8vc2VydmljZWFjY291bnQvc2VjcmV0Lm5hbWUiOiJheGFzZ3VzZXItdG9rZW4tOXo                                                                   0Z2MiLCJrdWJlcm5ldGVzLmlvL3NlcnZpY2VhY2NvdW50L3NlcnZpY2UtYWNjb3VudC5uYW1lIjoiYXhhc2d1c2VyI                                                                   iwia3ViZXJuZXRlcy5pby9zZXJ2aWNlYWNjb3VudC9zZXJ2aWNlLWFjY291bnQudWlkIjoiYTRmNTUwMmEtNTUyMC0                                                                   xMWU5LWI0MDYtMDAxNTVkZGViOTAzIiwic3ViIjoic3lzdGVtOnNlcnZpY2VhY2NvdW50OmF4YXNnc2l0OmF4YXNnd                                                                   XNlciJ9.Wicvvm4uInARmjNNB6zCPcDEeItXuY0VZQM0ZoWS7gaRXpBnkzqJJ56wQ1k5-DPDAxlmUz821E6KkIdKbC                                                                   q688VFIeLL_C6vke4OY_o1zFycfn5RTj5HTzNFxv3om1xenRmjKXPUr4mgbvvRmdC9AoLkchjebzvtUC7Fj0A62TgM                                                                   fonAjkwAsx7_d5PvNHZ5IzUfQ_gGSqeeDLtvXQN0xGlQckNS-p-SH6y3JU-RKV_ZYOi2LfvwphY9t3wLArJ-0VoBjt                                                                   6LvyoIO-kaoVfpkldTraIlPocWc0GG5NvAXRp-NpdUFnnRXft3FM-WPc3Q-nI9g-kSkaKhkNLwdCH9RA
Logged into "https://admin.ocp.eabdc:8443" as "system:serviceaccount:axasgsit:axasguser" u                                                                   sing the token provided.

You don't have any projects. Contact your system administrator to request a project.
You have new mail in /var/spool/mail/root
[root@mnode1 ~]# oc get pods
Error from server (Forbidden): pods is forbidden: User "system:serviceaccount:axasgsit:axa                                                                   sguser" cannot list pods in the namespace "default": User "system:serviceaccount:axasgsit:                                                                   axasguser" cannot list pods in project "default"
[root@mnode1 ~]# oc get nodes
Error from server (Forbidden): nodes is forbidden: User "system:serviceaccount:axasgsit:axasguser" cannot list nodes at the cluster scope: User "system:serviceaccount:axasgsit:axasguser" cannot list all nodes in the cluster
[root@mnode1 ~]# oc projects
You are not a member of any projects. You can request a project to be created with the 'new-project' command.
[root@mnode1 ~]# cd /etc/origin/master
You have new mail in /var/spool/mail/root
[root@mnode1 master]# vi master-config.yml
[root@mnode1 master]# vi master-config.yaml
You have new mail in /var/spool/mail/root
[root@mnode1 master]# oc describe serviceaccount axasguser
Error from server (NotFound): serviceaccounts "axasguser" not found
[root@mnode1 master]# oc whoami
admin
You have new mail in /var/spool/mail/root
[root@mnode1 master]# oc login --token=eyJhbGciOiJSUzI1NiIsInR5cCI6IkpXVCJ9.eyJpc3MiOiJrdWJlcm5ldGVzL3NlcnZpY2VhY2NvdW50Iiwia3ViZXJuZXRlcy5pby9zZXJ2aWNlYWNjb3VudC9uYW1lc3BhY2UiOiJheGFzZ3NpdCIsImt1YmVybmV0ZXMuaW8vc2VydmljZWFjY291bnQvc2VjcmV0Lm5hbWUiOiJheGFzZ3VzZXItdG9rZW4tOXo0Z2MiLCJrdWJlcm5ldGVzLmlvL3NlcnZpY2VhY2NvdW50L3NlcnZpY2UtYWNjb3VudC5uYW1lIjoiYXhhc2d1c2VyIiwia3ViZXJuZXRlcy5pby9zZXJ2aWNlYWNjb3VudC9zZXJ2aWNlLWFjY291bnQudWlkIjoiYTRmNTUwMmEtNTUyMC0xMWU5LWI0MDYtMDAxNTVkZGViOTAzIiwic3ViIjoic3lzdGVtOnNlcnZpY2VhY2NvdW50OmF4YXNnc2l0OmF4YXNndXNlciJ9.Wicvvm4uInARmjNNB6zCPcDEeItXuY0VZQM0ZoWS7gaRXpBnkzqJJ56wQ1k5-DPDAxlmUz821E6KkIdKbCq688VFIeLL_C6vke4OY_o1zFycfn5RTj5HTzNFxv3om1xenRmjKXPUr4mgbvvRmdC9AoLkchjebzvtUC7Fj0A62TgMfonAjkwAsx7_d5PvNHZ5IzUfQ_gGSqeeDLtvXQN0xGlQckNS-p-SH6y3JU-RKV_ZYOi2LfvwphY9t3wLArJ-0VoBjt6LvyoIO-kaoVfpkldTraIlPocWc0GG5NvAXRp-NpdUFnnRXft3FM-WPc3Q-nI9g-kSkaKhkNLwdCH9RA^C                                             [root@mnode1 master]#
[root@mnode1 master]# oc login --token=eyJhbGciOiJSUzI1NiIsInR5cCI6IkpXVCJ9.eyJpc3MiOiJrdWJlcm5ldGVzL3NlcnZpY2VhY2NvdW50Iiwia3ViZXJuZXRlcy5pby9zZXJ2aWNlYWNjb3VudC9uYW1lc3BhY2UiOiJheGFzZ3NpdCIsImt1YmVybmV0ZXMuaW8vc2VydmljZWFjY291bnQvc2VjcmV0Lm5hbWUiOiJheGFzZ3VzZXItdG9rZW4tOXo0Z2MiLCJrdWJlcm5ldGVzLmlvL3NlcnZpY2VhY2NvdW50L3NlcnZpY2UtYWNjb3VudC5uYW1lIjoiYXhhc2d1c2VyIiwia3ViZXJuZXRlcy5pby9zZXJ2aWNlYWNjb3VudC9zZXJ2aWNlLWFjY291bnQudWlkIjoiYTRmNTUwMmEtNTUyMC0xMWU5LWI0MDYtMDAxNTVkZGViOTAzIiwic3ViIjoic3lzdGVtOnNlcnZpY2VhY2NvdW50OmF4YXNnc2l0OmF4YXNndXNlciJ9.Wicvvm4uInARmjNNB6zCPcDEeItXuY0VZQM0ZoWS7gaRXpBnkzqJJ56wQ1k5-DPDAxlmUz821E6KkIdKbCq688VFIeLL_C6vke4OY_o1zFycfn5RTj5HTzNFxv3om1xenRmjKXPUr4mgbvvRmdC9AoLkchjebzvtUC7Fj0A62TgMfonAjkwAsx7_d5PvNHZ5IzUfQ_gGSqeeDLtvXQN0xGlQckNS-p-SH6y3JU-RKV_ZYOi2LfvwphY9t3wLArJ-0VoBjt6LvyoIO-kaoVfpkldTraIlPocWc0GG5NvAXRp-NpdUFnnRXft3FM-WPc3Q-nI9g-kSkaKhkNLwdCH9RA
Logged into "https://admin.ocp.eabdc:8443" as "system:serviceaccount:axasgsit:axasguser" using the token provided.

You don't have any projects. Contact your system administrator to request a project.
[root@mnode1 master]# oc whoami
admin
[root@mnode1 master]# oc whoami -t
WgcD1yvMuhpd--WROHSU7Gm9VyUyybbOJgX9guGJuMc
You have new mail in /var/spool/mail/root
[root@mnode1 master]# oc login https://admin.ocp.eabdc:8443 --token=pKEQ9DZGyxHV_xVpNIaog0                                                                   YIil2TrDkz40ubx77JkYM
Logged into "https://admin.ocp.eabdc:8443" as "admin" using the token provided.

You have access to the following projects and can switch between them with 'oc project <pr                                                                   ojectname>':

    121demo
    ax-project-001
    axasgsit
    axasgsit2
    axasgsit3
  * default
    demo2
    eab
    eab-121-v3-dev
    eab-cafe-dev
    eab-cafe-sit
    eab-ocr-service
    eab-time-sheet
    eab-time-sheet-dev
    eabtimesheet
    kube-public
    kube-service-catalog
    kube-system
    logging
    management-infra
    ocr-service-dev
    ocr-service-sit
    openshift
    openshift-infra
    openshift-metrics
    openshift-node
    openshift-web-console
    php
    sftp
    test

Using project "default".
You have new mail in /var/spool/mail/root
[root@mnode1 master]# docker login -u admin -p $(oc whoami -t) 172.30.42.183:5000
Login Succeeded
[root@mnode1 master]#
