login as: root
root@admin.ocp.eabdc's password:
Last login: Tue Apr  2 17:57:36 2019 from 192.168.225.253
[root@lb ~]# pwd
/root
[root@lb ~]# oc login https://admin.ocp.eabdc:8443 --token=pKEQ9DZGyxHV_xVpNIaog                                                                             0YIil2TrDkz40ubx77JkYM
Logged into "https://admin.ocp.eabdc:8443" as "admin" using the token provided.

You have access to the following projects and can switch between them with 'oc p                                                                             roject <projectname>':

    121demo
    ax-project-001
    axasgsit
    axasgsit2
    axasgsit3
  * default
    demo2
    eab
    eab-121-v3-dev
    eab-cafe-dev
    eab-cafe-sit
    eab-ocr-service
    eab-time-sheet
    eab-time-sheet-dev
    eabtimesheet
    kube-public
    kube-service-catalog
    kube-system
    logging
    management-infra
    ocr-service-dev
    ocr-service-sit
    openshift
    openshift-infra
    openshift-metrics
    openshift-node
    openshift-web-console
    php
    sftp
    test

Using project "default".
[root@lb ~]# oc whoami -t
pKEQ9DZGyxHV_xVpNIaog0YIil2TrDkz40ubx77JkYM
[root@lb ~]# docker login -u admin -p $(oc whoami -t) docker-registry-default.oc                                                                             p.eabdc
Error response from daemon: Get https://docker-registry-default.ocp.eabdc/v1/use                                                                             rs/: x509: certificate signed by unknown authority
[root@lb ~]# docker login -u admin -p $(oc whoami -t) 172.30.42.183
Error response from daemon: Get https://172.30.42.183/v1/users/: dial tcp 172.30                                                                             .42.183:443: i/o timeout
[root@lb ~]# docker login -u admin -p $(oc whoami -t) 172.30.42.183:5000
Error response from daemon: Get https://172.30.42.183:5000/v1/users/: dial tcp 1                                                                             72.30.42.183:5000: i/o timeout
[root@lb ~]#
