login as: root
root@admin.ocp.eabdc's password:
Last login: Tue Mar 26 10:32:58 2019 from 192.168.225.253
[root@lb ~]# ls
anaconda-ks.cfg
ax
keycloak-4.8.3.Final
keycloak-4.8.3.Final.tar.gz
oc-3.11.59-linux.tar.gz
playbook
rhel-7-fast-datapath-rpms.tgz
sat-6-isos--rhel-7-server-ose-3_DOT_9-x86_64-2018-04-30T06.10-01.iso
[root@lb ~]# oc projects
error: You must be logged in to the server (Unauthorized)
[root@lb ~]# oc login https://admin.ocp.eabdc:8443 --token=un0oUNIWgOBiJdu-1JIOG     SIG-7ywfbcKjPhy36AuBSQ
Logged into "https://admin.ocp.eabdc:8443" as "admin" using the token provided.

You have access to the following projects and can switch between them with 'oc p     roject <projectname>':

    121demo
    ax-project-001
    axasgsit
    axasgsit2
    axasgsit3
    default
    demo2
    eab
    eab-cafe-dev
    eab-cafe-sit
    eab-ocr-service
  * eab-time-sheet
    eab-time-sheet-dev
    eabtimesheet
    kube-public
    kube-service-catalog
    kube-system
    logging
    management-infra
    ocr-service-dev
    ocr-service-sit
    openshift
    openshift-infra
    openshift-metrics
    openshift-node
    openshift-web-console
    php
    sftp
    test

Using project "eab-time-sheet".
[root@lb ~]# oc project ax-project-001
Now using project "ax-project-001" on server "https://admin.ocp.eabdc:8443".
[root@lb ~]# ls
anaconda-ks.cfg  keycloak-4.8.3.Final         oc-3.11.59-linux.tar.gz  rhel-7-fast-da
ax               keycloak-4.8.3.Final.tar.gz  playbook                 sat-6-isos--rh
[root@lb ~]# oc get pv
NAME                  CAPACITY   ACCESS MODES   RECLAIM POLICY   STATUS    CLAIM
db-pv001              5Gi        RWO            Retain           Bound     ax-project
metrics-pv            10Gi       RWO            Retain           Bound     openshift-
registry-storage-pv   5Gi        RWX            Retain           Bound     default/re
[root@lb ~]# oc get pvc
NAME      STATUS    VOLUME     CAPACITY   ACCESS MODES   STORAGECLASS   AGE
mongodb   Bound     db-pv001   5Gi        RWO                           15h
[root@lb ~]# oc get pods
NAME              READY     STATUS    RESTARTS   AGE
mongodb-2-jv276   1/1       Running   0          14h
[root@lb ~]# oc port-forward mongodb-2-jv276 30327:27017
Forwarding from 127.0.0.1:30327 -> 27017
Forwarding from [::1]:30327 -> 27017
E0327 10:13:11.549873    5007 portforward.go:178] lost connection to pod
[root@lb ~]# oc get pod
NAME              READY     STATUS    RESTARTS   AGE
mongodb-2-jv276   1/1       Running   0          14h
[root@lb ~]# oc port-forward mongodb-2-jv276 30328:27017
Forwarding from 127.0.0.1:30328 -> 27017
Forwarding from [::1]:30328 -> 27017
E0327 10:20:16.159381    5371 portforward.go:178] lost connection to pod
[root@lb ~]# pwd
/root
[root@lb ~]# cd /nfs
[root@lb nfs]# ls
db    logging-es      metrics     prometheus-alertbuffer   registry
etcd  logging-es-ops  prometheus  prometheus-alertmanager
[root@lb nfs]# ls -al
total 4
drwxrwxrwx. 11 root      root       178 Mar 26 18:25 .
dr-xr-xr-x. 22 root      root       287 Mar 26 15:00 ..
drwxrwsr-x.  4 nfsnobody nfsnobody 4096 Mar 27 10:58 db
drwxrwxrwx.  2 nfsnobody nfsnobody    6 May 26  2018 etcd
drwxrwxrwx.  5 nfsnobody nfsnobody   33 May 27  2018 logging-es
drwxrwxrwx.  2 nfsnobody nfsnobody    6 May 26  2018 logging-es-ops
drwxrwxrwx.  4 nfsnobody nfsnobody   84 May 26  2018 metrics
drwxrwxrwx.  2 nfsnobody nfsnobody    6 May 26  2018 prometheus
drwxrwxrwx.  2 nfsnobody nfsnobody    6 May 26  2018 prometheus-alertbuffer
drwxrwxrwx.  2 nfsnobody nfsnobody    6 May 26  2018 prometheus-alertmanager
drwxrwsr-x.  3 nfsnobody nfsnobody   20 May 26  2018 registry
[root@lb nfs]# ls db
collection-0--2948304758611504808.wt  journal
collection-0--9066947447752850754.wt  _mdb_catalog.wt
collection-2--2948304758611504808.wt  mongod.lock
collection-4--2948304758611504808.wt  sizeStorer.wt
diagnostic.data                       storage.bson
index-1--2948304758611504808.wt       WiredTiger
index-1--9066947447752850754.wt       WiredTigerLAS.wt
index-3--2948304758611504808.wt       WiredTiger.lock
index-5--2948304758611504808.wt       WiredTiger.turtle
index-6--2948304758611504808.wt       WiredTiger.wt
[root@lb nfs]# ls -al
total 4
drwxrwxrwx. 11 root      root       178 Mar 26 18:25 .
dr-xr-xr-x. 22 root      root       287 Mar 26 15:00 ..
drwxrwsr-x.  4 nfsnobody nfsnobody 4096 Mar 27 10:58 db
drwxrwxrwx.  2 nfsnobody nfsnobody    6 May 26  2018 etcd
drwxrwxrwx.  5 nfsnobody nfsnobody   33 May 27  2018 logging-es
drwxrwxrwx.  2 nfsnobody nfsnobody    6 May 26  2018 logging-es-ops
drwxrwxrwx.  4 nfsnobody nfsnobody   84 May 26  2018 metrics
drwxrwxrwx.  2 nfsnobody nfsnobody    6 May 26  2018 prometheus
drwxrwxrwx.  2 nfsnobody nfsnobody    6 May 26  2018 prometheus-alertbuffer
drwxrwxrwx.  2 nfsnobody nfsnobody    6 May 26  2018 prometheus-alertmanager
drwxrwsr-x.  3 nfsnobody nfsnobody   20 May 26  2018 registry
[root@lb nfs]# cd db
[root@lb db]# ls
collection-0--2948304758611504808.wt  journal
collection-0--9066947447752850754.wt  _mdb_catalog.wt
collection-2--2948304758611504808.wt  mongod.lock
collection-4--2948304758611504808.wt  sizeStorer.wt
diagnostic.data                       storage.bson
index-1--2948304758611504808.wt       WiredTiger
index-1--9066947447752850754.wt       WiredTigerLAS.wt
index-3--2948304758611504808.wt       WiredTiger.lock
index-5--2948304758611504808.wt       WiredTiger.turtle
index-6--2948304758611504808.wt       WiredTiger.wt
[root@lb db]# ls -al
total 352
drwxrwsr-x.  4 nfsnobody nfsnobody  4096 Mar 27 10:59 .
drwxrwxrwx. 11 root      root        178 Mar 26 18:25 ..
-rw-r--r--.  1       184 nfsnobody 36864 Mar 27 10:32 collection-0--294830475861     1504808.wt
-rw-r--r--.  1       184 nfsnobody 16384 Mar 27 10:31 collection-0--906694744775     2850754.wt
-rw-r--r--.  1       184 nfsnobody 16384 Mar 27 10:31 collection-2--294830475861     1504808.wt
-rw-r--r--.  1       184 nfsnobody 32768 Mar 27 10:31 collection-4--294830475861     1504808.wt
drwxr-sr-x.  2       184 nfsnobody   197 Mar 27 10:59 diagnostic.data
-rw-r--r--.  1       184 nfsnobody 36864 Mar 27 10:32 index-1--29483047586115048     08.wt
-rw-r--r--.  1       184 nfsnobody 16384 Mar 27 10:30 index-1--90669474477528507     54.wt
-rw-r--r--.  1       184 nfsnobody 16384 Mar 27 10:31 index-3--29483047586115048     08.wt
-rw-r--r--.  1       184 nfsnobody 16384 Mar 26 19:21 index-5--29483047586115048     08.wt
-rw-r--r--.  1       184 nfsnobody 16384 Mar 27 10:31 index-6--29483047586115048     08.wt
drwxr-sr-x.  2       184 nfsnobody   110 Mar 27 10:31 journal
-rw-r--r--.  1       184 nfsnobody 32768 Mar 27 10:31 _mdb_catalog.wt
-rw-r--r--.  1       184 nfsnobody     2 Mar 27 10:31 mongod.lock
-rw-r--r--.  1       184 nfsnobody 36864 Mar 27 10:33 sizeStorer.wt
-rw-r--r--.  1       184 nfsnobody    95 Mar 26 19:21 storage.bson
-rw-r--r--.  1       184 nfsnobody    46 Mar 26 19:21 WiredTiger
-rw-r--r--.  1       184 nfsnobody  4096 Mar 27 10:31 WiredTigerLAS.wt
-rw-r--r--.  1       184 nfsnobody    21 Mar 26 19:21 WiredTiger.lock
-rw-r--r--.  1       184 nfsnobody   941 Mar 27 10:59 WiredTiger.turtle
-rw-r--r--.  1       184 nfsnobody 57344 Mar 27 10:59 WiredTiger.wt
[root@lb db]# ls
collection-0--2948304758611504808.wt  journal
collection-0--9066947447752850754.wt  _mdb_catalog.wt
collection-2--2948304758611504808.wt  mongod.lock
collection-4--2948304758611504808.wt  sizeStorer.wt
diagnostic.data                       storage.bson
index-1--2948304758611504808.wt       WiredTiger
index-1--9066947447752850754.wt       WiredTigerLAS.wt
index-3--2948304758611504808.wt       WiredTiger.lock
index-5--2948304758611504808.wt       WiredTiger.turtle
index-6--2948304758611504808.wt       WiredTiger.wt
[root@lb db]# vi collection-0--2948304758611504808.wt
[root@lb db]# vi WiredTiger
[root@lb db]# vi WiredTigerLAS.wt
[root@lb db]# df -h
Filesystem                 Size  Used Avail Use% Mounted on
/dev/mapper/rhel-root       44G  3.9G   41G   9% /
devtmpfs                   3.9G     0  3.9G   0% /dev
tmpfs                      3.9G     0  3.9G   0% /dev/shm
tmpfs                      3.9G  8.8M  3.9G   1% /run
tmpfs                      3.9G     0  3.9G   0% /sys/fs/cgroup
/dev/sda1                 1014M  184M  831M  19% /boot
/dev/mapper/nfs--vg-lvnfs  200G   56G  145G  28% /nfs
tmpfs                      782M     0  782M   0% /run/user/0
[root@lb db]# cd ..
[root@lb nfs]# ls
db    logging-es      metrics     prometheus-alertbuffer   registry
etcd  logging-es-ops  prometheus  prometheus-alertmanager
[root@lb nfs]# ls -al
total 4
drwxrwxrwx. 11 root      root       178 Mar 26 18:25 .
dr-xr-xr-x. 22 root      root       287 Mar 26 15:00 ..
drwxrwsr-x.  4 nfsnobody nfsnobody 4096 Mar 27 11:09 db
drwxrwxrwx.  2 nfsnobody nfsnobody    6 May 26  2018 etcd
drwxrwxrwx.  5 nfsnobody nfsnobody   33 May 27  2018 logging-es
drwxrwxrwx.  2 nfsnobody nfsnobody    6 May 26  2018 logging-es-ops
drwxrwxrwx.  4 nfsnobody nfsnobody   84 May 26  2018 metrics
drwxrwxrwx.  2 nfsnobody nfsnobody    6 May 26  2018 prometheus
drwxrwxrwx.  2 nfsnobody nfsnobody    6 May 26  2018 prometheus-alertbuffer
drwxrwxrwx.  2 nfsnobody nfsnobody    6 May 26  2018 prometheus-alertmanager
drwxrwsr-x.  3 nfsnobody nfsnobody   20 May 26  2018 registry
[root@lb nfs]# pwd
/nfs
[root@lb nfs]# mkdir eab-time-sheet-dev-db-pv001
[root@lb nfs]# ls -al eab*
total 0
drwxr-xr-x.  2 root root   6 Mar 27 11:23 .
drwxrwxrwx. 12 root root 213 Mar 27 11:23 ..
[root@lb nfs]# ls -al
total 4
drwxrwxrwx. 12 root      root       213 Mar 27 11:23 .
dr-xr-xr-x. 22 root      root       287 Mar 26 15:00 ..
drwxrwsr-x.  4 nfsnobody nfsnobody 4096 Mar 27 11:25 db
drwxr-xr-x.  2 root      root         6 Mar 27 11:23 eab-time-sheet-dev-db-pv001
drwxrwxrwx.  2 nfsnobody nfsnobody    6 May 26  2018 etcd
drwxrwxrwx.  5 nfsnobody nfsnobody   33 May 27  2018 logging-es
drwxrwxrwx.  2 nfsnobody nfsnobody    6 May 26  2018 logging-es-ops
drwxrwxrwx.  4 nfsnobody nfsnobody   84 May 26  2018 metrics
drwxrwxrwx.  2 nfsnobody nfsnobody    6 May 26  2018 prometheus
drwxrwxrwx.  2 nfsnobody nfsnobody    6 May 26  2018 prometheus-alertbuffer
drwxrwxrwx.  2 nfsnobody nfsnobody    6 May 26  2018 prometheus-alertmanager
drwxrwsr-x.  3 nfsnobody nfsnobody   20 May 26  2018 registry
[root@lb nfs]# chown -R nfsnobody eab-time-sheet-dev-db-pv001
[root@lb nfs]# ls -al
total 4
drwxrwxrwx. 12 root      root       213 Mar 27 11:23 .
dr-xr-xr-x. 22 root      root       287 Mar 26 15:00 ..
drwxrwsr-x.  4 nfsnobody nfsnobody 4096 Mar 27 11:26 db
drwxr-xr-x.  2 nfsnobody root         6 Mar 27 11:23 eab-time-sheet-dev-db-pv001
drwxrwxrwx.  2 nfsnobody nfsnobody    6 May 26  2018 etcd
drwxrwxrwx.  5 nfsnobody nfsnobody   33 May 27  2018 logging-es
drwxrwxrwx.  2 nfsnobody nfsnobody    6 May 26  2018 logging-es-ops
drwxrwxrwx.  4 nfsnobody nfsnobody   84 May 26  2018 metrics
drwxrwxrwx.  2 nfsnobody nfsnobody    6 May 26  2018 prometheus
drwxrwxrwx.  2 nfsnobody nfsnobody    6 May 26  2018 prometheus-alertbuffer
drwxrwxrwx.  2 nfsnobody nfsnobody    6 May 26  2018 prometheus-alertmanager
drwxrwsr-x.  3 nfsnobody nfsnobody   20 May 26  2018 registry
[root@lb nfs]# chgrp -R nfsnobody eab-time-sheet-dev-db-pv001
[root@lb nfs]# chmod -R 2775 eab-time-sheet-dev-db-pv001
[root@lb nfs]# ls -al
total 4
drwxrwxrwx. 12 root      root       213 Mar 27 11:23 .
dr-xr-xr-x. 22 root      root       287 Mar 26 15:00 ..
drwxrwsr-x.  4 nfsnobody nfsnobody 4096 Mar 27 11:29 db
drwxrwsr-x.  2 nfsnobody nfsnobody    6 Mar 27 11:23 eab-time-sheet-dev-db-pv001
drwxrwxrwx.  2 nfsnobody nfsnobody    6 May 26  2018 etcd
drwxrwxrwx.  5 nfsnobody nfsnobody   33 May 27  2018 logging-es
drwxrwxrwx.  2 nfsnobody nfsnobody    6 May 26  2018 logging-es-ops
drwxrwxrwx.  4 nfsnobody nfsnobody   84 May 26  2018 metrics
drwxrwxrwx.  2 nfsnobody nfsnobody    6 May 26  2018 prometheus
drwxrwxrwx.  2 nfsnobody nfsnobody    6 May 26  2018 prometheus-alertbuffer
drwxrwxrwx.  2 nfsnobody nfsnobody    6 May 26  2018 prometheus-alertmanager
drwxrwsr-x.  3 nfsnobody nfsnobody   20 May 26  2018 registry
[root@lb nfs]# cd ea*
[root@lb eab-time-sheet-dev-db-pv001]# ls
[root@lb eab-time-sheet-dev-db-pv001]# ls -al
total 0
drwxrwsr-x.  2 nfsnobody nfsnobody   6 Mar 27 11:23 .
drwxrwxrwx. 12 root      root      213 Mar 27 11:23 ..
[root@lb eab-time-sheet-dev-db-pv001]# cd ..
[root@lb nfs]# pwd
/nfs
[root@lb nfs]# cd eab*
[root@lb eab-time-sheet-dev-db-pv001]# ls
[root@lb eab-time-sheet-dev-db-pv001]# cd ..
[root@lb nfs]# ls
db                           logging-es      prometheus               registry
eab-time-sheet-dev-db-pv001  logging-es-ops  prometheus-alertbuffer
etcd                         metrics         prometheus-alertmanager
[root@lb nfs]# cd /etc
[root@lb etc]# ls
adjtime                  init.d                     python
aliases                  inittab                    rc0.d
aliases.db               inputrc                    rc1.d
alternatives             iproute2                   rc2.d
anacrontab               issue                      rc3.d
ansible                  issue.net                  rc4.d
asound.conf              java                       rc5.d
audisp                   jvm                        rc6.d
audit                    jvm-commmon                rc.d
bash_completion.d        kdump.conf                 rc.local
bashrc                   kernel                     redhat-release
binfmt.d                 krb5.conf                  request-key.conf
chkconfig.d              krb5.conf.d                request-key.d
chrony.conf              ld.so.cache                resolv.conf
chrony.keys              ld.so.conf                 rhsm
containers               ld.so.conf.d               rpc
cron.d                   libaudit.conf              rpm
cron.daily               libnl                      rsyncd.conf
cron.deny                libuser.conf               rsyslog.conf
cron.hourly              locale.conf                rsyslog.d
cron.monthly             localtime                  rwtab
crontab                  login.defs                 rwtab.d
cron.weekly              logrotate.conf             sasl2
crypttab                 logrotate.d                securetty
csh.cshrc                lvm                        security
csh.login                machine-id                 selinux
dbus-1                   magic                      services
default                  makedumpfile.conf.sample   sestatus.conf
depmod.d                 man_db.conf                shadow
dhcp                     maven                      shadow-
DIR_COLORS               mke2fs.conf                shells
DIR_COLORS.256color      modprobe.d                 skel
DIR_COLORS.lightbgcolor  modules-load.d             sos.conf
docker                   motd                       ssh
dracut.conf              mtab                       ssl
dracut.conf.d            my.cnf                     statetab
e2fsck.conf              my.cnf.d                   statetab.d
environment              netconfig                  subgid
ethertypes               NetworkManager             subuid
exports                  networks                   sudo.conf
exports.d                nfs.conf                   sudoers
favicon.png              nfsmount.conf              sudoers.d
filesystems              nsswitch.conf              sudo-ldap.conf
firewalld                nsswitch.conf.bak          sysconfig
fstab                    oci-register-machine.conf  sysctl.conf
gcrypt                   oci-umount                 sysctl.d
GeoIP.conf               oci-umount.conf            systemd
GeoIP.conf.default       openldap                   system-release
gnupg                    opt                        system-release-cpe
GREP_COLORS              os-release                 terminfo
groff                    pam.d                      tmpfiles.d
group                    passwd                     trusted-key.key
group-                   passwd-                    tuned
grub2.cfg                pkcs11                     udev
grub.d                   pki                        vconsole.conf
gshadow                  plymouth                   virc
gshadow-                 pm                         wgetrc
gss                      polkit-1                   wpa_supplicant
gssproxy                 popt.d                     X11
haproxy                  postfix                    xdg
host.conf                ppp                        xinetd.d
hostname                 prelink.conf.d             yum
hosts                    printcap                   yum.conf
hosts.allow              profile                    yum.repos.d
hosts.deny               profile.d
idmapd.conf              protocols
[root@lb etc]# vi exports
[root@lb etc]# cd /nfs
[root@lb nfs]# ls
db  eab-time-sheet-dev-db-pv001  etcd  logging-es  logging-es-ops  metrics  prometheu
[root@lb nfs]# vi /etc/exports
[root@lb nfs]# exportfs -ra
[root@lb nfs]# vi /var/lib/nfs/etab
[root@lb nfs]# vi /var/lib/nfs/etab
[root@lb nfs]# showmount -e
Export list for lb:
/nfs/prometheus-alertbuffer      *
/nfs/prometheus-alertmanager     *
/nfs/prometheus                  *
/nfs/etcd                        *
/nfs/logging-es-ops              *
/nfs/logging-es                  *
/nfs/metrics                     *
/nfs/registry                    *
/nfs/eab-time-sheet-dev-db-pv001 *
/nfs/db                          *
[root@lb nfs]# ls
db                           logging-es      prometheus               registry
eab-time-sheet-dev-db-pv001  logging-es-ops  prometheus-alertbuffer
etcd                         metrics         prometheus-alertmanager
[root@lb nfs]# cd eab*
[root@lb eab-time-sheet-dev-db-pv001]# cd ..
[root@lb nfs]# ls -al
total 4
drwxrwxrwx. 12 root      root       213 Mar 27 11:23 .
dr-xr-xr-x. 22 root      root       287 Mar 26 15:00 ..
drwxrwsr-x.  4 nfsnobody nfsnobody 4096 Mar 27 12:27 db
drwxrwsr-x.  2 nfsnobody nfsnobody    6 Mar 27 11:23 eab-time-sheet-dev-db-pv001
drwxrwxrwx.  2 nfsnobody nfsnobody    6 May 26  2018 etcd
drwxrwxrwx.  5 nfsnobody nfsnobody   33 May 27  2018 logging-es
drwxrwxrwx.  2 nfsnobody nfsnobody    6 May 26  2018 logging-es-ops
drwxrwxrwx.  4 nfsnobody nfsnobody   84 May 26  2018 metrics
drwxrwxrwx.  2 nfsnobody nfsnobody    6 May 26  2018 prometheus
drwxrwxrwx.  2 nfsnobody nfsnobody    6 May 26  2018 prometheus-alertbuffer
drwxrwxrwx.  2 nfsnobody nfsnobody    6 May 26  2018 prometheus-alertmanager
drwxrwsr-x.  3 nfsnobody nfsnobody   20 May 26  2018 registry
[root@lb nfs]# cd eab*
[root@lb eab-time-sheet-dev-db-pv001]# ls
[root@lb eab-time-sheet-dev-db-pv001]# ls -al
total 0
drwxrwsr-x.  2 nfsnobody nfsnobody   6 Mar 27 11:23 .
drwxrwxrwx. 12 root      root      213 Mar 27 11:23 ..
[root@lb eab-time-sheet-dev-db-pv001]# pwd
/nfs/eab-time-sheet-dev-db-pv001
[root@lb eab-time-sheet-dev-db-pv001]# ls
[root@lb eab-time-sheet-dev-db-pv001]# pwd
/nfs/eab-time-sheet-dev-db-pv001
[root@lb eab-time-sheet-dev-db-pv001]# ls -al
total 0
drwxrwsr-x.  2 nfsnobody nfsnobody   6 Mar 27 11:23 .
drwxrwxrwx. 12 root      root      213 Mar 27 11:23 ..
[root@lb eab-time-sheet-dev-db-pv001]# cd ..
[root@lb nfs]# ls -al
total 4
drwxrwxrwx. 12 root      root       213 Mar 27 11:23 .
dr-xr-xr-x. 22 root      root       287 Mar 26 15:00 ..
drwxrwsr-x.  4 nfsnobody nfsnobody 4096 Mar 27 12:35 db
drwxrwsr-x.  2 nfsnobody nfsnobody    6 Mar 27 11:23 eab-time-sheet-dev-db-pv001
drwxrwxrwx.  2 nfsnobody nfsnobody    6 May 26  2018 etcd
drwxrwxrwx.  5 nfsnobody nfsnobody   33 May 27  2018 logging-es
drwxrwxrwx.  2 nfsnobody nfsnobody    6 May 26  2018 logging-es-ops
drwxrwxrwx.  4 nfsnobody nfsnobody   84 May 26  2018 metrics
drwxrwxrwx.  2 nfsnobody nfsnobody    6 May 26  2018 prometheus
drwxrwxrwx.  2 nfsnobody nfsnobody    6 May 26  2018 prometheus-alertbuffer
drwxrwxrwx.  2 nfsnobody nfsnobody    6 May 26  2018 prometheus-alertmanager
drwxrwsr-x.  3 nfsnobody nfsnobody   20 May 26  2018 registry
[root@lb nfs]# service nfs restart
Redirecting to /bin/systemctl restart nfs.service
[root@lb nfs]# showmount -e
Export list for lb:
/nfs/prometheus-alertbuffer      *
/nfs/prometheus-alertmanager     *
/nfs/prometheus                  *
/nfs/etcd                        *
/nfs/logging-es-ops              *
/nfs/logging-es                  *
/nfs/metrics                     *
/nfs/registry                    *
/nfs/eab-time-sheet-dev-db-pv001 *
/nfs/db                          *
[root@lb nfs]# pwd
/nfs
[root@lb nfs]# ls
db                           logging-es      prometheus               registry
eab-time-sheet-dev-db-pv001  logging-es-ops  prometheus-alertbuffer
etcd                         metrics         prometheus-alertmanager
[root@lb nfs]# oc login https://admin.ocp.eabdc:8443 --token=un0oUNIWgOBiJdu-1JIOGSIG-7ywfbcKjPhy36AuBSQ
Logged into "https://admin.ocp.eabdc:8443" as "admin" using the token provided.

You have access to the following projects and can switch between them with 'oc project <projectname>':

    121demo
  * ax-project-001
    axasgsit
    axasgsit2
    axasgsit3
    default
    demo2
    eab
    eab-121-v3-dev
    eab-cafe-dev
    eab-cafe-sit
    eab-ocr-service
    eab-time-sheet
    eab-time-sheet-dev
    eabtimesheet
    kube-public
    kube-service-catalog
    kube-system
    logging
    management-infra
    ocr-service-dev
    ocr-service-sit
    openshift
    openshift-infra
    openshift-metrics
    openshift-node
    openshift-web-console
    php
    sftp
    test

Using project "ax-project-001".
[root@lb nfs]# oc project eab-time-sheet
Now using project "eab-time-sheet" on server "https://admin.ocp.eabdc:8443".
[root@lb nfs]# oc logs
error: expected 'logs (POD | TYPE/NAME) [CONTAINER_NAME]'.
POD or TYPE/NAME is a required argument for the logs command
See 'oc logs -h' for help and examples.
[root@lb nfs]# oc logs timesheet-web-36-m9g95
Error from server (BadRequest): container "timesheet-web" in pod "timesheet-web-36-m9
[root@lb nfs]# cd /var/log
[root@lb log]# ls
anaconda           cron-20190303       maillog-20190324    secure-20190324
audit              cron-20190310       messages            spooler
boot.log           cron-20190317       messages-20190303   spooler-20190303
boot.log-20180609  cron-20190324       messages-20190310   spooler-20190310
boot.log-20180613  dmesg               messages-20190317   spooler-20190317
boot.log-20180615  dmesg.old           messages-20190324   spooler-20190324
boot.log-20180616  firewalld           openshift           tallylog
boot.log-20180706  grubby              openshift-20190326  tuned
boot.log-20180713  grubby_prune_debug  openshift-20190327  wtmp
boot.log-20190316  lastlog             rhsm                yum.log
btmp               maillog             secure              yum.log-20190101
btmp-20190301      maillog-20190303    secure-20190303
chrony             maillog-20190310    secure-20190310
cron               maillog-20190317    secure-20190317
[root@lb log]# oc get events
LAST SEEN   FIRST SEEN   COUNT     NAME                                KIND      SUBOBJECT                  TYPE      REASON          SOURCE                        MESSAGE
2m          3d           18878     mongodb2-1-d8qn7.158e994b3b431e6e   Pod       spec.containers{mongodb}   Normal    Killing         kubelet, appnode2.ocp.eabdc   Killing container with id docker://mongodb:Need to kill Pod
22m         3d           18806     mongodb2-1-d8qn7.158e994c04640f4c   Pod                                  Warning   FailedKillPod   kubelet, appnode2.ocp.eabdc   error killing pod: [failed to "KillContainer" for "mongodb" with KillContainerError: "rpc error: code = Unknown desc = Error response from daemon: Cannot stop container 03a8e5d9c04423437b4247cf72ae590ea2707dc472ca617999d873522231c733: Cannot kill container 03a8e5d9c04423437b4247cf72ae590ea2707dc472ca617999d873522231c733: rpc error: code = 14 desc = grpc: the connection is unavailable"
, failed to "KillPodSandbox" for "e300b026-418a-11e9-b647-00155ddeb901" with KillPodSandboxError: "rpc error: code = Unknown desc = Error response from daemon: Cannot stop container d8512b828cd0950e0dab2fdcd0310921938a8f6f87b83757fa8317092e25db5d: Cannot kill container d8512b828cd0950e0dab2fdcd0310921938a8f6f87b83757fa8317092e25db5d: rpc error: code = 14 desc = grpc: the connection is unavailable"
]
1h        1h        1         timesheet-web-33-deploy.158fb736ed411917   Pod                                                              Normal    Scheduled                     default-scheduler             Successfully assigned timesheet-web-33-deploy to appnode1.ocp.eabdc
1h        1h        1         timesheet-web-33-deploy.158fb736fe5ee105   Pod                                                              Normal    SuccessfulMountVolume         kubelet, appnode1.ocp.eabdc   MountVolume.SetUp succeeded for volume "deployer-token-hzvmv"
1h        1h        1         timesheet-web-33-deploy.158fb73792dae9b8   Pod                     spec.containers{deployment}              Normal    Pulled                        kubelet, appnode1.ocp.eabdc   Container image "openshift3/ose-deployer:v3.9.25" already present on machine
1h        1h        1         timesheet-web-33-deploy.158fb737ba7cdfe7   Pod                     spec.containers{deployment}              Normal    Created                       kubelet, appnode1.ocp.eabdc   Created container
1h        1h        1         timesheet-web-33-deploy.158fb737dd29b363   Pod                     spec.containers{deployment}              Normal    Started                       kubelet, appnode1.ocp.eabdc   Started container
1h        1h        1         timesheet-web-33-l2ql7.158fb738f61b0fc0    Pod                                                              Normal    Scheduled                     default-scheduler             Successfully assigned timesheet-web-33-l2ql7 to appnode2.ocp.eabdc
1h        1h        1         timesheet-web-33-l2ql7.158fb73901390f57    Pod                                                              Normal    SuccessfulMountVolume         kubelet, appnode2.ocp.eabdc   MountVolume.SetUp succeeded for volume "volume-94fw2"
1h        1h        1         timesheet-web-33-l2ql7.158fb739022599e5    Pod                                                              Normal    SuccessfulMountVolume         kubelet, appnode2.ocp.eabdc   MountVolume.SetUp succeeded for volume "default-token-h7j5f"
1h        1h        481       timesheet-web-33-l2ql7.158fb7392ab61546    Pod                                                              Warning   FailedCreatePodSandBox        kubelet, appnode2.ocp.eabdc   Failed create pod sandbox: rpc error: code = Unknown desc = failed to start sandbox container for pod "timesheet-web-33-l2ql7": Error response from daemon: grpc: the connection is unavailable
1h        1h        240       timesheet-web-33-l2ql7.158fb739419f7646    Pod                                                              Normal    SandboxChanged                kubelet, appnode2.ocp.eabdc   Pod sandbox changed, it will be killed and re-created.
1h        1h        1         timesheet-web-33.158fb738f57c59a4          ReplicationController                                            Normal    SuccessfulCreate              replication-controller        Created pod: timesheet-web-33-l2ql7
1h        1h        1         timesheet-web-33.158fb7c529f05890          ReplicationController                                            Normal    SuccessfulDelete              replication-controller        Deleted pod: timesheet-web-33-l2ql7
39m       39m       1         timesheet-web-34-deploy.158fbb8586a23cc1   Pod                                                              Normal    Scheduled                     default-scheduler             Successfully assigned timesheet-web-34-deploy to appnode1.ocp.eabdc
39m       39m       1         timesheet-web-34-deploy.158fbb85936d4037   Pod                                                              Normal    SuccessfulMountVolume         kubelet, appnode1.ocp.eabdc   MountVolume.SetUp succeeded for volume "deployer-token-hzvmv"
39m       39m       1         timesheet-web-34-deploy.158fbb865684d3fb   Pod                     spec.containers{deployment}              Normal    Pulled                        kubelet, appnode1.ocp.eabdc   Container image "openshift3/ose-deployer:v3.9.25" already present on machine
39m       39m       1         timesheet-web-34-deploy.158fbb868160a695   Pod                     spec.containers{deployment}              Normal    Created                       kubelet, appnode1.ocp.eabdc   Created container
39m       39m       1         timesheet-web-34-deploy.158fbb86a2a25a22   Pod                     spec.containers{deployment}              Normal    Started                       kubelet, appnode1.ocp.eabdc   Started container
39m       39m       1         timesheet-web-34-m86qw.158fbb872df59533    Pod                                                              Normal    Scheduled                     default-scheduler             Successfully assigned timesheet-web-34-m86qw to appnode2.ocp.eabdc
39m       39m       1         timesheet-web-34-m86qw.158fbb873805c98f    Pod                                                              Normal    SuccessfulMountVolume         kubelet, appnode2.ocp.eabdc   MountVolume.SetUp succeeded for volume "volume-94fw2"
39m       39m       1         timesheet-web-34-m86qw.158fbb8739bdec50    Pod                                                              Normal    SuccessfulMountVolume         kubelet, appnode2.ocp.eabdc   MountVolume.SetUp succeeded for volume "default-token-h7j5f"
38m       39m       12        timesheet-web-34-m86qw.158fbb8769f65840    Pod                                                              Warning   FailedCreatePodSandBox        kubelet, appnode2.ocp.eabdc   Failed create pod sandbox: rpc error: code = Unknown desc = failed to start sandbox container for pod "timesheet-web-34-m86qw": Error response from daemon: grpc: the connection is unavailable
29m       39m       519       timesheet-web-34-m86qw.158fbb87ab3ca04c    Pod                                                              Normal    SandboxChanged                kubelet, appnode2.ocp.eabdc   Pod sandbox changed, it will be killed and re-created.
39m       39m       1         timesheet-web-34.158fbb872d5adf4d          ReplicationController                                            Normal    SuccessfulCreate              replication-controller        Created pod: timesheet-web-34-m86qw
29m       29m       1         timesheet-web-34.158fbc138c97e87b          ReplicationController                                            Normal    SuccessfulDelete              replication-controller        Deleted pod: timesheet-web-34-m86qw
25m       25m       1         timesheet-web-35-77rwn.158fbc49c1d33b80    Pod                                                              Normal    Scheduled                     default-scheduler             Successfully assigned timesheet-web-35-77rwn to appnode2.ocp.eabdc
25m       25m       1         timesheet-web-35-77rwn.158fbc49d42692b4    Pod                                                              Normal    SuccessfulMountVolume         kubelet, appnode2.ocp.eabdc   MountVolume.SetUp succeeded for volume "volume-94fw2"
25m       25m       1         timesheet-web-35-77rwn.158fbc49d6186742    Pod                                                              Normal    SuccessfulMountVolume         kubelet, appnode2.ocp.eabdc   MountVolume.SetUp succeeded for volume "default-token-h7j5f"
15m       25m       514       timesheet-web-35-77rwn.158fbc4a0b31b7cf    Pod                                                              Warning   FailedCreatePodSandBox        kubelet, appnode2.ocp.eabdc   Failed create pod sandbox: rpc error: code = Unknown desc = failed to start sandbox container for pod "timesheet-web-35-77rwn": Error response from daemon: grpc: the connection is unavailable
24m       25m       11        timesheet-web-35-77rwn.158fbc4a376d05dd    Pod                                                              Normal    SandboxChanged                kubelet, appnode2.ocp.eabdc   Pod sandbox changed, it will be killed and re-created.
25m       25m       1         timesheet-web-35-deploy.158fbc47e8fd63d6   Pod                                                              Normal    Scheduled                     default-scheduler             Successfully assigned timesheet-web-35-deploy to appnode1.ocp.eabdc
25m       25m       1         timesheet-web-35-deploy.158fbc47f8151628   Pod                                                              Normal    SuccessfulMountVolume         kubelet, appnode1.ocp.eabdc   MountVolume.SetUp succeeded for volume "deployer-token-hzvmv"
25m       25m       1         timesheet-web-35-deploy.158fbc48b0438cce   Pod                     spec.containers{deployment}              Normal    Pulled                        kubelet, appnode1.ocp.eabdc   Container image "openshift3/ose-deployer:v3.9.25" already present on machine
25m       25m       1         timesheet-web-35-deploy.158fbc48dbf140a3   Pod                     spec.containers{deployment}              Normal    Created                       kubelet, appnode1.ocp.eabdc   Created container
25m       25m       1         timesheet-web-35-deploy.158fbc48fb03e597   Pod                     spec.containers{deployment}              Normal    Started                       kubelet, appnode1.ocp.eabdc   Started container
25m       25m       1         timesheet-web-35.158fbc49c14aba7f          ReplicationController                                            Normal    SuccessfulCreate              replication-controller        Created pod: timesheet-web-35-77rwn
15m       15m       1         timesheet-web-35.158fbcd5fd13a15a          ReplicationController                                            Normal    SuccessfulDelete              replication-controller        Deleted pod: timesheet-web-35-77rwn
14m       14m       1         timesheet-web-36-deploy.158fbce4513f177f   Pod                                                              Normal    Scheduled                     default-scheduler             Successfully assigned timesheet-web-36-deploy to appnode1.ocp.eabdc
14m       14m       1         timesheet-web-36-deploy.158fbce45f0d72b1   Pod                                                              Normal    SuccessfulMountVolume         kubelet, appnode1.ocp.eabdc   MountVolume.SetUp succeeded for volume "deployer-token-hzvmv"
14m       14m       1         timesheet-web-36-deploy.158fbce4f8b9ae9b   Pod                     spec.containers{deployment}              Normal    Pulled                        kubelet, appnode1.ocp.eabdc   Container image "openshift3/ose-deployer:v3.9.25" already present on machine
14m       14m       1         timesheet-web-36-deploy.158fbce51c742e08   Pod                     spec.containers{deployment}              Normal    Created                       kubelet, appnode1.ocp.eabdc   Created container
14m       14m       1         timesheet-web-36-deploy.158fbce53b0d041c   Pod                     spec.containers{deployment}              Normal    Started                       kubelet, appnode1.ocp.eabdc   Started container
14m       14m       1         timesheet-web-36-m9g95.158fbce5c4f87339    Pod                                                              Normal    Scheduled                     default-scheduler             Successfully assigned timesheet-web-36-m9g95 to appnode2.ocp.eabdc
14m       14m       1         timesheet-web-36-m9g95.158fbce5d231de48    Pod                                                              Normal    SuccessfulMountVolume         kubelet, appnode2.ocp.eabdc   MountVolume.SetUp succeeded for volume "volume-94fw2"
14m       14m       1         timesheet-web-36-m9g95.158fbce5d4e42919    Pod                                                              Normal    SuccessfulMountVolume         kubelet, appnode2.ocp.eabdc   MountVolume.SetUp succeeded for volume "default-token-h7j5f"
4m        14m       496       timesheet-web-36-m9g95.158fbce5eae06b03    Pod                                                              Warning   FailedCreatePodSandBox        kubelet, appnode2.ocp.eabdc   Failed create pod sandbox: rpc error: code = Unknown desc = failed to start sandbox container for pod "timesheet-web-36-m9g95": Error response from daemon: grpc: the connection is unavailable
9m        13m       255       timesheet-web-36-m9g95.158fbce61ea4992b    Pod                                                              Normal    SandboxChanged                kubelet, appnode2.ocp.eabdc   Pod sandbox changed, it will be killed and re-created.
14m       14m       1         timesheet-web-36.158fbce5c45a1f8d          ReplicationController                                            Normal    SuccessfulCreate              replication-controller        Created pod: timesheet-web-36-m9g95
3m        3m        1         timesheet-web-36.158fbd71d7323608          ReplicationController                                            Normal    SuccessfulDelete              replication-controller        Deleted pod: timesheet-web-36-m9g95
1h        1h        1         timesheet-web-78.158fb7374dd2be03          Build                                                            Normal    BuildCompleted                build-controller              Build eab-time-sheet/timesheet-web-78 completed successfully
31m       31m       1         timesheet-web-79-build.158fbbf4a11ff5b6    Pod                                                              Normal    Scheduled                     default-scheduler             Successfully assigned timesheet-web-79-build to appnode1.ocp.eabdc
31m       31m       1         timesheet-web-79-build.158fbbf4aebc9efa    Pod                                                              Normal    SuccessfulMountVolume         kubelet, appnode1.ocp.eabdc   MountVolume.SetUp succeeded for volume "crio-socket"
31m       31m       1         timesheet-web-79-build.158fbbf4aedafe4c    Pod                                                              Normal    SuccessfulMountVolume         kubelet, appnode1.ocp.eabdc   MountVolume.SetUp succeeded for volume "docker-socket"
31m       31m       1         timesheet-web-79-build.158fbbf4aefc1618    Pod                                                              Normal    SuccessfulMountVolume         kubelet, appnode1.ocp.eabdc   MountVolume.SetUp succeeded for volume "buildworkdir"
31m       31m       1         timesheet-web-79-build.158fbbf4b349cafc    Pod                                                              Normal    SuccessfulMountVolume         kubelet, appnode1.ocp.eabdc   MountVolume.SetUp succeeded for volume "timesheet-git-auth-source"
31m       31m       1         timesheet-web-79-build.158fbbf4b3b1fe22    Pod                                                              Normal    SuccessfulMountVolume         kubelet, appnode1.ocp.eabdc   MountVolume.SetUp succeeded for volume "builder-token-2j8hv"
31m       31m       1         timesheet-web-79-build.158fbbf4b53dbdb7    Pod                                                              Normal    SuccessfulMountVolume         kubelet, appnode1.ocp.eabdc   MountVolume.SetUp succeeded for volume "builder-dockercfg-ccq25-push"
31m       31m       1         timesheet-web-79-build.158fbbf4b53f6e86    Pod                                                              Normal    SuccessfulMountVolume         kubelet, appnode1.ocp.eabdc   MountVolume.SetUp succeeded for volume "builder-dockercfg-ccq25-pull"
31m       31m       1         timesheet-web-79-build.158fbbf5487d1118    Pod                     spec.initContainers{git-clone}           Normal    Pulled                        kubelet, appnode1.ocp.eabdc   Container image "openshift3/ose-sti-builder:v3.9.25" already present on machine
31m       31m       1         timesheet-web-79-build.158fbbf570f53746    Pod                     spec.initContainers{git-clone}           Normal    Created                       kubelet, appnode1.ocp.eabdc   Created container
31m       31m       1         timesheet-web-79-build.158fbbf5914666bb    Pod                     spec.initContainers{git-clone}           Normal    Started                       kubelet, appnode1.ocp.eabdc   Started container
29m       29m       1         timesheet-web-79-build.158fbc07b6417afc    Pod                     spec.initContainers{manage-dockerfile}   Normal    Pulled                        kubelet, appnode1.ocp.eabdc   Container image "openshift3/ose-sti-builder:v3.9.25" already present on machine
29m       29m       1         timesheet-web-79-build.158fbc07cd8f9769    Pod                     spec.initContainers{manage-dockerfile}   Normal    Created                       kubelet, appnode1.ocp.eabdc   Created container
29m       29m       1         timesheet-web-79-build.158fbc07e9b8f7dc    Pod                     spec.initContainers{manage-dockerfile}   Normal    Started                       kubelet, appnode1.ocp.eabdc   Started container
29m       29m       1         timesheet-web-79-build.158fbc084155c1a8    Pod                     spec.containers{sti-build}               Normal    Pulled                        kubelet, appnode1.ocp.eabdc   Container image "openshift3/ose-sti-builder:v3.9.25" already present on machine
29m       29m       1         timesheet-web-79-build.158fbc0857f30d43    Pod                     spec.containers{sti-build}               Normal    Created                       kubelet, appnode1.ocp.eabdc   Created container
29m       29m       1         timesheet-web-79-build.158fbc0880e469a9    Pod                     spec.containers{sti-build}               Normal    Started                       kubelet, appnode1.ocp.eabdc   Started container
31m       31m       1         timesheet-web-79.158fbbf5a42acf7e          Build                                                            Normal    BuildStarted                  build-controller              Build eab-time-sheet/timesheet-web-79 is now running
25m       25m       1         timesheet-web-79.158fbc4843acd444          Build                                                            Normal    BuildCompleted                build-controller              Build eab-time-sheet/timesheet-web-79 completed successfully
1h        1h        1         timesheet-web.158fb736eb915885             DeploymentConfig                                                 Normal    DeploymentCreated             deploymentconfig-controller   Created new replication controller "timesheet-web-33" for version 33
1h        1h        1         timesheet-web.158fb7c529944beb             DeploymentConfig                                                 Normal    ReplicationControllerScaled   deploymentconfig-controller   Scaled replication controller "timesheet-web-33" from 1 to 0
39m       39m       1         timesheet-web.158fbb8584fe49ff             DeploymentConfig                                                 Normal    DeploymentCreated             deploymentconfig-controller   Created new replication controller "timesheet-web-34" for version 34
29m       29m       1         timesheet-web.158fbc138a603403             DeploymentConfig                                                 Normal    ReplicationControllerScaled   deploymentconfig-controller   Scaled replication controller "timesheet-web-34" from 1 to 0
25m       25m       1         timesheet-web.158fbc47e7208107             DeploymentConfig                                                 Normal    DeploymentCreated             deploymentconfig-controller   Created new replication controller "timesheet-web-35" for version 35
15m       15m       1         timesheet-web.158fbcd5fc045e75             DeploymentConfig                                                 Normal    ReplicationControllerScaled   deploymentconfig-controller   Scaled replication controller "timesheet-web-35" from 1 to 0
14m       14m       1         timesheet-web.158fbce44f10d031             DeploymentConfig                                                 Normal    DeploymentCreated             deploymentconfig-controller   Created new replication controller "timesheet-web-36" for version 36
3m        3m        1         timesheet-web.158fbd71d61e0fb9             DeploymentConfig                                                 Normal    ReplicationControllerScaled   deploymentconfig-controller   Scaled replication controller "timesheet-web-36" from 1 to 0
[root@lb log]# oc get events
LAST SEEN   FIRST SEEN   COUNT     NAME                                KIND      SUBO       MESSAGE
2m          3d           18878     mongodb2-1-d8qn7.158e994b3b431e6e   Pod       specabdc   Killing container with id docker://mongodb:Need to kill Pod
22m         3d           18806     mongodb2-1-d8qn7.158e994c04640f4c   Pod           abdc   error killing pod: [failed to "KillContainer" for "mongodb" with KillContainernot stop container 03a8e5d9c04423437b4247cf72ae590ea2707dc472ca617999d873522231c733: d873522231c733: rpc error: code = 14 desc = grpc: the connection is unavailable"
, failed to "KillPodSandbox" for "e300b026-418a-11e9-b647-00155ddeb901" with KillPodSn: Cannot stop container d8512b828cd0950e0dab2fdcd0310921938a8f6f87b83757fa8317092e253757fa8317092e25db5d: rpc error: code = 14 desc = grpc: the connection is unavailable
]
1h        1h        1         timesheet-web-33-deploy.158fb736ed411917   Pod                              default-scheduler             Successfully assigned timesheet-we
1h        1h        1         timesheet-web-33-deploy.158fb736fe5ee105   Pod         lMountVolume         kubelet, appnode1.ocp.eabdc   MountVolume.SetUp succeeded for vo
1h        1h        1         timesheet-web-33-deploy.158fb73792dae9b8   Pod                              kubelet, appnode1.ocp.eabdc   Container image "openshift3/ose-de
1h        1h        1         timesheet-web-33-deploy.158fb737ba7cdfe7   Pod                              kubelet, appnode1.ocp.eabdc   Created container
1h        1h        1         timesheet-web-33-deploy.158fb737dd29b363   Pod                              kubelet, appnode1.ocp.eabdc   Started container
1h        1h        1         timesheet-web-33-l2ql7.158fb738f61b0fc0    Pod                              default-scheduler             Successfully assigned timesheet-we
1h        1h        1         timesheet-web-33-l2ql7.158fb73901390f57    Pod         lMountVolume         kubelet, appnode2.ocp.eabdc   MountVolume.SetUp succeeded for vo
1h        1h        1         timesheet-web-33-l2ql7.158fb739022599e5    Pod         lMountVolume         kubelet, appnode2.ocp.eabdc   MountVolume.SetUp succeeded for vo
1h        1h        481       timesheet-web-33-l2ql7.158fb7392ab61546    Pod         atePodSandBox        kubelet, appnode2.ocp.eabdc   Failed create pod sandbox: rpc erresheet-web-33-l2ql7": Error response from daemon: grpc: the connection is unavailable
1h        1h        240       timesheet-web-33-l2ql7.158fb739419f7646    Pod         anged                kubelet, appnode2.ocp.eabdc   Pod sandbox changed, it will be ki
1h        1h        1         timesheet-web-33.158fb738f57c59a4          ReplicationClCreate              replication-controller        Created pod: timesheet-web-33-l2ql
1h        1h        1         timesheet-web-33.158fb7c529f05890          ReplicationClDelete              replication-controller        Deleted pod: timesheet-web-33-l2ql
39m       39m       1         timesheet-web-34-deploy.158fbb8586a23cc1   Pod                              default-scheduler             Successfully assigned timesheet-we
39m       39m       1         timesheet-web-34-deploy.158fbb85936d4037   Pod         lMountVolume         kubelet, appnode1.ocp.eabdc   MountVolume.SetUp succeeded for vo
39m       39m       1         timesheet-web-34-deploy.158fbb865684d3fb   Pod                              kubelet, appnode1.ocp.eabdc   Container image "openshift3/ose-de
39m       39m       1         timesheet-web-34-deploy.158fbb868160a695   Pod                              kubelet, appnode1.ocp.eabdc   Created container
39m       39m       1         timesheet-web-34-deploy.158fbb86a2a25a22   Pod                              kubelet, appnode1.ocp.eabdc   Started container
39m       39m       1         timesheet-web-34-m86qw.158fbb872df59533    Pod                              default-scheduler             Successfully assigned timesheet-we
39m       39m       1         timesheet-web-34-m86qw.158fbb873805c98f    Pod         lMountVolume         kubelet, appnode2.ocp.eabdc   MountVolume.SetUp succeeded for vo
39m       39m       1         timesheet-web-34-m86qw.158fbb8739bdec50    Pod         lMountVolume         kubelet, appnode2.ocp.eabdc   MountVolume.SetUp succeeded for vo
39m       39m       12        timesheet-web-34-m86qw.158fbb8769f65840    Pod         atePodSandBox        kubelet, appnode2.ocp.eabdc   Failed create pod sandbox: rpc erresheet-web-34-m86qw": Error response from daemon: grpc: the connection is unavailable
29m       39m       519       timesheet-web-34-m86qw.158fbb87ab3ca04c    Pod         anged                kubelet, appnode2.ocp.eabdc   Pod sandbox changed, it will be ki
39m       39m       1         timesheet-web-34.158fbb872d5adf4d          ReplicationClCreate              replication-controller        Created pod: timesheet-web-34-m86q
29m       29m       1         timesheet-web-34.158fbc138c97e87b          ReplicationClDelete              replication-controller        Deleted pod: timesheet-web-34-m86q
25m       25m       1         timesheet-web-35-77rwn.158fbc49c1d33b80    Pod                              default-scheduler             Successfully assigned timesheet-we
25m       25m       1         timesheet-web-35-77rwn.158fbc49d42692b4    Pod         lMountVolume         kubelet, appnode2.ocp.eabdc   MountVolume.SetUp succeeded for vo
25m       25m       1         timesheet-web-35-77rwn.158fbc49d6186742    Pod         lMountVolume         kubelet, appnode2.ocp.eabdc   MountVolume.SetUp succeeded for vo
15m       25m       514       timesheet-web-35-77rwn.158fbc4a0b31b7cf    Pod         atePodSandBox        kubelet, appnode2.ocp.eabdc   Failed create pod sandbox: rpc erresheet-web-35-77rwn": Error response from daemon: grpc: the connection is unavailable
25m       25m       11        timesheet-web-35-77rwn.158fbc4a376d05dd    Pod         anged                kubelet, appnode2.ocp.eabdc   Pod sandbox changed, it will be ki
25m       25m       1         timesheet-web-35-deploy.158fbc47e8fd63d6   Pod                              default-scheduler             Successfully assigned timesheet-we
25m       25m       1         timesheet-web-35-deploy.158fbc47f8151628   Pod         lMountVolume         kubelet, appnode1.ocp.eabdc   MountVolume.SetUp succeeded for vo
25m       25m       1         timesheet-web-35-deploy.158fbc48b0438cce   Pod                              kubelet, appnode1.ocp.eabdc   Container image "openshift3/ose-de
25m       25m       1         timesheet-web-35-deploy.158fbc48dbf140a3   Pod                              kubelet, appnode1.ocp.eabdc   Created container
25m       25m       1         timesheet-web-35-deploy.158fbc48fb03e597   Pod                              kubelet, appnode1.ocp.eabdc   Started container
25m       25m       1         timesheet-web-35.158fbc49c14aba7f          ReplicationClCreate              replication-controller        Created pod: timesheet-web-35-77rw
15m       15m       1         timesheet-web-35.158fbcd5fd13a15a          ReplicationClDelete              replication-controller        Deleted pod: timesheet-web-35-77rw
14m       14m       1         timesheet-web-36-deploy.158fbce4513f177f   Pod                              default-scheduler             Successfully assigned timesheet-we
14m       14m       1         timesheet-web-36-deploy.158fbce45f0d72b1   Pod         lMountVolume         kubelet, appnode1.ocp.eabdc   MountVolume.SetUp succeeded for vo
14m       14m       1         timesheet-web-36-deploy.158fbce4f8b9ae9b   Pod                              kubelet, appnode1.ocp.eabdc   Container image "openshift3/ose-de
14m       14m       1         timesheet-web-36-deploy.158fbce51c742e08   Pod                              kubelet, appnode1.ocp.eabdc   Created container
14m       14m       1         timesheet-web-36-deploy.158fbce53b0d041c   Pod                              kubelet, appnode1.ocp.eabdc   Started container
14m       14m       1         timesheet-web-36-m9g95.158fbce5c4f87339    Pod                              default-scheduler             Successfully assigned timesheet-we
14m       14m       1         timesheet-web-36-m9g95.158fbce5d231de48    Pod         lMountVolume         kubelet, appnode2.ocp.eabdc   MountVolume.SetUp succeeded for vo
14m       14m       1         timesheet-web-36-m9g95.158fbce5d4e42919    Pod         lMountVolume         kubelet, appnode2.ocp.eabdc   MountVolume.SetUp succeeded for vo
4m        14m       496       timesheet-web-36-m9g95.158fbce5eae06b03    Pod         atePodSandBox        kubelet, appnode2.ocp.eabdc   Failed create pod sandbox: rpc erresheet-web-36-m9g95": Error response from daemon: grpc: the connection is unavailable
9m        14m       255       timesheet-web-36-m9g95.158fbce61ea4992b    Pod         anged                kubelet, appnode2.ocp.eabdc   Pod sandbox changed, it will be ki
14m       14m       1         timesheet-web-36.158fbce5c45a1f8d          ReplicationClCreate              replication-controller        Created pod: timesheet-web-36-m9g9
4m        4m        1         timesheet-web-36.158fbd71d7323608          ReplicationClDelete              replication-controller        Deleted pod: timesheet-web-36-m9g9
1h        1h        1         timesheet-web-78.158fb7374dd2be03          Build       leted                build-controller              Build eab-time-sheet/timesheet-web
31m       31m       1         timesheet-web-79-build.158fbbf4a11ff5b6    Pod                              default-scheduler             Successfully assigned timesheet-we
31m       31m       1         timesheet-web-79-build.158fbbf4aebc9efa    Pod         lMountVolume         kubelet, appnode1.ocp.eabdc   MountVolume.SetUp succeeded for vo
31m       31m       1         timesheet-web-79-build.158fbbf4aedafe4c    Pod         lMountVolume         kubelet, appnode1.ocp.eabdc   MountVolume.SetUp succeeded for vo
31m       31m       1         timesheet-web-79-build.158fbbf4aefc1618    Pod         lMountVolume         kubelet, appnode1.ocp.eabdc   MountVolume.SetUp succeeded for vo
31m       31m       1         timesheet-web-79-build.158fbbf4b349cafc    Pod         lMountVolume         kubelet, appnode1.ocp.eabdc   MountVolume.SetUp succeeded for vo
31m       31m       1         timesheet-web-79-build.158fbbf4b3b1fe22    Pod         lMountVolume         kubelet, appnode1.ocp.eabdc   MountVolume.SetUp succeeded for vo
31m       31m       1         timesheet-web-79-build.158fbbf4b53dbdb7    Pod         lMountVolume         kubelet, appnode1.ocp.eabdc   MountVolume.SetUp succeeded for vo
31m       31m       1         timesheet-web-79-build.158fbbf4b53f6e86    Pod         lMountVolume         kubelet, appnode1.ocp.eabdc   MountVolume.SetUp succeeded for vo
31m       31m       1         timesheet-web-79-build.158fbbf5487d1118    Pod                              kubelet, appnode1.ocp.eabdc   Container image "openshift3/ose-st
31m       31m       1         timesheet-web-79-build.158fbbf570f53746    Pod                              kubelet, appnode1.ocp.eabdc   Created container
31m       31m       1         timesheet-web-79-build.158fbbf5914666bb    Pod                              kubelet, appnode1.ocp.eabdc   Started container
30m       30m       1         timesheet-web-79-build.158fbc07b6417afc    Pod                              kubelet, appnode1.ocp.eabdc   Container image "openshift3/ose-st
30m       30m       1         timesheet-web-79-build.158fbc07cd8f9769    Pod                              kubelet, appnode1.ocp.eabdc   Created container
30m       30m       1         timesheet-web-79-build.158fbc07e9b8f7dc    Pod                              kubelet, appnode1.ocp.eabdc   Started container
30m       30m       1         timesheet-web-79-build.158fbc084155c1a8    Pod                              kubelet, appnode1.ocp.eabdc   Container image "openshift3/ose-st
30m       30m       1         timesheet-web-79-build.158fbc0857f30d43    Pod                              kubelet, appnode1.ocp.eabdc   Created container
30m       30m       1         timesheet-web-79-build.158fbc0880e469a9    Pod                              kubelet, appnode1.ocp.eabdc   Started container
31m       31m       1         timesheet-web-79.158fbbf5a42acf7e          Build       ted                  build-controller              Build eab-time-sheet/timesheet-web
25m       25m       1         timesheet-web-79.158fbc4843acd444          Build       leted                build-controller              Build eab-time-sheet/timesheet-web
1h        1h        1         timesheet-web.158fb736eb915885             DeploymentCotCreated             deploymentconfig-controller   Created new replication controller
1h        1h        1         timesheet-web.158fb7c529944beb             DeploymentCoonControllerScaled   deploymentconfig-controller   Scaled replication controller "tim
39m       39m       1         timesheet-web.158fbb8584fe49ff             DeploymentCotCreated             deploymentconfig-controller   Created new replication controller
29m       29m       1         timesheet-web.158fbc138a603403             DeploymentCoonControllerScaled   deploymentconfig-controller   Scaled replication controller "tim
25m       25m       1         timesheet-web.158fbc47e7208107             DeploymentCotCreated             deploymentconfig-controller   Created new replication controller
15m       15m       1         timesheet-web.158fbcd5fc045e75             DeploymentCoonControllerScaled   deploymentconfig-controller   Scaled replication controller "tim
14m       14m       1         timesheet-web.158fbce44f10d031             DeploymentCotCreated             deploymentconfig-controller   Created new replication controller
4m        4m        1         timesheet-web.158fbd71d61e0fb9             DeploymentCoonControllerScaled   deploymentconfig-controller   Scaled replication controller "tim
[root@lb log]# cd
[root@lb ~]# pwd
/root
[root@lb ~]# ls
anaconda-ks.cfg
ax
keycloak-4.8.3.Final
keycloak-4.8.3.Final.tar.gz
oc-3.11.59-linux.tar.gz
playbook
rhel-7-fast-datapath-rpms.tgz
sat-6-isos--rhel-7-server-ose-3_DOT_9-x86_64-2018-04-30T06.10-01.iso
[root@lb ~]# cd /nfs
[root@lb nfs]# ls
db                           logging-es      prometheus               registry
eab-time-sheet-dev-db-pv001  logging-es-ops  prometheus-alertbuffer
etcd                         metrics         prometheus-alertmanager
[root@lb nfs]# ls -al
total 4
drwxrwxrwx. 12 root      root       213 Mar 27 11:23 .
dr-xr-xr-x. 22 root      root       287 Mar 26 15:00 ..
drwxrwsr-x.  4 nfsnobody nfsnobody 4096 Mar 27 15:20 db
drwxrwsr-x.  2 nfsnobody nfsnobody    6 Mar 27 11:23 eab-time-sheet-dev-db-pv001
drwxrwxrwx.  2 nfsnobody nfsnobody    6 May 26  2018 etcd
drwxrwxrwx.  5 nfsnobody nfsnobody   33 May 27  2018 logging-es
drwxrwxrwx.  2 nfsnobody nfsnobody    6 May 26  2018 logging-es-ops
drwxrwxrwx.  4 nfsnobody nfsnobody   84 May 26  2018 metrics
drwxrwxrwx.  2 nfsnobody nfsnobody    6 May 26  2018 prometheus
drwxrwxrwx.  2 nfsnobody nfsnobody    6 May 26  2018 prometheus-alertbuffer
drwxrwxrwx.  2 nfsnobody nfsnobody    6 May 26  2018 prometheus-alertmanager
drwxrwsr-x.  3 nfsnobody nfsnobody   20 May 26  2018 registry
[root@lb nfs]# cd eab*
[root@lb eab-time-sheet-dev-db-pv001]# ls
[root@lb eab-time-sheet-dev-db-pv001]# cd ..
[root@lb nfs]# ls
db  eab-time-sheet-dev-db-pv001  etcd  logging-es  logging-es-ops  metrics  prometheu
[root@lb nfs]# cd db
[root@lb db]# ls
collection-0--2948304758611504808.wt  diagnostic.data                  index-5--29483
collection-0--9066947447752850754.wt  index-1--2948304758611504808.wt  index-6--29483
collection-2--2948304758611504808.wt  index-1--9066947447752850754.wt  journal
collection-4--2948304758611504808.wt  index-3--2948304758611504808.wt  _mdb_catalog.w
[root@lb db]# cd ..
[root@lb nfs]# ls
db  eab-time-sheet-dev-db-pv001  etcd  logging-es  logging-es-ops  metrics  prometheu
[root@lb nfs]# cd eab*
[root@lb eab-time-sheet-dev-db-pv001]# ls
[root@lb eab-time-sheet-dev-db-pv001]# oc projects
You have access to the following projects and can switch between them with 'oc projec

    121demo
    ax-project-001 - Alex test project 001
    axasgsit - AXASG-SIT
    axasgsit2 - AXASG-SIT-2
    axasgsit3 - AXASG-SIT-3
    default
    demo2
    eab - EAB
    eab-121-v3-dev - EAB 121 V3 - DEV
    eab-cafe-dev - EAB-Cafe-DEV
    eab-cafe-sit - EAB-Cafe-SIT
    eab-ocr-service - EAB OCR Service
  * eab-time-sheet - EAB Time Sheet - QA
    eab-time-sheet-dev - EAB Time Sheet - DEV
    eabtimesheet - EAB Time Sheet - PROD
    kube-public
    kube-service-catalog
    kube-system
    logging
    management-infra
    ocr-service-dev - OCR-Service-DEV
    ocr-service-sit - OCR-Service-SIT
    openshift
    openshift-infra
    openshift-metrics
    openshift-node
    openshift-web-console
    php
    sftp - SFTP Server
    test

Using project "eab-time-sheet" on server "https://admin.ocp.eabdc:8443".
[root@lb eab-time-sheet-dev-db-pv001]# oc project eab-time-sheet-dev
Now using project "eab-time-sheet-dev" on server "https://admin.ocp.eabdc:8443".
[root@lb eab-time-sheet-dev-db-pv001]# oc get pv
NAME                          CAPACITY   ACCESS MODES   RECLAIM POLICY   STATUS    CL
db-pv001                      5Gi        RWO            Retain           Bound     ax
eab-time-sheet-dev-db-pv001   5Gi        RWO            Retain           Bound     ea
metrics-pv                    10Gi       RWO            Retain           Bound     op
registry-storage-pv           5Gi        RWX            Retain           Bound     de
[root@lb eab-time-sheet-dev-db-pv001]# oc get pvc
NAME            STATUS    VOLUME                        CAPACITY   ACCESS MODES   STO
mongodb-pv001   Bound     eab-time-sheet-dev-db-pv001   5Gi        RWO
[root@lb eab-time-sheet-dev-db-pv001]# cd /nfs
[root@lb nfs]# ls
db                           logging-es      prometheus               registry
eab-time-sheet-dev-db-pv001  logging-es-ops  prometheus-alertbuffer
etcd                         metrics         prometheus-alertmanager
[root@lb nfs]# cd eab
-bash: cd: eab: No such file or directory
[root@lb nfs]# cd eab*
[root@lb eab-time-sheet-dev-db-pv001]# ls
[root@lb eab-time-sheet-dev-db-pv001]# cd /etc
[root@lb etc]# ls
adjtime            depmod.d                 gshadow-       libuser.conf
aliases            dhcp                     gss            locale.conf
aliases.db         DIR_COLORS               gssproxy       localtime
alternatives       DIR_COLORS.256color      haproxy        login.defs
anacrontab         DIR_COLORS.lightbgcolor  host.conf      logrotate.conf
ansible            docker                   hostname       logrotate.d
asound.conf        dracut.conf              hosts          lvm
audisp             dracut.conf.d            hosts.allow    machine-id
audit              e2fsck.conf              hosts.deny     magic
bash_completion.d  environment              idmapd.conf    makedumpfile.conf.sample
bashrc             ethertypes               init.d         man_db.conf
binfmt.d           exports                  inittab        maven
chkconfig.d        exports.d                inputrc        mke2fs.conf
chrony.conf        favicon.png              iproute2       modprobe.d
chrony.keys        filesystems              issue          modules-load.d
containers         firewalld                issue.net      motd
cron.d             fstab                    java           mtab
cron.daily         gcrypt                   jvm            my.cnf
cron.deny          GeoIP.conf               jvm-commmon    my.cnf.d
cron.hourly        GeoIP.conf.default       kdump.conf     netconfig
cron.monthly       gnupg                    kernel         NetworkManager
crontab            GREP_COLORS              krb5.conf      networks
cron.weekly        groff                    krb5.conf.d    nfs.conf
crypttab           group                    ld.so.cache    nfsmount.conf
csh.cshrc          group-                   ld.so.conf     nsswitch.conf
csh.login          grub2.cfg                ld.so.conf.d   nsswitch.conf.bak
dbus-1             grub.d                   libaudit.conf  oci-register-machine.conf
default            gshadow                  libnl          oci-umount
[root@lb etc]# vi exports
[root@lb etc]# pwd
/etc
[root@lb etc]# cd ..
[root@lb /]# cd /nfs
[root@lb nfs]# ls
db  eab-time-sheet-dev-db-pv001  etcd  logging-es  logging-es-ops  metrics  prometheu
[root@lb nfs]# vi /var/lib/nfs/etab
[root@lb nfs]# vi /var/lib/nfs/etab
[root@lb nfs]# exportfs -v
/nfs/db         <world>(rw,sync,wdelay,hide,no_subtree_check,sec=sys,secure,root_squash,no_all_squash)
/nfs/eab-time-sheet-dev-db-pv001
                <world>(rw,sync,wdelay,hide,no_subtree_check,sec=sys,secure,root_squash,no_all_squash)
/nfs/registry   <world>(rw,sync,wdelay,hide,no_subtree_check,sec=sys,secure,root_squash,no_all_squash)
/nfs/metrics    <world>(rw,sync,wdelay,hide,no_subtree_check,sec=sys,secure,root_squash,no_all_squash)
/nfs/logging-es
                <world>(rw,sync,wdelay,hide,no_subtree_check,sec=sys,secure,root_squash,no_all_squash)
/nfs/logging-es-ops
                <world>(rw,sync,wdelay,hide,no_subtree_check,sec=sys,secure,root_squash,no_all_squash)
/nfs/etcd       <world>(rw,sync,wdelay,hide,no_subtree_check,sec=sys,secure,root_squash,no_all_squash)
/nfs/prometheus
                <world>(rw,sync,wdelay,hide,no_subtree_check,sec=sys,secure,root_squash,no_all_squash)
/nfs/prometheus-alertmanager
                <world>(rw,sync,wdelay,hide,no_subtree_check,sec=sys,secure,root_squash,no_all_squash)
/nfs/prometheus-alertbuffer
                <world>(rw,sync,wdelay,hide,no_subtree_check,sec=sys,secure,root_squash,no_all_squash)
[root@lb nfs]# exportfs -v
/nfs/db         <world>(rw,sync,wdelay,hide,no_subtree_check,sec=sys,secure,root_squa
/nfs/eab-time-sheet-dev-db-pv001
                <world>(rw,sync,wdelay,hide,no_subtree_check,sec=sys,secure,root_squa
/nfs/registry   <world>(rw,sync,wdelay,hide,no_subtree_check,sec=sys,secure,root_squa
/nfs/metrics    <world>(rw,sync,wdelay,hide,no_subtree_check,sec=sys,secure,root_squa
/nfs/logging-es
                <world>(rw,sync,wdelay,hide,no_subtree_check,sec=sys,secure,root_squa
/nfs/logging-es-ops
                <world>(rw,sync,wdelay,hide,no_subtree_check,sec=sys,secure,root_squa
/nfs/etcd       <world>(rw,sync,wdelay,hide,no_subtree_check,sec=sys,secure,root_squa
/nfs/prometheus
                <world>(rw,sync,wdelay,hide,no_subtree_check,sec=sys,secure,root_squa
/nfs/prometheus-alertmanager
                <world>(rw,sync,wdelay,hide,no_subtree_check,sec=sys,secure,root_squa
/nfs/prometheus-alertbuffer
                <world>(rw,sync,wdelay,hide,no_subtree_check,sec=sys,secure,root_squa
[root@lb nfs]# showmount -a
All mount points on lb:
[root@lb nfs]# ls -al
total 4
drwxrwxrwx. 12 root      root       213 Mar 27 11:23 .
dr-xr-xr-x. 22 root      root       287 Mar 26 15:00 ..
drwxrwsr-x.  4 nfsnobody nfsnobody 4096 Mar 27 15:30 db
drwxrwsr-x.  2 nfsnobody nfsnobody    6 Mar 27 11:23 eab-time-sheet-dev-db-pv001
drwxrwxrwx.  2 nfsnobody nfsnobody    6 May 26  2018 etcd
drwxrwxrwx.  5 nfsnobody nfsnobody   33 May 27  2018 logging-es
drwxrwxrwx.  2 nfsnobody nfsnobody    6 May 26  2018 logging-es-ops
drwxrwxrwx.  4 nfsnobody nfsnobody   84 May 26  2018 metrics
drwxrwxrwx.  2 nfsnobody nfsnobody    6 May 26  2018 prometheus
drwxrwxrwx.  2 nfsnobody nfsnobody    6 May 26  2018 prometheus-alertbuffer
drwxrwxrwx.  2 nfsnobody nfsnobody    6 May 26  2018 prometheus-alertmanager
drwxrwsr-x.  3 nfsnobody nfsnobody   20 May 26  2018 registry
[root@lb nfs]# showmount -e
Export list for lb:
/nfs/prometheus-alertbuffer      *
/nfs/prometheus-alertmanager     *
/nfs/prometheus                  *
/nfs/etcd                        *
/nfs/logging-es-ops              *
/nfs/logging-es                  *
/nfs/metrics                     *
/nfs/registry                    *
/nfs/eab-time-sheet-dev-db-pv001 *
/nfs/db                          *
[root@lb nfs]# showmount -a
All mount points on lb:
[root@lb nfs]# showmount -e
Export list for lb:
/nfs/prometheus-alertbuffer      *
/nfs/prometheus-alertmanager     *
/nfs/prometheus                  *
/nfs/etcd                        *
/nfs/logging-es-ops              *
/nfs/logging-es                  *
/nfs/metrics                     *
/nfs/registry                    *
/nfs/eab-time-sheet-dev-db-pv001 *
/nfs/db                          *
[root@lb nfs]# ls
db                           logging-es      prometheus               registry
eab-time-sheet-dev-db-pv001  logging-es-ops  prometheus-alertbuffer
etcd                         metrics         prometheus-alertmanager
[root@lb nfs]# ls -al
total 0
drwxrwxrwx. 12 root      root      213 Mar 27 11:23 .
dr-xr-xr-x. 22 root      root      287 Mar 26 15:00 ..
drwxrwsr-x.  4 nfsnobody nfsnobody 174 Mar 27 15:57 db
drwxrwsr-x.  2 nfsnobody nfsnobody   6 Mar 27 11:23 eab-time-sheet-dev-db-pv001
drwxrwxrwx.  2 nfsnobody nfsnobody   6 May 26  2018 etcd
drwxrwxrwx.  5 nfsnobody nfsnobody  33 May 27  2018 logging-es
drwxrwxrwx.  2 nfsnobody nfsnobody   6 May 26  2018 logging-es-ops
drwxrwxrwx.  4 nfsnobody nfsnobody  84 May 26  2018 metrics
drwxrwxrwx.  2 nfsnobody nfsnobody   6 May 26  2018 prometheus
drwxrwxrwx.  2 nfsnobody nfsnobody   6 May 26  2018 prometheus-alertbuffer
drwxrwxrwx.  2 nfsnobody nfsnobody   6 May 26  2018 prometheus-alertmanager
drwxrwsr-x.  3 nfsnobody nfsnobody  20 May 26  2018 registry
[root@lb nfs]# cd eab*
[root@lb eab-time-sheet-dev-db-pv001]# ls
[root@lb eab-time-sheet-dev-db-pv001]# oc get pv
NAME                          CAPACITY   ACCESS MODES   RECLAIM POLICY   STATUS    CLAIM                                 STORAGECLASS   REASON    AGE
db-pv001                      5Gi        RWO            Retain           Bound     ax-project-001/mongodb                                         21h
eab-time-sheet-dev-db-pv001   5Gi        RWO            Retain           Bound     eab-time-sheet-dev/mongodb-pv001                               3h
metrics-pv                    10Gi       RWO            Retain           Bound     openshift-infra/metrics-cassandra-1                            305d
registry-storage-pv           5Gi        RWX            Retain           Bound     default/registry-storage-pvc                                   305d
[root@lb eab-time-sheet-dev-db-pv001]# oc edit pv eab-time-sheet-dev-db-pv001
error: persistentvolumes "eab-time-sheet-dev-db-pv001" is invalid
error: persistentvolumes "eab-time-sheet-dev-db-pv001" is invalid
A copy of your changes has been stored to "/tmp/oc-edit-gelsh.yaml"
error: Edit cancelled, no valid changes were saved.
[root@lb eab-time-sheet-dev-db-pv001]# oc edit pv eab-time-sheet-dev-db-pv001
Edit cancelled, no changes made.
[root@lb eab-time-sheet-dev-db-pv001]# ls
[root@lb eab-time-sheet-dev-db-pv001]# cd /root
[root@lb ~]# ls
anaconda-ks.cfg  keycloak-4.8.3.Final         oc-3.11.59-linux.tar.gz  rhel-7-fast-da
ax               keycloak-4.8.3.Final.tar.gz  playbook                 sat-6-isos--rh
[root@lb ~]# pwd
/root
[root@lb ~]# cd /nfs
[root@lb nfs]# ls
db  eab-time-sheet-dev-db-pv001  etcd  logging-es  logging-es-ops  metrics  prometheu
[root@lb nfs]# ls -al
total 0
drwxrwxrwx. 12 root      root      213 Mar 27 11:23 .
dr-xr-xr-x. 22 root      root      287 Mar 26 15:00 ..
drwxrwsr-x.  4 nfsnobody nfsnobody 174 Mar 27 15:57 db
drwxrwsr-x.  2 nfsnobody nfsnobody   6 Mar 27 11:23 eab-time-sheet-dev-db-pv001
drwxrwxrwx.  2 nfsnobody nfsnobody   6 May 26  2018 etcd
drwxrwxrwx.  5 nfsnobody nfsnobody  33 May 27  2018 logging-es
drwxrwxrwx.  2 nfsnobody nfsnobody   6 May 26  2018 logging-es-ops
drwxrwxrwx.  4 nfsnobody nfsnobody  84 May 26  2018 metrics
drwxrwxrwx.  2 nfsnobody nfsnobody   6 May 26  2018 prometheus
drwxrwxrwx.  2 nfsnobody nfsnobody   6 May 26  2018 prometheus-alertbuffer
drwxrwxrwx.  2 nfsnobody nfsnobody   6 May 26  2018 prometheus-alertmanager
drwxrwsr-x.  3 nfsnobody nfsnobody  20 May 26  2018 registry
[root@lb nfs]# cd eab*
[root@lb eab-time-sheet-dev-db-pv001]# ls
[root@lb eab-time-sheet-dev-db-pv001]# ls
[root@lb eab-time-sheet-dev-db-pv001]# pwd
/nfs/eab-time-sheet-dev-db-pv001
[root@lb eab-time-sheet-dev-db-pv001]# cd ..
[root@lb nfs]# ls
db  eab-time-sheet-dev-db-pv001  etcd  logging-es  logging-es-ops  metrics  prometheu
[root@lb nfs]# ^C
[root@lb nfs]# ^C
[root@lb nfs]# pwd
/nfs
[root@lb nfs]# ls
db                           eab-time-sheet-qa-db-pv001  logging-es      metrics
eab-time-sheet-dev-db-pv001  etcd                        logging-es-ops  prometheus
[root@lb nfs]# ls -al
total 8
drwxrwxrwx. 13 root      root       247 Mar 27 16:39 .
dr-xr-xr-x. 22 root      root       287 Mar 26 15:00 ..
drwxrwsr-x.  4 nfsnobody nfsnobody  174 Mar 27 15:57 db
drwxrwsr-x.  4 nfsnobody nfsnobody 4096 Mar 27 17:14 eab-time-sheet-dev-db-pv001
drwxrwsr-x.  4 nfsnobody nfsnobody 4096 Mar 27 17:13 eab-time-sheet-qa-db-pv001
drwxrwxrwx.  2 nfsnobody nfsnobody    6 May 26  2018 etcd
drwxrwxrwx.  5 nfsnobody nfsnobody   33 May 27  2018 logging-es
drwxrwxrwx.  2 nfsnobody nfsnobody    6 May 26  2018 logging-es-ops
drwxrwxrwx.  4 nfsnobody nfsnobody   84 May 26  2018 metrics
drwxrwxrwx.  2 nfsnobody nfsnobody    6 May 26  2018 prometheus
drwxrwxrwx.  2 nfsnobody nfsnobody    6 May 26  2018 prometheus-alertbuffer
drwxrwxrwx.  2 nfsnobody nfsnobody    6 May 26  2018 prometheus-alertmanager
drwxrwsr-x.  3 nfsnobody nfsnobody   20 May 26  2018 registry
[root@lb nfs]# mkdir eab-time-sheet-prod-db-pv001
[root@lb nfs]# chown -R nfsnobody eab-time-sheet-prod-db-pv001
[root@lb nfs]# chgrp -R nfsnobody eab-time-sheet-prod-db-pv001
[root@lb nfs]# chmod -R 2775 eab-time-sheet-prod-db-pv001
[root@lb nfs]# ls -al
total 8
drwxrwxrwx. 14 root      root       283 Mar 27 17:17 .
dr-xr-xr-x. 22 root      root       287 Mar 26 15:00 ..
drwxrwsr-x.  4 nfsnobody nfsnobody  174 Mar 27 15:57 db
drwxrwsr-x.  4 nfsnobody nfsnobody 4096 Mar 27 17:17 eab-time-sheet-dev-db-pv001
drwxrwsr-x.  2 nfsnobody nfsnobody    6 Mar 27 17:17 eab-time-sheet-prod-db-pv001
drwxrwsr-x.  4 nfsnobody nfsnobody 4096 Mar 27 17:17 eab-time-sheet-qa-db-pv001
drwxrwxrwx.  2 nfsnobody nfsnobody    6 May 26  2018 etcd
drwxrwxrwx.  5 nfsnobody nfsnobody   33 May 27  2018 logging-es
drwxrwxrwx.  2 nfsnobody nfsnobody    6 May 26  2018 logging-es-ops
drwxrwxrwx.  4 nfsnobody nfsnobody   84 May 26  2018 metrics
drwxrwxrwx.  2 nfsnobody nfsnobody    6 May 26  2018 prometheus
drwxrwxrwx.  2 nfsnobody nfsnobody    6 May 26  2018 prometheus-alertbuffer
drwxrwxrwx.  2 nfsnobody nfsnobody    6 May 26  2018 prometheus-alertmanager
drwxrwsr-x.  3 nfsnobody nfsnobody   20 May 26  2018 registry
[root@lb nfs]# vi /etc/exports
[root@lb nfs]# exportfs -ra
[root@lb nfs]# vi /var/lib/nfs/etab
[root@lb nfs]# showmount -e
Export list for lb:
/nfs/prometheus-alertbuffer       *
/nfs/prometheus-alertmanager      *
/nfs/prometheus                   *
/nfs/etcd                         *
/nfs/logging-es-ops               *
/nfs/logging-es                   *
/nfs/metrics                      *
/nfs/registry                     *
/nfs/eab-time-sheet-prod-db-pv001 *
/nfs/eab-time-sheet-qa-db-pv001   *
/nfs/eab-time-sheet-dev-db-pv001  *
/nfs/db                           *
[root@lb nfs]# service nfs restart
Redirecting to /bin/systemctl restart nfs.service
[root@lb nfs]# ls
db                            etcd            prometheus
eab-time-sheet-dev-db-pv001   logging-es      prometheus-alertbuffer
eab-time-sheet-prod-db-pv001  logging-es-ops  prometheus-alertmanager
eab-time-sheet-qa-db-pv001    metrics         registry
[root@lb nfs]# cd eab-time-sheet-qa-db*
[root@lb eab-time-sheet-qa-db-pv001]# ls
collection-0-8647978101721844744.wt  _mdb_catalog.wt
collection-2-8647978101721844744.wt  mongod.lock
collection-4-8647978101721844744.wt  sizeStorer.wt
diagnostic.data                      storage.bson
index-1-8647978101721844744.wt       WiredTiger
index-3-8647978101721844744.wt       WiredTigerLAS.wt
index-5-8647978101721844744.wt       WiredTiger.lock
index-6-8647978101721844744.wt       WiredTiger.turtle
journal                              WiredTiger.wt
[root@lb eab-time-sheet-qa-db-pv001]# cd /
[root@lb /]# cd nfs
[root@lb nfs]#
