login as: root
root@192.168.222.212's password:
Last login: Wed Jul 10 21:14:41 2019 from 192.168.223.158
[root@vm-OpenShift-POC-1 ~]# pvs
  PV         VG        Fmt  Attr PSize   PFree
  /dev/sda2  rhel      lvm2 a--  299.00g  91.12g
  /dev/sda3  rhel      lvm2 a--  100.00g      0
  /dev/sda4  rhel      lvm2 a--  400.00g      0
  /dev/sdc1  docker-vg lvm2 a--  200.00g 120.00g
[root@vm-OpenShift-POC-1 ~]# df -h
Filesystem             Size  Used Avail Use% Mounted on
/dev/mapper/rhel-root  650G  167G  484G  26% /
devtmpfs                13G     0   13G   0% /dev
tmpfs                   13G   84K   13G   1% /dev/shm
tmpfs                   13G  1.4G   12G  11% /run
tmpfs                   13G     0   13G   0% /sys/fs/cgroup
/dev/sda1             1014M  172M  843M  17% /boot
/dev/mapper/rhel-home   50G  730M   50G   2% /home
tmpfs                  2.6G   24K  2.6G   1% /run/user/42
tmpfs                  2.6G     0  2.6G   0% /run/user/0
[root@vm-OpenShift-POC-1 ~]# pvs
  PV         VG        Fmt  Attr PSize   PFree
  /dev/sda2  rhel      lvm2 a--  299.00g  91.12g
  /dev/sda3  rhel      lvm2 a--  100.00g      0
  /dev/sda4  rhel      lvm2 a--  400.00g      0
  /dev/sdc1  docker-vg lvm2 a--  200.00g 120.00g
[root@vm-OpenShift-POC-1 ~]# oc login https://vm-OpenShift-POC-1:8443 --token=Dz
Logged into "https://vm-OpenShift-POC-1:8443" as "admin" using the token provide

You have access to the following projects and can switch between them with 'oc p

    121demo
    axasgprod
    axasgsit
    axasgsit2
  * axasgsit3
    cafe-dev
    cafe-prod
    cafe-sit
    default
    eab
    eab-bre-sit
    eab-demo
    eab-document
    eab-es
    eab-timesheet-prod
    hsbc-demo
    hsbcsgsit
    iquote-prod
    kube-system
    logging
    management-infra
    openshift
    openshift-infra
    pias-sg-poc
    project1
    test-automation
    train-alextse
    train-keithchan
    zurich-demo

Using project "axasgsit3".
[root@vm-OpenShift-POC-1 ~]#  oc adm prune deployments --orphans --keep-compl   ete=2 --confirm
NAMESPACE       NAME
axasgsit        dev-ease-web-22
axasgsit        ease-web-stress-4
axasgsit        dev-ease-web-21
axasgsit        ease-web-stress-3
axasgsit        dev-ease-web-11
cafe-prod       cafe-admin-5
cafe-prod       cafe-admin-4
cafe-prod       cafe-admin-3
cafe-prod       cafe-admin-2
hsbc-demo       ease-api-6
cafe-prod       cafe-display-7
cafe-prod       cafe-display-6
cafe-prod       cafe-display-5
cafe-prod       cafe-display-1
axasgsit        app-ws-15
axasgsit        app-ws-14
eab-demo        mobile-ws-78
eab-demo        mobile-ws-77
hsbc-demo       mobile-api-8
axasgsit3       app-ws-267
axasgsit3       app-ws-266
axasgsit3       app-ws-236
cafe-prod       cafe-api-9
cafe-prod       cafe-api-8
cafe-prod       cafe-api-2
cafe-sit        cafe-display-13
cafe-sit        cafe-display-12
cafe-sit        cafe-display-11
cafe-sit        cafe-display-9
cafe-sit        cafe-display-8
cafe-dev        cafe-admin-34
cafe-dev        cafe-admin-33
cafe-dev        cafe-admin-32
cafe-dev        cafe-admin-31
cafe-dev        cafe-admin-30
cafe-dev        cafe-admin-29
cafe-dev        cafe-admin-28
cafe-dev        cafe-admin-27
cafe-dev        cafe-admin-26
cafe-dev        cafe-admin-25
cafe-dev        cafe-admin-24
cafe-dev        cafe-admin-22
cafe-dev        cafe-admin-21
cafe-dev        cafe-admin-23
cafe-sit        cafe-admin-15
cafe-sit        cafe-admin-14
cafe-sit        cafe-admin-13
cafe-sit        cafe-admin-12
cafe-sit        cafe-admin-11
cafe-sit        cafe-admin-9
cafe-sit        cafe-admin-8
cafe-sit        cafe-admin-20
cafe-sit        cafe-admin-19
cafe-sit        cafe-admin-18
cafe-sit        cafe-admin-10
hsbc-demo       signdocweb-hsbc-1
cafe-dev        cafe-api-23
cafe-dev        cafe-api-22
cafe-dev        cafe-api-21
cafe-dev        cafe-api-20
cafe-dev        cafe-api-19
cafe-dev        cafe-api-18
cafe-dev        cafe-api-17
cafe-dev        cafe-api-16
cafe-dev        cafe-api-15
cafe-dev        cafe-api-14
cafe-dev        cafe-api-13
cafe-dev        cafe-api-12
cafe-dev        cafe-api-11
cafe-dev        cafe-api-30
cafe-dev        cafe-api-29
cafe-dev        cafe-api-28
cafe-dev        cafe-api-27
cafe-dev        cafe-api-2
axasgsit        ease-web-729
axasgsit        ease-web-728
axasgsit        ease-web-727
cafe-sit        cafe-api-12
cafe-sit        cafe-api-11
cafe-sit        cafe-api-10
cafe-sit        cafe-api-8
cafe-sit        cafe-api-7
cafe-sit        cafe-api-5
cafe-sit        cafe-api-9
train-alextse   app-ws-178
train-alextse   app-ws-177
axasgsit        ease-api-381
axasgsit        ease-api-380
axasgsit        ease-api-379
axasgsit        ease-api-378
axasgsit        ease-api-377
axasgsit        ease-api-376
axasgsit        ease-api-375
axasgsit        ease-api-374
axasgsit3       ease-web-72
axasgsit3       ease-web-71
axasgsit3       ease-web-70
axasgsit3       ease-web-69
axasgsit3       ease-web-68
axasgsit3       ease-api-84
axasgsit3       ease-api-83
axasgsit3       ease-api-82
axasgsit3       ease-api-81
axasgsit3       ease-api-80
axasgsit3       ease-api-79
cafe-dev        cafe-display-9
cafe-dev        cafe-display-8
cafe-dev        cafe-display-7
cafe-dev        cafe-display-6
cafe-dev        cafe-display-4
hsbc-demo       hsbc-web-8
hsbc-demo       hsbc-web-7
[root@vm-OpenShift-POC-1 ~]# oc adm prune builds --orphans --keep-complete=2    --confirm
NAMESPACE   NAME
axasgsit    ease-web-stress-3
axasgsit    dev-ease-web-15
axasgsit    dev-ease-web-16
axasgsit    ease-web-stress-4
axasgsit    dev-ease-web-17
cafe-dev    cafe-admin-36
cafe-dev    cafe-admin-35
cafe-dev    cafe-admin-34
cafe-dev    cafe-admin-33
cafe-dev    cafe-admin-32
cafe-dev    cafe-admin-31
cafe-dev    cafe-admin-30
cafe-dev    cafe-admin-29
cafe-dev    cafe-admin-28
cafe-dev    cafe-admin-27
cafe-dev    cafe-admin-26
cafe-dev    cafe-admin-25
cafe-dev    cafe-admin-23
cafe-dev    cafe-admin-22
cafe-dev    cafe-admin-20
cafe-dev    cafe-admin-21
cafe-dev    cafe-display-10
cafe-dev    cafe-display-9
cafe-dev    cafe-display-8
cafe-dev    cafe-display-7
cafe-dev    cafe-display-6
hsbc-demo   mobile-api-5
hsbc-demo   mobile-api-10
hsbc-demo   mobile-api-9
hsbc-demo   mobile-api-8
hsbc-demo   mobile-api-7
axasgsit    app-ws-6
axasgsit3   ease-api-78
axasgsit3   ease-api-77
axasgsit3   ease-api-76
axasgsit3   ease-api-75
axasgsit3   ease-api-73
axasgsit3   ease-api-72
axasgsit3   ease-api-59
axasgsit    ease-admin-94
axasgsit    ease-web-736
axasgsit    ease-web-735
axasgsit    ease-web-730
cafe-dev    cafe-api-22
cafe-dev    cafe-api-21
cafe-dev    cafe-api-20
cafe-dev    cafe-api-19
cafe-dev    cafe-api-18
cafe-dev    cafe-api-17
cafe-dev    cafe-api-16
cafe-dev    cafe-api-15
cafe-dev    cafe-api-14
cafe-dev    cafe-api-13
cafe-dev    cafe-api-12
cafe-dev    cafe-api-11
cafe-dev    cafe-api-10
cafe-dev    cafe-api-9
cafe-dev    cafe-api-8
cafe-dev    cafe-api-7
cafe-sit    cafe-api-8
cafe-sit    cafe-api-7
cafe-sit    cafe-api-6
cafe-sit    cafe-api-5
cafe-sit    cafe-api-4
cafe-prod   cafe-display-1
hsbc-demo   hsbc-web-2
cafe-sit    cafe-display-10
cafe-sit    cafe-display-9
cafe-sit    cafe-display-8
cafe-sit    cafe-display-7
cafe-sit    cafe-display-6
axasgsit3   ease-web-77
axasgsit3   ease-web-75
axasgsit3   ease-web-74
axasgsit3   ease-web-72
axasgsit3   ease-web-71
axasgsit3   ease-web-78
axasgsit3   ease-web-76
axasgsit3   ease-web-73
axasgsit3   ease-web-68
cafe-prod   cafe-api-2
cafe-prod   cafe-api-1
cafe-sit    cafe-admin-14
cafe-sit    cafe-admin-13
cafe-sit    cafe-admin-12
cafe-sit    cafe-admin-11
cafe-sit    cafe-admin-10
cafe-sit    cafe-admin-9
cafe-sit    cafe-admin-8
cafe-sit    cafe-admin-7
axasgsit    ease-api-335
axasgsit    ease-api-333
axasgsit    ease-api-332
axasgsit    ease-api-331
axasgsit    ease-api-330
axasgsit    ease-api-329
axasgsit    ease-api-328
axasgsit    ease-api-327
axasgsit    ease-api-303
cafe-prod   cafe-admin-6
cafe-prod   cafe-admin-5
cafe-prod   cafe-admin-4
cafe-prod   cafe-admin-3
axasgsit3   app-ws-258
axasgsit3   app-ws-257
[root@vm-OpenShift-POC-1 ~]# oc adm --token=$(/bin/oc sa get-token pruner -n    default) prune images --confirm
Error from server (NotFound): serviceaccounts "pruner" not found
Deleting references from image streams to images ...
STREAM                  IMAGE                                                                        TAGS
cafe-dev/cafe-api       sha256:9faa19dcb98d5c9df31e0c4127127f29fda8a91a92b733   e1c0c3837381101b4e   latest
axasgsit/ease-api       sha256:2c5db44a9b15574f47fec9f07aaabf7037e1fe61802040   4a15676c705e5fabcb   latest
cafe-dev/cafe-api       sha256:5f431111aa90dffc58b9669c6a2d353ae8c60a3692eb5b   2951a3c05fa1ad594d   latest
cafe-dev/cafe-admin     sha256:caeed49fa5aa43f4f95df64231ba22297e2d4a142aa2a6   a0314a9806db0e21bc   latest
cafe-dev/cafe-display   sha256:f33eccc0aba7d3b8f73a21c9609d3fa46a73c74c22bdb8   bfa33ea9bd257e0848   latest
cafe-dev/cafe-admin     sha256:006f5634736794eca041e8283dc2b64df932ab47ae6e14   c0b6aa1f7979274981   latest
cafe-dev/cafe-api       sha256:2d8107f6046c325eb046703c56baec89243e63079face1   e1056cbfb390186579   latest
hsbc-demo/mobile-api    sha256:57a4714017a4abca1ab24c2f027620cea0961abee9a765   712a6a4d6990e7a35e   latest
cafe-sit/cafe-api       sha256:2d96ee6c0de2d77a4fe321bc970addb0f398c3161cc4e2   15162fe6cc2ce8e164   latest
cafe-dev/cafe-admin     sha256:9b2652f2dabb9be8af52b87ad9be87be2103467c1f9e3d   c38e71eab7c56c7243   latest
cafe-sit/cafe-admin     sha256:e41b4b95dba713f2fb1b1afeca554ab7acf3638a4835f6   c4bc6181dcaeaffd24   latest
cafe-dev/cafe-admin     sha256:24f1dbe7ca1eb0acaa2f099079f6e5ea9183332eb06515   40b5ba7f4ca436c829   latest
axasgsit/ease-api       sha256:d48b028051c6cd8df9c27fa40c82419214c2bb16b05e33   9d7949a68cebf6ce94   latest
cafe-dev/cafe-display   sha256:a4e4777bfe9f15ff144c59caa83722c4bd3ed702e4dff3   b36a1f0fb5bfdef0f5   latest
cafe-sit/cafe-admin     sha256:5a7df8c8b7f6a742a3dbef0b240fb49e8116f8a991a987   bfad4b81f93d52f4eb   latest
axasgsit3/app-ws        sha256:420e82246f3088c2c5bbff0f2e023fca599ddf5bff5b2b   a2f89fad110a3745bc   latest
hsbc-demo/mobile-api    sha256:8428f395caa0f2389011c1d869bea1106b58494b7b4ed4   a327e0eb7b01dd896d   latest
axasgsit3/ease-api      sha256:a58f7ac9a8e57fe7135a9d7db48ace4d22f2c7d3eb9147   73f484193c1107544d   latest
cafe-dev/cafe-admin     sha256:e8855de58ac0ac72a9171054f3bc3bd842f293f4ea8c02   1334517490620354c3   latest
axasgsit3/ease-api      sha256:9d9cb931991424de5721b96e34aab1800d373cb29d3eca   7d9995fffcbcc768d4   latest
axasgsit3/ease-web      sha256:268bf54bfdddae28a8a40926c5faee16740880d0f1adb8   5c8fb084731931febc   latest
cafe-sit/cafe-display   sha256:eba4fe5f7576a6fd9503b6310a1e79454f8e4296109663   60c61461aba69827c7   latest
cafe-dev/cafe-admin     sha256:d4847a1f8077bf5bb7a25522511c71dd96f88be9dccb3a   6c6d72a57235d8047a   latest
cafe-sit/cafe-admin     sha256:0d791da1f1bc415ccc08f25f578ca5f4719343be9bdf17   e871ae6551cde57e67   latest
cafe-prod/cafe-api      sha256:48d2fa7672c60c5f5fdf51819311fc674d68393488619e   f67c3834e42741d985   latest
cafe-sit/cafe-admin     sha256:592b298672445628161186a49944e200abcc1bf435578b   a7130dae4806c195d0   latest
cafe-sit/cafe-api       sha256:3350dc0080b9637d3e3cbe036d522540f145e5c47eab73   1671d36f6d5b27e65f   latest
cafe-dev/cafe-admin     sha256:23e36e0d5ec09c0b4721e0068edca765d02ad44128e405   de4df11a17d57da8bf   latest
axasgsit3/ease-admin    sha256:a7a26cd44e6ae698d639d901375f5a1d82d1f67be5ae88   2f7b23edf69abb574b   latest
cafe-dev/cafe-admin     sha256:d500dc56656e2202329366b318acb2c9afa7f7b21f5555   c57890f4148b67032d   latest
cafe-dev/cafe-admin     sha256:502a13084f6118daa0b4c6f6a06f6a5a1062289dca7ac5   efd021fcf3aa0b25a6   latest
axasgsit/ease-web       sha256:4696573cea77bf0821a4b99b736434b09f1d0c6b58b8af   f8db7c30bc8b728103   latest
cafe-dev/cafe-api       sha256:79ecca147793b6be8e58d843a94dbe7d8ca99bd3921925   48398888557b11577a   latest
cafe-dev/cafe-admin     sha256:5e757d9a3808a3ddbb37fddfdbf05e0ae27ad8863b8fbd   e9672872a65aa572f6   latest
cafe-dev/cafe-api       sha256:c8a0583c14e383e300b210a12b45c8651e695d30e2abce   2a136006510ec9f1d9   latest
cafe-sit/cafe-admin     sha256:275ba73511cae841bb55cdbb0420c9cb6f47d7588a4c89   2773c1dc7d10e1c5fe   latest
axasgsit3/ease-api      sha256:049efd60b2996bd7f85118cdd378c29055a75ec521f77e   32c4ff1aca790e4df1   latest
cafe-dev/cafe-api       sha256:8cc7dce05e2bc93ef84ed2a09e7780bafee0224fef8271   0f6508c5b6efdb7765   latest
cafe-dev/cafe-api       sha256:6652772146d72d491363753d9797086a2a396b338c8480   94f20662d0f7077bdc   latest
axasgsit3/ease-api      sha256:9e01052dbb6dd62a9a407496e497af03d944f65a1e0450   1b8c5f033cd9d8346a   latest
cafe-dev/cafe-admin     sha256:3801c8ba7c7dec557e9586fd8462a4944f8c17de6c3397   374be791209cab5f63   latest
cafe-dev/cafe-display   sha256:56a580c0d5c3b99b3e9a22b7e05ac0b4b242f826128606   e13b0e65176df7444e   latest
cafe-dev/cafe-display   sha256:56175da797dc5b13fbdff945b1097d31609bbaf1ec4296   4b4ba4d8cd869ebfef   latest
axasgsit3/ease-api      sha256:46bd67699b8807119e0fd727bb41833695031925ffb21c   467a7af5f4eb7091a8   latest
axasgsit3/ease-web      sha256:29b48d40d7e0946486c4ad4214736905de8a51ea5a9e17   c1ffa50cbb7aff8c9f   latest
cafe-sit/cafe-api       sha256:c352d986e2746925963ee9c85fe33cdc75f5dbfc368f86   df1114dc200a349a56   latest
axasgsit/ease-api       sha256:25976fdf2c6755a08365dd53590a349f8c9042fa788bed   9337f5c0747d311f18   latest
axasgsit3/ease-api      sha256:ebbcae19e7683b2da015c3ca34d3ba786455c072274831   64074d86fe1a5bcce7   latest
cafe-sit/cafe-admin     sha256:9be4948fc5357d139f87149b5d05300c1eec7e786d7f7b   d109de705d6c0ad72d   latest
hsbc-demo/mobile-api    sha256:dfc49c9108d288789cd857ad8ffcf230cfea315c646929   6af38ff805d0ae11df   latest
cafe-sit/cafe-display   sha256:bf8f322b9a38944a2ad9ceaed89cb0f60a2981a4a9ab9f   dad01d8916f35c6493   latest
cafe-sit/cafe-display   sha256:af9955d73d06f067ed24d51d50de6ae9fd30338849a9b4   794bef4b53124f0b4b   latest
axasgsit3/ease-web      sha256:87f61dd2ba5d4cb30e950ce9954ada18322d4c574bd021   b7153070d1fdaf7411   latest
axasgsit3/ease-web      sha256:3473b37ee324ac4f5bf580fd6aee35133c0472f7795a4c   757df634725c42c48b   latest
cafe-sit/cafe-api       sha256:37e7d3df029e50ec47ab807277584d8b0f385f652af7ae   2983b4b848b335c431   latest
cafe-dev/cafe-display   sha256:f50825785acfe88a55a3006517a8b225c65e2ac2587ddf   4b003bfee79f4aaa39   latest
axasgsit3/ease-web      sha256:7e9756c12762fd0f91cad13e15bc8acedda3bfb612de0f   746bd68edb94197834   latest
axasgsit/ease-api       sha256:11328b8c09a054c0df878100559278367cbaf1ac01f247   2ba1d2e494f719bbf5   latest
cafe-prod/cafe-admin    sha256:e745891378b50b1a7feb2d2d4113b40aec59cf5c21e4e4   1e29714b85a252c43c   latest
cafe-sit/cafe-display   sha256:b4323759b2b986adbc46224ff8d79b8f69bc04ffda009c   932bb1474adec6af87   latest
cafe-dev/cafe-api       sha256:35a6ca733efb343bd524b494dddf13fc37f1dd36ae7824   bddd7cb6797920ea97   latest
axasgsit3/ease-admin    sha256:ea948af73d3c3e48b55c02a70f4fad5ad2d36199a18eda   29ddc5a354e8c3d8e0   latest
axasgsit3/app-ws        sha256:9dddf1d00c2c459163fba13fc032fa1f79aa4fa1989313   bfacb0ba52b2987c53   latest
cafe-sit/cafe-display   sha256:daf9946848de19d2f8c3b8ca2cd17f1d016e73a8386466   d936564fae1f56e8a7   latest
cafe-dev/cafe-api       sha256:d7bbc0848f3997bfb78b812dcb4e277fa2f1fbe0d35f1e   78f51db05b0341b1e5   latest
cafe-dev/cafe-api       sha256:8fa8ebd83610740bea3a8b25cb9faeafa5d1915dfb2c2e   662065247bb8e17c6b   latest
cafe-prod/cafe-admin    sha256:bda2c08e8269998233dac5289e9f5857fe35c9ad9611ef   7d32cfc4b9219f7f03   latest
cafe-prod/cafe-admin    sha256:b48815b0c5abe1f67b15230304560cfe72dbb3c8075c12   3705b8a9c97657529c   latest
cafe-dev/cafe-admin     sha256:d25d8b5f68224be017b2c7fd9ffe0af061d9a20b97d705   b9bf796303c1fe1df0   latest
axasgsit/ease-web       sha256:e1ffd23dabcaac236f3cab6d97a445d555e6a726984cae   bd5d50e17f5e181b33   latest
cafe-sit/cafe-display   sha256:d57610c1af4b7381b22ba915ecf4f349cc1cb14ca2edee   506157728a8032d939   latest
cafe-dev/cafe-api       sha256:2f3906138f2e428c83831d4b929b4bcf3bd02ff0cfa1da   61fb8546064dd3c6d4   latest
axasgsit3/ease-web      sha256:7af11ce13c5d42bb186397a8719e45d1239b61d0ffafd2   d3afc9569f0b579dde   latest
axasgsit3/ease-web      sha256:4d846bfc89d464ff6a03585fe3e2e8c7fd125c0ad89cc9   ea6c8d39e4dc746a41   latest
cafe-sit/cafe-api       sha256:3599a2ce6e83e668fbe0ac099e82210539aa7ac624c10e   6a931fe3311b2d55d9   latest
cafe-dev/cafe-api       sha256:698922b9ea9c2d2f13f8fd1ae03cd80cd875c55dd7fb83   ac04495e3d7951ea27   latest
axasgsit/ease-api       sha256:7d765ac8cdd48d12ba761b5579063e7c39039b5b8352f7   475cdc70a7f1aaf65e   latest
axasgsit3/app-ws        sha256:a47df9cfc0bc80f83819dc8885f473f27ac61a9592e156   a39695f47f46fe4130   latest
hsbc-demo/mobile-api    sha256:de385f620bbe12e4dc4dae127870dfa7f4217724fd5619   5130f40962f5b602f7   latest
cafe-dev/cafe-admin     sha256:d36eb0f841333b84ee233e18e24e4d5988505ddc3a54d2   3da852d811f4bda9bd   latest
cafe-sit/cafe-admin     sha256:1dace84996a9105550489d9e702cb2e04e955d1b714c7c   51dcad9853d48bde26   latest
cafe-dev/cafe-admin     sha256:65be07032fe5f300dd8449e30b3083191760736069b81c   d251f1ebc77a8f2905   latest
cafe-sit/cafe-admin     sha256:b2de83ea18976a40d4b9b17abe0529f2beed7ce4ada20f   629650064a51463d80   latest
cafe-dev/cafe-api       sha256:c1c69cc789be402431a0d62cb74e063232532254b216a2   0d73ac0da36b14b65d   latest
cafe-dev/cafe-display   sha256:3d26b327f41aa7393411da0478cf11c1fba2e4101c39fc   cd650df7e4538e97be   latest
cafe-dev/cafe-api       sha256:b84a25a897783ea9a85dc2a5cbff8cab466c1390eea27d   1b8bbdf673963fd210   latest
axasgsit/ease-api       sha256:aa90f0af54b7b4244bb2d5c1aa5319e6b3236c26ee8627   3d6e2c253915e87ad2   latest
axasgsit3/ease-api      sha256:8dadd01415876d99bac0d15b0062f4f4b1f92fa13a9a9e   870d2a1e536df1c629   latest
axasgsit/dev-ease-web   sha256:3f0af559ca1538c00f7c90c2f81f3bc005a89461f990a4   3d5eabed62712ad1c4   latest
cafe-dev/cafe-display   sha256:8165b4cf508b7bed90e7c43d6713355f0cad4dd8315e9e   4f89a074ecac94905a   latest
cafe-dev/cafe-admin     sha256:a8f30568e501552fe8254f29d2c862aa9af61e0c4f6dd4   8b09f03e6644bc89f3   latest
cafe-sit/cafe-api       sha256:f9c7c4479dccb6b21f3977ddc68df8eaa44291f238be9c   646091424693ea6b2f   latest
cafe-dev/cafe-admin     sha256:8ec91d9ef2b2f911bf9c123a0ebb7b205e869513b69230   d80e6727d20a6b6695   latest
cafe-sit/cafe-admin     sha256:38b0c409f868caa005e8bc7083bdb29c5e96c21c5759d1   37bfdb9b977a1fb021   latest
axasgsit/ease-api       sha256:9cfb4c2be33c3481f8b9ac9e3ec9d48ac255c3615f2d95   37eba18b7b22bfc9c9   latest

Deleting registry repository layer links ...
REPO                    LAYER LINK
cafe-dev/cafe-admin     sha256:12c8e4006dbbabf1055e05d3e4f77d7d1dfdf54067a3a0   565a305c0dcfef47c3
cafe-dev/cafe-admin     sha256:aea5ac8566407f11d0c129dd378b6bc64f7234cd5257d8   ee8939dfdc21da7700
axasgsit/ease-api       sha256:7d3b155c3e8d9eca337816ccb3fd0e543d3fcfe5ebfede   c50281dd5e8b38bbbf
cafe-dev/cafe-admin     sha256:a22141919289db243292b15f77ffa600e75661489c3aaa   d1d95e660b39455ece
axasgsit/ease-api       sha256:e50903ef82d56dcd09a7590901c498af36946942b728bd   f006001692bc08dd3a
cafe-dev/cafe-api       sha256:cd5ad1dd3a716fc07f30e9591a2a579934f4d192aad175   15c871d2d4eae049b0
axasgsit/ease-web       sha256:e426acc67c6a3612506abd6bc7f5db7d6a4ad53dae8bd2   34a60b0d36912eb026
axasgsit3/ease-web      sha256:4e5fbbec0d47cf00c984e7f9e05572e29c65d4a7ae3fe8   5cbafe28e8318526bb
cafe-sit/cafe-admin     sha256:d12a0202eff27b3d8c9eba8a0b87939954862116f5d0a9   49ecabaa2e3c763fd2
axasgsit3/ease-api      sha256:5b93fdf74186f5c061566cd7096a45301562294fcdb85b   11c2e33ec433f50822
cafe-dev/cafe-api       sha256:644567c5db399036cfd9aa253c828ebe9b4720c81310ea   0f4716f971938fa146
cafe-sit/cafe-api       sha256:0d701f0c04c81bb593ffd333db7ee380722526ab2f5152   0a4ae6535e26eb7d39
cafe-dev/cafe-admin     sha256:202fe3bf690702125f1e3f1b8c33666885233ffe890e4f   7c1ed8d63ead0ea260
cafe-dev/cafe-api       sha256:4bf5d96cf21b172a6f9334798ddfaf7f22ea72b554b63e   0d912de724ecf7b061
cafe-dev/cafe-admin     sha256:e64bd6515624f564ea8c1e66c08836a2537da4378b72b5   98541c22a44c9f4db9
cafe-sit/cafe-display   sha256:e7a7f790718d1aa0d2d2ea46a343e0eb83a16ee5fb38fe   a601ee9aa5b4fe7907
cafe-dev/cafe-api       sha256:419f71f2ee080e3f0e44267f86bbd56a7a611c8c7ebf43   ef571db31dd3d59f82
cafe-sit/cafe-admin     sha256:526417fc3abba93b733c0508a1cbad6557f668b730b7ca   30bef0604729566c08
cafe-prod/cafe-api      sha256:3b7a2082049c0434d23c33406fe14e8d6f54c0ea1fb812   07eca9e52e9bc69715
cafe-dev/cafe-display   sha256:1a3a7cf3b9f277e96d721cf9fd7a06705f42fce5420763   54dcc8f98de4b78bc8
cafe-sit/cafe-display   sha256:3de3d3d6a7cf3a17f94c1d25a5c5e874c2072b310d0cce   fe4e85ba5fa31d5a51
cafe-sit/cafe-api       sha256:b1a7ce5cf76f5d1a6d5fb787cc72914742f4d40fc8951b   8117bba96040a259ce
cafe-sit/cafe-admin     sha256:5cb1dd63c0b3c69ba4cad7095738b00de4aa320c9ed204   e9f668b2793fa7fc97
cafe-dev/cafe-admin     sha256:59e32c61b65fc90cd6962bd38ecff112c7e24b8f606777   7d6cd8ea00362ef828
cafe-sit/cafe-admin     sha256:ae7ecbc08cfa78a42cf1967589d6dfa1f5ac68e0cb73a6   0364aee294d3eb505d
hsbc-demo/mobile-api    sha256:5bdd74c6e8747509ebe01eab041193b77c02df9d911842   4bed8580c91126d5f1
axasgsit3/app-ws        sha256:99d67f496c278c436767c422cdecf3b90535cd55256c4a   0bfb3b9df52ef7574e
cafe-sit/cafe-api       sha256:96e15943aaec8eedb6bb6919b1368f32a4144bc177679a   83cbc59cb186c0c899
cafe-dev/cafe-api       sha256:ad164ae669027c7b8c66eee1aea0e9a0c4f97b95090ba8   e914795966419048dd
cafe-dev/cafe-display   sha256:78600660c5a4bf15402d3a76070de185f787a9e4c4e168   96004a5fb928de7f4f
cafe-dev/cafe-display   sha256:7ba58c64ace8fb40c797e7852a4689ee45e8c833eccb25   4e4568136e921a3f10
cafe-dev/cafe-api       sha256:128d98b71019a279b088cecca5562d6d2433acfbeb71f2   c6146933b84d277fb7
cafe-dev/cafe-api       sha256:a7893b20056a4194cd4ee1cbd679324b51e4bf176d9be8   f649513696bc214eb1
axasgsit3/ease-web      sha256:1da7bf31eaf6cd50d3c1703d88cbb800aebc5a07f8c20c   97954041b6ba437c2b
cafe-dev/cafe-admin     sha256:0a95910c355bac0142179d42a93a13d7e001c36ce22fea   ebfbd272fe1396552c
axasgsit3/ease-web      sha256:1ec7b7c6c44b5b4c9117eb8acf759aba06bf6cf44fb425   2a88ca820c80351bc9
cafe-dev/cafe-display   sha256:54dc93c3f7336f7f839576d556658beffbae6912c916a5   4703f7f87d56ed4d9e
axasgsit/ease-api       sha256:0940f1bc87c38bcb9a713d1b4dd2137b05c6c03721399a   5a7c8f3f89feb3cbd2
axasgsit/dev-ease-web   sha256:8dab4b5641c762b0f05a6c3fcd9d4cf35377db601b7643   47c9e10c4cba22c970
cafe-dev/cafe-admin     sha256:623bf5a44f785d705cae203a9f6ef90ffc6da2e1b2df00   bdba14b1de053839e6
axasgsit/ease-api       sha256:6a0177e84d05798e51451c98ca910dcc71380379437b70   7ea351e206e35c2c61
cafe-prod/cafe-admin    sha256:70986cef84ae38190ec6de1bfbdf878a06d58cb654fcff   fdb4921738c6e4e6ba
axasgsit3/app-ws        sha256:d7066693940770183134c1f9ebe7dd334c60d7b56969c7   43d976ae73fe24a7b9
axasgsit/ease-web       sha256:e0073235d5d6120f241c1a0a0c698ac14b10976a1ae293   16a774a2daa34396dc
cafe-sit/cafe-admin     sha256:e7159cba576482b2f93c2a6817792ede624ba3adfbe3b9   dcfc8fddd109749175
axasgsit3/ease-admin    sha256:1511cafe1c24a0c1c458f30d1cf470c4b33119e0f17854   3b912052be80f4e779
axasgsit/ease-api       sha256:6266bd1ff1c80ce514a320233ac2c78cb40783ad23ea43   fa3ccd7f11052c2f5e
cafe-dev/cafe-admin     sha256:f1320c2e215152c1851cfcb511062d5231e89d5ef5c458   77d73a16341ebd6984
cafe-sit/cafe-display   sha256:23811dce2f08aa2fdcd99e145c189baaf6f241ff249cd4   69944eb22bd0fde590
cafe-sit/cafe-api       sha256:a2b5d7050eed36ddc005029506376e25302848877cb962   d9cbdbf76042d8ab72
cafe-sit/cafe-admin     sha256:cfcad4ee11a982c0a460e60245786d35cc76565b7ef3b4   63682aa6ffa38d4f69
axasgsit3/app-ws        sha256:cac2a32da0e675e59a4beddd6de3664c2bf32e87a4c4e1   dcd8a2352836ab5b5b
axasgsit3/ease-api      sha256:17e766fb454b5c279a8a279e7b376e38bd9c20456a438c   c0c364ca35408797c9
axasgsit3/ease-api      sha256:e36398621f26e567e0dcc24929321142d282cd157e033c   31d6387e994a02bc69
cafe-dev/cafe-api       sha256:0030247c0b6705c4011b3f564bc9bf4ddfec14eb98bab6   242e86a70b2da4a687
axasgsit3/ease-api      sha256:9ae48c7161c5e5c7953251fbe8c6546abecb6cad83bc88   c8a7fe83b33d57524e
cafe-dev/cafe-admin     sha256:71b5809318323fa2866d7ad88014d78dc2c625c34389b3   edc504e755dca2cbbe
hsbc-demo/mobile-api    sha256:e5b2b45b93c72660dc201596291052aee6a3e9b5b3f1a0   34a5abba57209db9ce
cafe-dev/cafe-admin     sha256:fef59ba2ce1bfcf34a51452bc86ee36f3287fc1198def5   a9a164928ef3cba4d0
cafe-prod/cafe-admin    sha256:a2bb3a0f3bfbc1f9afe93d156bf96b7c89b793f5a2f7d6   ca78d6cb188dac73d0
axasgsit/ease-api       sha256:72bf08e34bbd9badddb37aab4bed6d83c3ac9a3e843535   5e8a9758af2ef0c574
cafe-sit/cafe-display   sha256:f1512553bdbfb6895d36755c1f62ebe09e70c55b10a108   7ea63415320c0644fe
hsbc-demo/mobile-api    sha256:7a03296a974b456b117573ce2e20c626692faff1d7a46b   fe3f9be6202b1077f9
cafe-sit/cafe-admin     sha256:12e436de3957ed572a4c9bd8cef7b40b1da631b45d4d28   af1820ee562a543c00
cafe-dev/cafe-admin     sha256:b3b281687e8094b7539569e963c988109666940581e65e   c471ed518cc8058f37
cafe-dev/cafe-display   sha256:307d4973ea0b7692aafb99418ed87b29edbd6e495c20c2   864de505db56cdea21
axasgsit3/ease-api      sha256:bfa20059339d08db1ed4388af732141779373e890e8f36   924a51905c2038e038
cafe-dev/cafe-api       sha256:9bb8e6928082609d12ad77fde48dd80de9fcd67a67ab59   973735a0b84fecbe43
cafe-sit/cafe-admin     sha256:e64690a081a53890246c39bb32f45067247fecf4b0e171   97723ebb5683e8ed9f
cafe-dev/cafe-api       sha256:123c08c2ed199e28e9e4b37967065fd2a593f23ee8e0bb   638cc4d8d926c5c667
cafe-dev/cafe-admin     sha256:9392a3bbf992b042e0ec0dc7253f96a4ff702fb7a456f2   ab22341b26b54e38ec
cafe-dev/cafe-display   sha256:21daa2e6ad0f98a5548322973f0062d7f54b1269515665   6b49d637ea8d75ec81
cafe-dev/cafe-api       sha256:faa039149889046de20beeadbcb0ac315966cdd1d144aa   22ef10d2f2f15d11e8
axasgsit3/ease-web      sha256:3f70254eb1ef45f187fa862516afdb20fb99f7b40fe4d5   c5d922c85c3aef807d
axasgsit3/ease-web      sha256:00bc8839caa5203fdfcb942357562a7b9afdff610d71fc   7bbbb28c2884380437
cafe-dev/cafe-display   sha256:0e37019649d5b61e3d2067058b84faf7c3c336a11ab8ca   2a5e6d0bf26d9dcd83
axasgsit3/ease-admin    sha256:a5dd806e1cd67bfc9fea51c2c17082b5fb15ecf8d54b16   af00577145284059a7
cafe-sit/cafe-api       sha256:649fc21e5d22e2037823f0d471c148dc591e775080989b   1ab3fc5b0752961883
hsbc-demo/mobile-api    sha256:7cebdb8bf702dcb7a452a3cf417bddb8c8b2cb1092da25   4e54a6b1c28c6baf48
cafe-sit/cafe-display   sha256:81bde1d56ca9ae6a02951f946187431257a9f7ea50069b   1d2018708eea9055b9
axasgsit/ease-api       sha256:8d076b96b390fcf2e0af88ca2eabd2e7c351ed60c91142   4a3825de9c72161927
cafe-sit/cafe-display   sha256:c192f527349f4915f985e1fd5a90d02e5bb561140ac96d   a40127b9423f64c5eb
cafe-prod/cafe-admin    sha256:fa77bab084cef6bb2d02b595a5aaee8438f28d802582f8   aa09a8db5fb7979c79
cafe-dev/cafe-admin     sha256:bf279739071358536a0ac28929f95ea4e673aa1689315b   39c96761a4c28b92a8
cafe-sit/cafe-admin     sha256:5a71cfb2110605639ede9db66ccbd3fc90497a61fd0fb0   13b003012c26505184
cafe-sit/cafe-api       sha256:4fb0df4aa271dcdb284d815e31218c58f5bda75ae49fe2   1fab81d5ebf49043f7
cafe-dev/cafe-api       sha256:fec70b707c6b7c4572e1ac998587697c745eafc71ae1b8   6f94ca93454c17f189
axasgsit3/ease-api      sha256:4e555acebf75a664afa9b69f0bbf66340f11c68e9691f8   a4f45742230076a661
cafe-dev/cafe-admin     sha256:69de63f5fe523a99475be4f274bb2a445e6192b9a81e82   472395ebed30451efe
axasgsit3/ease-api      sha256:d8b6a67b04f3fd16344aa137c57c623baf497c6ae4ec43   0ecd0becb018ef004e
axasgsit3/ease-web      sha256:27856932343c4172e16b79cfb6bcaeac86cbc3cd7ef96c   e1a34fb8ea8a2e49ca
cafe-dev/cafe-api       sha256:aff44c7d8f1697ee599d0b9a726dee6d4e83d6c59e87af   18cb2dad1e7c2ee7b3
cafe-dev/cafe-api       sha256:6543a6ac1dc333a4013c526e31c37afe498d467fccde44   15bc84837c7b797fb4
axasgsit3/ease-web      sha256:e90800bcb388556353917bdb53227339a7b28a9d5d9630   18245ce472b5754565
cafe-dev/cafe-admin     sha256:7070563085665d811ba370b75be41113117e5f16880b14   3be185c72d62f369e8

Deleting registry layer blobs ...
BLOB
sha256:12c8e4006dbbabf1055e05d3e4f77d7d1dfdf54067a3a0565a305c0dcfef47c3
sha256:aea5ac8566407f11d0c129dd378b6bc64f7234cd5257d8ee8939dfdc21da7700
sha256:7d3b155c3e8d9eca337816ccb3fd0e543d3fcfe5ebfedec50281dd5e8b38bbbf
sha256:a22141919289db243292b15f77ffa600e75661489c3aaad1d95e660b39455ece
sha256:e50903ef82d56dcd09a7590901c498af36946942b728bdf006001692bc08dd3a
sha256:cd5ad1dd3a716fc07f30e9591a2a579934f4d192aad17515c871d2d4eae049b0
sha256:e426acc67c6a3612506abd6bc7f5db7d6a4ad53dae8bd234a60b0d36912eb026
sha256:4e5fbbec0d47cf00c984e7f9e05572e29c65d4a7ae3fe85cbafe28e8318526bb
sha256:d12a0202eff27b3d8c9eba8a0b87939954862116f5d0a949ecabaa2e3c763fd2
sha256:5b93fdf74186f5c061566cd7096a45301562294fcdb85b11c2e33ec433f50822
sha256:644567c5db399036cfd9aa253c828ebe9b4720c81310ea0f4716f971938fa146
sha256:0d701f0c04c81bb593ffd333db7ee380722526ab2f51520a4ae6535e26eb7d39
sha256:202fe3bf690702125f1e3f1b8c33666885233ffe890e4f7c1ed8d63ead0ea260
sha256:4bf5d96cf21b172a6f9334798ddfaf7f22ea72b554b63e0d912de724ecf7b061
sha256:e64bd6515624f564ea8c1e66c08836a2537da4378b72b598541c22a44c9f4db9
sha256:e7a7f790718d1aa0d2d2ea46a343e0eb83a16ee5fb38fea601ee9aa5b4fe7907
sha256:419f71f2ee080e3f0e44267f86bbd56a7a611c8c7ebf43ef571db31dd3d59f82
sha256:526417fc3abba93b733c0508a1cbad6557f668b730b7ca30bef0604729566c08
sha256:3b7a2082049c0434d23c33406fe14e8d6f54c0ea1fb81207eca9e52e9bc69715
sha256:1a3a7cf3b9f277e96d721cf9fd7a06705f42fce542076354dcc8f98de4b78bc8
sha256:3de3d3d6a7cf3a17f94c1d25a5c5e874c2072b310d0ccefe4e85ba5fa31d5a51
sha256:b1a7ce5cf76f5d1a6d5fb787cc72914742f4d40fc8951b8117bba96040a259ce
sha256:5cb1dd63c0b3c69ba4cad7095738b00de4aa320c9ed204e9f668b2793fa7fc97
sha256:59e32c61b65fc90cd6962bd38ecff112c7e24b8f6067777d6cd8ea00362ef828
sha256:ae7ecbc08cfa78a42cf1967589d6dfa1f5ac68e0cb73a60364aee294d3eb505d
sha256:5bdd74c6e8747509ebe01eab041193b77c02df9d9118424bed8580c91126d5f1
sha256:99d67f496c278c436767c422cdecf3b90535cd55256c4a0bfb3b9df52ef7574e
sha256:96e15943aaec8eedb6bb6919b1368f32a4144bc177679a83cbc59cb186c0c899
sha256:ad164ae669027c7b8c66eee1aea0e9a0c4f97b95090ba8e914795966419048dd
sha256:78600660c5a4bf15402d3a76070de185f787a9e4c4e16896004a5fb928de7f4f
sha256:7ba58c64ace8fb40c797e7852a4689ee45e8c833eccb254e4568136e921a3f10
sha256:128d98b71019a279b088cecca5562d6d2433acfbeb71f2c6146933b84d277fb7
sha256:a7893b20056a4194cd4ee1cbd679324b51e4bf176d9be8f649513696bc214eb1
sha256:1da7bf31eaf6cd50d3c1703d88cbb800aebc5a07f8c20c97954041b6ba437c2b
sha256:0a95910c355bac0142179d42a93a13d7e001c36ce22feaebfbd272fe1396552c
sha256:1ec7b7c6c44b5b4c9117eb8acf759aba06bf6cf44fb4252a88ca820c80351bc9
sha256:54dc93c3f7336f7f839576d556658beffbae6912c916a54703f7f87d56ed4d9e
sha256:0940f1bc87c38bcb9a713d1b4dd2137b05c6c03721399a5a7c8f3f89feb3cbd2
sha256:8dab4b5641c762b0f05a6c3fcd9d4cf35377db601b764347c9e10c4cba22c970
sha256:623bf5a44f785d705cae203a9f6ef90ffc6da2e1b2df00bdba14b1de053839e6
sha256:6a0177e84d05798e51451c98ca910dcc71380379437b707ea351e206e35c2c61
sha256:70986cef84ae38190ec6de1bfbdf878a06d58cb654fcfffdb4921738c6e4e6ba
sha256:d7066693940770183134c1f9ebe7dd334c60d7b56969c743d976ae73fe24a7b9
sha256:e0073235d5d6120f241c1a0a0c698ac14b10976a1ae29316a774a2daa34396dc
sha256:e7159cba576482b2f93c2a6817792ede624ba3adfbe3b9dcfc8fddd109749175
sha256:1511cafe1c24a0c1c458f30d1cf470c4b33119e0f178543b912052be80f4e779
sha256:6266bd1ff1c80ce514a320233ac2c78cb40783ad23ea43fa3ccd7f11052c2f5e
sha256:f1320c2e215152c1851cfcb511062d5231e89d5ef5c45877d73a16341ebd6984
sha256:23811dce2f08aa2fdcd99e145c189baaf6f241ff249cd469944eb22bd0fde590
sha256:a2b5d7050eed36ddc005029506376e25302848877cb962d9cbdbf76042d8ab72
sha256:cfcad4ee11a982c0a460e60245786d35cc76565b7ef3b463682aa6ffa38d4f69
sha256:cac2a32da0e675e59a4beddd6de3664c2bf32e87a4c4e1dcd8a2352836ab5b5b
sha256:17e766fb454b5c279a8a279e7b376e38bd9c20456a438cc0c364ca35408797c9
sha256:e36398621f26e567e0dcc24929321142d282cd157e033c31d6387e994a02bc69
sha256:0030247c0b6705c4011b3f564bc9bf4ddfec14eb98bab6242e86a70b2da4a687
sha256:9ae48c7161c5e5c7953251fbe8c6546abecb6cad83bc88c8a7fe83b33d57524e
sha256:71b5809318323fa2866d7ad88014d78dc2c625c34389b3edc504e755dca2cbbe
sha256:e5b2b45b93c72660dc201596291052aee6a3e9b5b3f1a034a5abba57209db9ce
sha256:fef59ba2ce1bfcf34a51452bc86ee36f3287fc1198def5a9a164928ef3cba4d0
sha256:a2bb3a0f3bfbc1f9afe93d156bf96b7c89b793f5a2f7d6ca78d6cb188dac73d0
sha256:72bf08e34bbd9badddb37aab4bed6d83c3ac9a3e8435355e8a9758af2ef0c574
sha256:f1512553bdbfb6895d36755c1f62ebe09e70c55b10a1087ea63415320c0644fe
sha256:7a03296a974b456b117573ce2e20c626692faff1d7a46bfe3f9be6202b1077f9
sha256:12e436de3957ed572a4c9bd8cef7b40b1da631b45d4d28af1820ee562a543c00
sha256:b3b281687e8094b7539569e963c988109666940581e65ec471ed518cc8058f37
sha256:307d4973ea0b7692aafb99418ed87b29edbd6e495c20c2864de505db56cdea21
sha256:bfa20059339d08db1ed4388af732141779373e890e8f36924a51905c2038e038
sha256:9bb8e6928082609d12ad77fde48dd80de9fcd67a67ab59973735a0b84fecbe43
sha256:e64690a081a53890246c39bb32f45067247fecf4b0e17197723ebb5683e8ed9f
sha256:123c08c2ed199e28e9e4b37967065fd2a593f23ee8e0bb638cc4d8d926c5c667
sha256:9392a3bbf992b042e0ec0dc7253f96a4ff702fb7a456f2ab22341b26b54e38ec
sha256:21daa2e6ad0f98a5548322973f0062d7f54b12695156656b49d637ea8d75ec81
sha256:faa039149889046de20beeadbcb0ac315966cdd1d144aa22ef10d2f2f15d11e8
sha256:3f70254eb1ef45f187fa862516afdb20fb99f7b40fe4d5c5d922c85c3aef807d
sha256:00bc8839caa5203fdfcb942357562a7b9afdff610d71fc7bbbb28c2884380437
sha256:0e37019649d5b61e3d2067058b84faf7c3c336a11ab8ca2a5e6d0bf26d9dcd83
sha256:a5dd806e1cd67bfc9fea51c2c17082b5fb15ecf8d54b16af00577145284059a7
sha256:649fc21e5d22e2037823f0d471c148dc591e775080989b1ab3fc5b0752961883
sha256:7cebdb8bf702dcb7a452a3cf417bddb8c8b2cb1092da254e54a6b1c28c6baf48
sha256:81bde1d56ca9ae6a02951f946187431257a9f7ea50069b1d2018708eea9055b9
sha256:8d076b96b390fcf2e0af88ca2eabd2e7c351ed60c911424a3825de9c72161927
sha256:c192f527349f4915f985e1fd5a90d02e5bb561140ac96da40127b9423f64c5eb
sha256:fa77bab084cef6bb2d02b595a5aaee8438f28d802582f8aa09a8db5fb7979c79
sha256:bf279739071358536a0ac28929f95ea4e673aa1689315b39c96761a4c28b92a8
sha256:5a71cfb2110605639ede9db66ccbd3fc90497a61fd0fb013b003012c26505184
sha256:4fb0df4aa271dcdb284d815e31218c58f5bda75ae49fe21fab81d5ebf49043f7
sha256:fec70b707c6b7c4572e1ac998587697c745eafc71ae1b86f94ca93454c17f189
sha256:4e555acebf75a664afa9b69f0bbf66340f11c68e9691f8a4f45742230076a661
sha256:69de63f5fe523a99475be4f274bb2a445e6192b9a81e82472395ebed30451efe
sha256:d8b6a67b04f3fd16344aa137c57c623baf497c6ae4ec430ecd0becb018ef004e
sha256:27856932343c4172e16b79cfb6bcaeac86cbc3cd7ef96ce1a34fb8ea8a2e49ca
sha256:aff44c7d8f1697ee599d0b9a726dee6d4e83d6c59e87af18cb2dad1e7c2ee7b3
sha256:6543a6ac1dc333a4013c526e31c37afe498d467fccde4415bc84837c7b797fb4
sha256:e90800bcb388556353917bdb53227339a7b28a9d5d963018245ce472b5754565
sha256:7070563085665d811ba370b75be41113117e5f16880b143be185c72d62f369e8

Deleting registry repository manifest data ...
REPO                    IMAGE
cafe-dev/cafe-api       sha256:9faa19dcb98d5c9df31e0c4127127f29fda8a91a92b733   e1c0c3837381101b4e
axasgsit/ease-api       sha256:2c5db44a9b15574f47fec9f07aaabf7037e1fe61802040   4a15676c705e5fabcb
cafe-dev/cafe-api       sha256:5f431111aa90dffc58b9669c6a2d353ae8c60a3692eb5b   2951a3c05fa1ad594d
cafe-dev/cafe-admin     sha256:caeed49fa5aa43f4f95df64231ba22297e2d4a142aa2a6   a0314a9806db0e21bc
cafe-dev/cafe-display   sha256:f33eccc0aba7d3b8f73a21c9609d3fa46a73c74c22bdb8   bfa33ea9bd257e0848
cafe-dev/cafe-admin     sha256:006f5634736794eca041e8283dc2b64df932ab47ae6e14   c0b6aa1f7979274981
cafe-dev/cafe-api       sha256:2d8107f6046c325eb046703c56baec89243e63079face1   e1056cbfb390186579
hsbc-demo/mobile-api    sha256:57a4714017a4abca1ab24c2f027620cea0961abee9a765   712a6a4d6990e7a35e
cafe-sit/cafe-api       sha256:2d96ee6c0de2d77a4fe321bc970addb0f398c3161cc4e2   15162fe6cc2ce8e164
cafe-dev/cafe-admin     sha256:9b2652f2dabb9be8af52b87ad9be87be2103467c1f9e3d   c38e71eab7c56c7243
cafe-sit/cafe-admin     sha256:e41b4b95dba713f2fb1b1afeca554ab7acf3638a4835f6   c4bc6181dcaeaffd24
cafe-dev/cafe-admin     sha256:24f1dbe7ca1eb0acaa2f099079f6e5ea9183332eb06515   40b5ba7f4ca436c829
axasgsit/ease-api       sha256:d48b028051c6cd8df9c27fa40c82419214c2bb16b05e33   9d7949a68cebf6ce94
cafe-dev/cafe-display   sha256:a4e4777bfe9f15ff144c59caa83722c4bd3ed702e4dff3   b36a1f0fb5bfdef0f5
cafe-sit/cafe-admin     sha256:5a7df8c8b7f6a742a3dbef0b240fb49e8116f8a991a987   bfad4b81f93d52f4eb
axasgsit3/app-ws        sha256:420e82246f3088c2c5bbff0f2e023fca599ddf5bff5b2b   a2f89fad110a3745bc
hsbc-demo/mobile-api    sha256:8428f395caa0f2389011c1d869bea1106b58494b7b4ed4   a327e0eb7b01dd896d
axasgsit3/ease-api      sha256:a58f7ac9a8e57fe7135a9d7db48ace4d22f2c7d3eb9147   73f484193c1107544d
cafe-dev/cafe-admin     sha256:e8855de58ac0ac72a9171054f3bc3bd842f293f4ea8c02   1334517490620354c3
axasgsit3/ease-api      sha256:9d9cb931991424de5721b96e34aab1800d373cb29d3eca   7d9995fffcbcc768d4
axasgsit3/ease-web      sha256:268bf54bfdddae28a8a40926c5faee16740880d0f1adb8   5c8fb084731931febc
cafe-sit/cafe-display   sha256:eba4fe5f7576a6fd9503b6310a1e79454f8e4296109663   60c61461aba69827c7
cafe-dev/cafe-admin     sha256:d4847a1f8077bf5bb7a25522511c71dd96f88be9dccb3a   6c6d72a57235d8047a
cafe-sit/cafe-admin     sha256:0d791da1f1bc415ccc08f25f578ca5f4719343be9bdf17   e871ae6551cde57e67
cafe-prod/cafe-api      sha256:48d2fa7672c60c5f5fdf51819311fc674d68393488619e   f67c3834e42741d985
cafe-sit/cafe-admin     sha256:592b298672445628161186a49944e200abcc1bf435578b   a7130dae4806c195d0
cafe-sit/cafe-api       sha256:3350dc0080b9637d3e3cbe036d522540f145e5c47eab73   1671d36f6d5b27e65f
cafe-dev/cafe-admin     sha256:23e36e0d5ec09c0b4721e0068edca765d02ad44128e405   de4df11a17d57da8bf
axasgsit3/ease-admin    sha256:a7a26cd44e6ae698d639d901375f5a1d82d1f67be5ae88   2f7b23edf69abb574b
cafe-dev/cafe-admin     sha256:d500dc56656e2202329366b318acb2c9afa7f7b21f5555   c57890f4148b67032d
cafe-dev/cafe-admin     sha256:502a13084f6118daa0b4c6f6a06f6a5a1062289dca7ac5   efd021fcf3aa0b25a6
axasgsit/ease-web       sha256:4696573cea77bf0821a4b99b736434b09f1d0c6b58b8af   f8db7c30bc8b728103
cafe-dev/cafe-api       sha256:79ecca147793b6be8e58d843a94dbe7d8ca99bd3921925   48398888557b11577a
cafe-dev/cafe-admin     sha256:5e757d9a3808a3ddbb37fddfdbf05e0ae27ad8863b8fbd   e9672872a65aa572f6
cafe-dev/cafe-api       sha256:c8a0583c14e383e300b210a12b45c8651e695d30e2abce   2a136006510ec9f1d9
cafe-sit/cafe-admin     sha256:275ba73511cae841bb55cdbb0420c9cb6f47d7588a4c89   2773c1dc7d10e1c5fe
axasgsit3/ease-api      sha256:049efd60b2996bd7f85118cdd378c29055a75ec521f77e   32c4ff1aca790e4df1
cafe-dev/cafe-api       sha256:8cc7dce05e2bc93ef84ed2a09e7780bafee0224fef8271   0f6508c5b6efdb7765
cafe-dev/cafe-api       sha256:6652772146d72d491363753d9797086a2a396b338c8480   94f20662d0f7077bdc
axasgsit3/ease-api      sha256:9e01052dbb6dd62a9a407496e497af03d944f65a1e0450   1b8c5f033cd9d8346a
cafe-dev/cafe-admin     sha256:3801c8ba7c7dec557e9586fd8462a4944f8c17de6c3397   374be791209cab5f63
cafe-dev/cafe-display   sha256:56a580c0d5c3b99b3e9a22b7e05ac0b4b242f826128606   e13b0e65176df7444e
cafe-dev/cafe-display   sha256:56175da797dc5b13fbdff945b1097d31609bbaf1ec4296   4b4ba4d8cd869ebfef
axasgsit3/ease-api      sha256:46bd67699b8807119e0fd727bb41833695031925ffb21c   467a7af5f4eb7091a8
axasgsit3/ease-web      sha256:29b48d40d7e0946486c4ad4214736905de8a51ea5a9e17   c1ffa50cbb7aff8c9f
cafe-sit/cafe-api       sha256:c352d986e2746925963ee9c85fe33cdc75f5dbfc368f86   df1114dc200a349a56
axasgsit/ease-api       sha256:25976fdf2c6755a08365dd53590a349f8c9042fa788bed   9337f5c0747d311f18
axasgsit3/ease-api      sha256:ebbcae19e7683b2da015c3ca34d3ba786455c072274831   64074d86fe1a5bcce7
cafe-sit/cafe-admin     sha256:9be4948fc5357d139f87149b5d05300c1eec7e786d7f7b   d109de705d6c0ad72d
hsbc-demo/mobile-api    sha256:dfc49c9108d288789cd857ad8ffcf230cfea315c646929   6af38ff805d0ae11df
cafe-sit/cafe-display   sha256:bf8f322b9a38944a2ad9ceaed89cb0f60a2981a4a9ab9f   dad01d8916f35c6493
cafe-sit/cafe-display   sha256:af9955d73d06f067ed24d51d50de6ae9fd30338849a9b4   794bef4b53124f0b4b
axasgsit3/ease-web      sha256:87f61dd2ba5d4cb30e950ce9954ada18322d4c574bd021   b7153070d1fdaf7411
axasgsit3/ease-web      sha256:3473b37ee324ac4f5bf580fd6aee35133c0472f7795a4c   757df634725c42c48b
cafe-sit/cafe-api       sha256:37e7d3df029e50ec47ab807277584d8b0f385f652af7ae   2983b4b848b335c431
cafe-dev/cafe-display   sha256:f50825785acfe88a55a3006517a8b225c65e2ac2587ddf   4b003bfee79f4aaa39
axasgsit3/ease-web      sha256:7e9756c12762fd0f91cad13e15bc8acedda3bfb612de0f   746bd68edb94197834
axasgsit/ease-api       sha256:11328b8c09a054c0df878100559278367cbaf1ac01f247   2ba1d2e494f719bbf5
cafe-prod/cafe-admin    sha256:e745891378b50b1a7feb2d2d4113b40aec59cf5c21e4e4   1e29714b85a252c43c
cafe-sit/cafe-display   sha256:b4323759b2b986adbc46224ff8d79b8f69bc04ffda009c   932bb1474adec6af87
cafe-dev/cafe-api       sha256:35a6ca733efb343bd524b494dddf13fc37f1dd36ae7824   bddd7cb6797920ea97
axasgsit3/ease-admin    sha256:ea948af73d3c3e48b55c02a70f4fad5ad2d36199a18eda   29ddc5a354e8c3d8e0
axasgsit3/app-ws        sha256:9dddf1d00c2c459163fba13fc032fa1f79aa4fa1989313   bfacb0ba52b2987c53
cafe-sit/cafe-display   sha256:daf9946848de19d2f8c3b8ca2cd17f1d016e73a8386466   d936564fae1f56e8a7
cafe-dev/cafe-api       sha256:d7bbc0848f3997bfb78b812dcb4e277fa2f1fbe0d35f1e   78f51db05b0341b1e5
cafe-dev/cafe-api       sha256:8fa8ebd83610740bea3a8b25cb9faeafa5d1915dfb2c2e   662065247bb8e17c6b
cafe-prod/cafe-admin    sha256:bda2c08e8269998233dac5289e9f5857fe35c9ad9611ef   7d32cfc4b9219f7f03
cafe-prod/cafe-admin    sha256:b48815b0c5abe1f67b15230304560cfe72dbb3c8075c12   3705b8a9c97657529c
cafe-dev/cafe-admin     sha256:d25d8b5f68224be017b2c7fd9ffe0af061d9a20b97d705   b9bf796303c1fe1df0
axasgsit/ease-web       sha256:e1ffd23dabcaac236f3cab6d97a445d555e6a726984cae   bd5d50e17f5e181b33
cafe-sit/cafe-display   sha256:d57610c1af4b7381b22ba915ecf4f349cc1cb14ca2edee   506157728a8032d939
cafe-dev/cafe-api       sha256:2f3906138f2e428c83831d4b929b4bcf3bd02ff0cfa1da   61fb8546064dd3c6d4
axasgsit3/ease-web      sha256:7af11ce13c5d42bb186397a8719e45d1239b61d0ffafd2   d3afc9569f0b579dde
axasgsit3/ease-web      sha256:4d846bfc89d464ff6a03585fe3e2e8c7fd125c0ad89cc9   ea6c8d39e4dc746a41
cafe-sit/cafe-api       sha256:3599a2ce6e83e668fbe0ac099e82210539aa7ac624c10e   6a931fe3311b2d55d9
cafe-dev/cafe-api       sha256:698922b9ea9c2d2f13f8fd1ae03cd80cd875c55dd7fb83   ac04495e3d7951ea27
axasgsit/ease-api       sha256:7d765ac8cdd48d12ba761b5579063e7c39039b5b8352f7   475cdc70a7f1aaf65e
axasgsit3/app-ws        sha256:a47df9cfc0bc80f83819dc8885f473f27ac61a9592e156   a39695f47f46fe4130
hsbc-demo/mobile-api    sha256:de385f620bbe12e4dc4dae127870dfa7f4217724fd5619   5130f40962f5b602f7
cafe-dev/cafe-admin     sha256:d36eb0f841333b84ee233e18e24e4d5988505ddc3a54d2   3da852d811f4bda9bd
cafe-sit/cafe-admin     sha256:1dace84996a9105550489d9e702cb2e04e955d1b714c7c   51dcad9853d48bde26
cafe-dev/cafe-admin     sha256:65be07032fe5f300dd8449e30b3083191760736069b81c   d251f1ebc77a8f2905
cafe-sit/cafe-admin     sha256:b2de83ea18976a40d4b9b17abe0529f2beed7ce4ada20f   629650064a51463d80
cafe-dev/cafe-api       sha256:c1c69cc789be402431a0d62cb74e063232532254b216a2   0d73ac0da36b14b65d
cafe-dev/cafe-display   sha256:3d26b327f41aa7393411da0478cf11c1fba2e4101c39fc   cd650df7e4538e97be
cafe-dev/cafe-api       sha256:b84a25a897783ea9a85dc2a5cbff8cab466c1390eea27d   1b8bbdf673963fd210
axasgsit/ease-api       sha256:aa90f0af54b7b4244bb2d5c1aa5319e6b3236c26ee8627   3d6e2c253915e87ad2
axasgsit3/ease-api      sha256:8dadd01415876d99bac0d15b0062f4f4b1f92fa13a9a9e   870d2a1e536df1c629
axasgsit/dev-ease-web   sha256:3f0af559ca1538c00f7c90c2f81f3bc005a89461f990a4   3d5eabed62712ad1c4
cafe-dev/cafe-display   sha256:8165b4cf508b7bed90e7c43d6713355f0cad4dd8315e9e   4f89a074ecac94905a
cafe-dev/cafe-admin     sha256:a8f30568e501552fe8254f29d2c862aa9af61e0c4f6dd4   8b09f03e6644bc89f3
cafe-sit/cafe-api       sha256:f9c7c4479dccb6b21f3977ddc68df8eaa44291f238be9c   646091424693ea6b2f
cafe-dev/cafe-admin     sha256:8ec91d9ef2b2f911bf9c123a0ebb7b205e869513b69230   d80e6727d20a6b6695
cafe-sit/cafe-admin     sha256:38b0c409f868caa005e8bc7083bdb29c5e96c21c5759d1   37bfdb9b977a1fb021
axasgsit/ease-api       sha256:9cfb4c2be33c3481f8b9ac9e3ec9d48ac255c3615f2d95   37eba18b7b22bfc9c9

Deleting images from server ...
IMAGE
sha256:9faa19dcb98d5c9df31e0c4127127f29fda8a91a92b733e1c0c3837381101b4e
sha256:2c5db44a9b15574f47fec9f07aaabf7037e1fe618020404a15676c705e5fabcb
sha256:5f431111aa90dffc58b9669c6a2d353ae8c60a3692eb5b2951a3c05fa1ad594d
sha256:caeed49fa5aa43f4f95df64231ba22297e2d4a142aa2a6a0314a9806db0e21bc
sha256:f33eccc0aba7d3b8f73a21c9609d3fa46a73c74c22bdb8bfa33ea9bd257e0848
sha256:006f5634736794eca041e8283dc2b64df932ab47ae6e14c0b6aa1f7979274981
sha256:2d8107f6046c325eb046703c56baec89243e63079face1e1056cbfb390186579
sha256:57a4714017a4abca1ab24c2f027620cea0961abee9a765712a6a4d6990e7a35e
sha256:2d96ee6c0de2d77a4fe321bc970addb0f398c3161cc4e215162fe6cc2ce8e164
sha256:9b2652f2dabb9be8af52b87ad9be87be2103467c1f9e3dc38e71eab7c56c7243
sha256:e41b4b95dba713f2fb1b1afeca554ab7acf3638a4835f6c4bc6181dcaeaffd24
sha256:24f1dbe7ca1eb0acaa2f099079f6e5ea9183332eb0651540b5ba7f4ca436c829
sha256:d48b028051c6cd8df9c27fa40c82419214c2bb16b05e339d7949a68cebf6ce94
sha256:a4e4777bfe9f15ff144c59caa83722c4bd3ed702e4dff3b36a1f0fb5bfdef0f5
sha256:5a7df8c8b7f6a742a3dbef0b240fb49e8116f8a991a987bfad4b81f93d52f4eb
sha256:420e82246f3088c2c5bbff0f2e023fca599ddf5bff5b2ba2f89fad110a3745bc
sha256:8428f395caa0f2389011c1d869bea1106b58494b7b4ed4a327e0eb7b01dd896d
sha256:a58f7ac9a8e57fe7135a9d7db48ace4d22f2c7d3eb914773f484193c1107544d
sha256:e8855de58ac0ac72a9171054f3bc3bd842f293f4ea8c021334517490620354c3
sha256:9d9cb931991424de5721b96e34aab1800d373cb29d3eca7d9995fffcbcc768d4
sha256:268bf54bfdddae28a8a40926c5faee16740880d0f1adb85c8fb084731931febc
sha256:eba4fe5f7576a6fd9503b6310a1e79454f8e429610966360c61461aba69827c7
sha256:d4847a1f8077bf5bb7a25522511c71dd96f88be9dccb3a6c6d72a57235d8047a
sha256:0d791da1f1bc415ccc08f25f578ca5f4719343be9bdf17e871ae6551cde57e67
sha256:48d2fa7672c60c5f5fdf51819311fc674d68393488619ef67c3834e42741d985
sha256:592b298672445628161186a49944e200abcc1bf435578ba7130dae4806c195d0
sha256:3350dc0080b9637d3e3cbe036d522540f145e5c47eab731671d36f6d5b27e65f
sha256:23e36e0d5ec09c0b4721e0068edca765d02ad44128e405de4df11a17d57da8bf
sha256:a7a26cd44e6ae698d639d901375f5a1d82d1f67be5ae882f7b23edf69abb574b
sha256:d500dc56656e2202329366b318acb2c9afa7f7b21f5555c57890f4148b67032d
sha256:502a13084f6118daa0b4c6f6a06f6a5a1062289dca7ac5efd021fcf3aa0b25a6
sha256:4696573cea77bf0821a4b99b736434b09f1d0c6b58b8aff8db7c30bc8b728103
sha256:79ecca147793b6be8e58d843a94dbe7d8ca99bd392192548398888557b11577a
sha256:5e757d9a3808a3ddbb37fddfdbf05e0ae27ad8863b8fbde9672872a65aa572f6
sha256:c8a0583c14e383e300b210a12b45c8651e695d30e2abce2a136006510ec9f1d9
sha256:275ba73511cae841bb55cdbb0420c9cb6f47d7588a4c892773c1dc7d10e1c5fe
sha256:049efd60b2996bd7f85118cdd378c29055a75ec521f77e32c4ff1aca790e4df1
sha256:8cc7dce05e2bc93ef84ed2a09e7780bafee0224fef82710f6508c5b6efdb7765
sha256:6652772146d72d491363753d9797086a2a396b338c848094f20662d0f7077bdc
sha256:9e01052dbb6dd62a9a407496e497af03d944f65a1e04501b8c5f033cd9d8346a
sha256:3801c8ba7c7dec557e9586fd8462a4944f8c17de6c3397374be791209cab5f63
sha256:56a580c0d5c3b99b3e9a22b7e05ac0b4b242f826128606e13b0e65176df7444e
sha256:56175da797dc5b13fbdff945b1097d31609bbaf1ec42964b4ba4d8cd869ebfef
sha256:46bd67699b8807119e0fd727bb41833695031925ffb21c467a7af5f4eb7091a8
sha256:29b48d40d7e0946486c4ad4214736905de8a51ea5a9e17c1ffa50cbb7aff8c9f
sha256:c352d986e2746925963ee9c85fe33cdc75f5dbfc368f86df1114dc200a349a56
sha256:25976fdf2c6755a08365dd53590a349f8c9042fa788bed9337f5c0747d311f18
sha256:ebbcae19e7683b2da015c3ca34d3ba786455c07227483164074d86fe1a5bcce7
sha256:9be4948fc5357d139f87149b5d05300c1eec7e786d7f7bd109de705d6c0ad72d
sha256:dfc49c9108d288789cd857ad8ffcf230cfea315c6469296af38ff805d0ae11df
sha256:bf8f322b9a38944a2ad9ceaed89cb0f60a2981a4a9ab9fdad01d8916f35c6493
sha256:af9955d73d06f067ed24d51d50de6ae9fd30338849a9b4794bef4b53124f0b4b
sha256:87f61dd2ba5d4cb30e950ce9954ada18322d4c574bd021b7153070d1fdaf7411
sha256:3473b37ee324ac4f5bf580fd6aee35133c0472f7795a4c757df634725c42c48b
sha256:37e7d3df029e50ec47ab807277584d8b0f385f652af7ae2983b4b848b335c431
sha256:f50825785acfe88a55a3006517a8b225c65e2ac2587ddf4b003bfee79f4aaa39
sha256:7e9756c12762fd0f91cad13e15bc8acedda3bfb612de0f746bd68edb94197834
sha256:11328b8c09a054c0df878100559278367cbaf1ac01f2472ba1d2e494f719bbf5
sha256:e745891378b50b1a7feb2d2d4113b40aec59cf5c21e4e41e29714b85a252c43c
sha256:b4323759b2b986adbc46224ff8d79b8f69bc04ffda009c932bb1474adec6af87
sha256:35a6ca733efb343bd524b494dddf13fc37f1dd36ae7824bddd7cb6797920ea97
sha256:ea948af73d3c3e48b55c02a70f4fad5ad2d36199a18eda29ddc5a354e8c3d8e0
sha256:9dddf1d00c2c459163fba13fc032fa1f79aa4fa1989313bfacb0ba52b2987c53
sha256:daf9946848de19d2f8c3b8ca2cd17f1d016e73a8386466d936564fae1f56e8a7
sha256:d7bbc0848f3997bfb78b812dcb4e277fa2f1fbe0d35f1e78f51db05b0341b1e5
sha256:8fa8ebd83610740bea3a8b25cb9faeafa5d1915dfb2c2e662065247bb8e17c6b
sha256:bda2c08e8269998233dac5289e9f5857fe35c9ad9611ef7d32cfc4b9219f7f03
sha256:b48815b0c5abe1f67b15230304560cfe72dbb3c8075c123705b8a9c97657529c
sha256:d25d8b5f68224be017b2c7fd9ffe0af061d9a20b97d705b9bf796303c1fe1df0
sha256:e1ffd23dabcaac236f3cab6d97a445d555e6a726984caebd5d50e17f5e181b33
sha256:d57610c1af4b7381b22ba915ecf4f349cc1cb14ca2edee506157728a8032d939
sha256:2f3906138f2e428c83831d4b929b4bcf3bd02ff0cfa1da61fb8546064dd3c6d4
sha256:7af11ce13c5d42bb186397a8719e45d1239b61d0ffafd2d3afc9569f0b579dde
sha256:4d846bfc89d464ff6a03585fe3e2e8c7fd125c0ad89cc9ea6c8d39e4dc746a41
sha256:3599a2ce6e83e668fbe0ac099e82210539aa7ac624c10e6a931fe3311b2d55d9
sha256:698922b9ea9c2d2f13f8fd1ae03cd80cd875c55dd7fb83ac04495e3d7951ea27
sha256:7d765ac8cdd48d12ba761b5579063e7c39039b5b8352f7475cdc70a7f1aaf65e
sha256:a47df9cfc0bc80f83819dc8885f473f27ac61a9592e156a39695f47f46fe4130
sha256:de385f620bbe12e4dc4dae127870dfa7f4217724fd56195130f40962f5b602f7
sha256:d36eb0f841333b84ee233e18e24e4d5988505ddc3a54d23da852d811f4bda9bd
sha256:1dace84996a9105550489d9e702cb2e04e955d1b714c7c51dcad9853d48bde26
sha256:65be07032fe5f300dd8449e30b3083191760736069b81cd251f1ebc77a8f2905
sha256:b2de83ea18976a40d4b9b17abe0529f2beed7ce4ada20f629650064a51463d80
sha256:c1c69cc789be402431a0d62cb74e063232532254b216a20d73ac0da36b14b65d
sha256:3d26b327f41aa7393411da0478cf11c1fba2e4101c39fccd650df7e4538e97be
sha256:b84a25a897783ea9a85dc2a5cbff8cab466c1390eea27d1b8bbdf673963fd210
sha256:aa90f0af54b7b4244bb2d5c1aa5319e6b3236c26ee86273d6e2c253915e87ad2
sha256:8dadd01415876d99bac0d15b0062f4f4b1f92fa13a9a9e870d2a1e536df1c629
sha256:3f0af559ca1538c00f7c90c2f81f3bc005a89461f990a43d5eabed62712ad1c4
sha256:8165b4cf508b7bed90e7c43d6713355f0cad4dd8315e9e4f89a074ecac94905a
sha256:a8f30568e501552fe8254f29d2c862aa9af61e0c4f6dd48b09f03e6644bc89f3
sha256:f9c7c4479dccb6b21f3977ddc68df8eaa44291f238be9c646091424693ea6b2f
sha256:8ec91d9ef2b2f911bf9c123a0ebb7b205e869513b69230d80e6727d20a6b6695
sha256:38b0c409f868caa005e8bc7083bdb29c5e96c21c5759d137bfdb9b977a1fb021
sha256:9cfb4c2be33c3481f8b9ac9e3ec9d48ac255c3615f2d9537eba18b7b22bfc9c9
[root@vm-OpenShift-POC-1 ~]# docker images
REPOSITORY                                                   TAG                    IMAGE ID            CREATED             SIZE
701211757981.dkr.ecr.ap-southeast-1.amazonaws.com/ease-api   v1.18.1.4              6fb0c2b4fdbb        7 hours ago         2.165 GB
172.30.66.113:5000/axasgsit3/ease-api                        latest                 6fb0c2b4fdbb        7 hours ago         2.165 GB
172.30.66.113:5000/axasgsit/ease-api                         latest                 7d6724f7613c        3 days ago          2.318 GB
701211757981.dkr.ecr.ap-southeast-1.amazonaws.com/ease-api   v1.18.1.3              7d6724f7613c        3 days ago          2.318 GB
701211757981.dkr.ecr.ap-southeast-1.amazonaws.com/ease-api   v1.18.1.2              0e9517fd6874        8 days ago          2.464 GB
172.30.66.113:5000/axasgsit/ease-api                         <none>                 0e9517fd6874        8 days ago          2.464 GB
701211757981.dkr.ecr.ap-southeast-1.amazonaws.com/ease-api   v1.18.1.1              aeeb247db1bb        9 days ago          2.229 GB
172.30.66.113:5000/axasgsit3/ease-api                        <none>                 aeeb247db1bb        9 days ago          2.229 GB
172.30.66.113:5000/axasgsit/ease-web                         latest                 c9beaffffbb1        9 days ago          1.125 GB
701211757981.dkr.ecr.ap-southeast-1.amazonaws.com/ease-web   v1.18.1.1              c9beaffffbb1        9 days ago          1.125 GB
[root@vm-OpenShift-POC-1 ~]# oc adm drain vm-openshift-poc-1 --force=true --d   elete-local-data=true --ignore-daemonsets=true
node "vm-openshift-poc-1" already cordoned
node "vm-openshift-poc-1" drained
[root@vm-OpenShift-POC-1 ~]#
