login as: root
root@192.168.225.113's password:
Last login: Tue Jun 18 19:08:59 2019 from lb.ocp.eabdc
[root@lb ~]# yum --showduplicates list atomic-openshift-utils
Loaded plugins: product-id, search-disabled-repos, subscription-manager
fast                                                     | 2.9 kB     00:00
file:///repos/ose39/content/dist/rhel/server/7/7Server/x86_64/ose/3.9/os/repodat                                                                             a/repomd.xml: [Errno 14] curl#37 - "Couldn't open file /repos/ose39/content/dist                                                                             /rhel/server/7/7Server/x86_64/ose/3.9/os/repodata/repomd.xml"
Trying other mirror.
Installed Packages
atomic-openshift-utils.noarch         3.9.14-1.git.3.c62bc34.el7         @ose3.9
Available Packages
atomic-openshift-utils.noarch         3.9.14-1.git.0.ca2cfc3.el7         ose3.9
atomic-openshift-utils.noarch         3.9.14-1.git.3.c62bc34.el7         ose3.9
[root@lb ~]# cd play*
[root@lb playbook]# ls
addnodes.sh         files      openshift-nodes.yaml  README.md          vars
componseHosts.yaml  hostinv    postinstall.yaml      restartmasters.sh
createuser.yaml     inventory  preinstall.yaml       restartnodes.sh
[root@lb playbook]# ./addnodes.sh

PLAY [Populate config host groups] *********************************************

TASK [Load group name mapping variables] ***************************************
ok: [localhost]

TASK [Evaluate groups - g_etcd_hosts or g_new_etcd_hosts required] *************
skipping: [localhost]

TASK [Evaluate groups - g_master_hosts or g_new_master_hosts required] *********
skipping: [localhost]

TASK [Evaluate groups - g_node_hosts or g_new_node_hosts required] *************
skipping: [localhost]

TASK [Evaluate groups - g_lb_hosts required] ***********************************
skipping: [localhost]

TASK [Evaluate groups - g_nfs_hosts required] **********************************
skipping: [localhost]

TASK [Evaluate groups - g_nfs_hosts is single host] ****************************
skipping: [localhost]

TASK [Evaluate groups - g_glusterfs_hosts required] ****************************
skipping: [localhost]

TASK [Evaluate groups - Fail if no etcd hosts group is defined] ****************
skipping: [localhost]

TASK [Evaluate oo_all_hosts] ***************************************************
ok: [localhost] => (item=mnode1.ocp.eabdc)
ok: [localhost] => (item=mnode2.ocp.eabdc)
ok: [localhost] => (item=mnode3.ocp.eabdc)
ok: [localhost] => (item=infranode1.ocp.eabdc)
ok: [localhost] => (item=infranode2.ocp.eabdc)
ok: [localhost] => (item=infranode3.ocp.eabdc)
ok: [localhost] => (item=appnode1.ocp.eabdc)
ok: [localhost] => (item=appnode2.ocp.eabdc)
ok: [localhost] => (item=appnode3.ocp.eabdc)
ok: [localhost] => (item=lb.ocp.eabdc)
ok: [localhost] => (item=appnode4.ocp.eabdc)

TASK [Evaluate oo_masters] *****************************************************
ok: [localhost] => (item=mnode1.ocp.eabdc)
ok: [localhost] => (item=mnode2.ocp.eabdc)
ok: [localhost] => (item=mnode3.ocp.eabdc)

TASK [Evaluate oo_first_master] ************************************************
ok: [localhost]

TASK [Evaluate oo_new_etcd_to_config] ******************************************

TASK [Evaluate oo_masters_to_config] *******************************************
ok: [localhost] => (item=mnode1.ocp.eabdc)
ok: [localhost] => (item=mnode2.ocp.eabdc)
ok: [localhost] => (item=mnode3.ocp.eabdc)

TASK [Evaluate oo_etcd_to_config] **********************************************
ok: [localhost] => (item=mnode1.ocp.eabdc)
ok: [localhost] => (item=mnode2.ocp.eabdc)
ok: [localhost] => (item=mnode3.ocp.eabdc)

TASK [Evaluate oo_first_etcd] **************************************************
ok: [localhost]

TASK [Evaluate oo_etcd_hosts_to_upgrade] ***************************************
ok: [localhost] => (item=mnode1.ocp.eabdc)
ok: [localhost] => (item=mnode2.ocp.eabdc)
ok: [localhost] => (item=mnode3.ocp.eabdc)

TASK [Evaluate oo_etcd_hosts_to_backup] ****************************************
ok: [localhost] => (item=mnode1.ocp.eabdc)
ok: [localhost] => (item=mnode2.ocp.eabdc)
ok: [localhost] => (item=mnode3.ocp.eabdc)

TASK [Evaluate oo_nodes_to_config] *********************************************
ok: [localhost] => (item=appnode4.ocp.eabdc)

TASK [Add master to oo_nodes_to_config] ****************************************
skipping: [localhost] => (item=mnode1.ocp.eabdc)
skipping: [localhost] => (item=mnode2.ocp.eabdc)
skipping: [localhost] => (item=mnode3.ocp.eabdc)

TASK [Evaluate oo_lb_to_config] ************************************************
ok: [localhost] => (item=lb.ocp.eabdc)

TASK [Evaluate oo_nfs_to_config] ***********************************************
ok: [localhost] => (item=lb.ocp.eabdc)

TASK [Evaluate oo_glusterfs_to_config] *****************************************

TASK [Evaluate oo_etcd_to_migrate] *********************************************
ok: [localhost] => (item=mnode1.ocp.eabdc)
ok: [localhost] => (item=mnode2.ocp.eabdc)
ok: [localhost] => (item=mnode3.ocp.eabdc)

PLAY [Ensure there are new_nodes] **********************************************

TASK [fail] ********************************************************************
skipping: [localhost]

TASK [fail] ********************************************************************
skipping: [localhost]

PLAY [Initialization Checkpoint Start] *****************************************

TASK [Set install initialization 'In Progress'] ********************************
ok: [mnode1.ocp.eabdc]

PLAY [Populate config host groups] *********************************************

TASK [Load group name mapping variables] ***************************************
ok: [localhost]

TASK [Evaluate groups - g_etcd_hosts or g_new_etcd_hosts required] *************
skipping: [localhost]

TASK [Evaluate groups - g_master_hosts or g_new_master_hosts required] *********
skipping: [localhost]

TASK [Evaluate groups - g_node_hosts or g_new_node_hosts required] *************
skipping: [localhost]

TASK [Evaluate groups - g_lb_hosts required] ***********************************
skipping: [localhost]

TASK [Evaluate groups - g_nfs_hosts required] **********************************
skipping: [localhost]

TASK [Evaluate groups - g_nfs_hosts is single host] ****************************
skipping: [localhost]

TASK [Evaluate groups - g_glusterfs_hosts required] ****************************
skipping: [localhost]

TASK [Evaluate groups - Fail if no etcd hosts group is defined] ****************
skipping: [localhost]

TASK [Evaluate oo_all_hosts] ***************************************************
ok: [localhost] => (item=mnode1.ocp.eabdc)
ok: [localhost] => (item=mnode2.ocp.eabdc)
ok: [localhost] => (item=mnode3.ocp.eabdc)
ok: [localhost] => (item=infranode1.ocp.eabdc)
ok: [localhost] => (item=infranode2.ocp.eabdc)
ok: [localhost] => (item=infranode3.ocp.eabdc)
ok: [localhost] => (item=appnode1.ocp.eabdc)
ok: [localhost] => (item=appnode2.ocp.eabdc)
ok: [localhost] => (item=appnode3.ocp.eabdc)
ok: [localhost] => (item=lb.ocp.eabdc)
ok: [localhost] => (item=appnode4.ocp.eabdc)

TASK [Evaluate oo_masters] *****************************************************
ok: [localhost] => (item=mnode1.ocp.eabdc)
ok: [localhost] => (item=mnode2.ocp.eabdc)
ok: [localhost] => (item=mnode3.ocp.eabdc)

TASK [Evaluate oo_first_master] ************************************************
ok: [localhost]

TASK [Evaluate oo_new_etcd_to_config] ******************************************

TASK [Evaluate oo_masters_to_config] *******************************************
ok: [localhost] => (item=mnode1.ocp.eabdc)
ok: [localhost] => (item=mnode2.ocp.eabdc)
ok: [localhost] => (item=mnode3.ocp.eabdc)

TASK [Evaluate oo_etcd_to_config] **********************************************
ok: [localhost] => (item=mnode1.ocp.eabdc)
ok: [localhost] => (item=mnode2.ocp.eabdc)
ok: [localhost] => (item=mnode3.ocp.eabdc)

TASK [Evaluate oo_first_etcd] **************************************************
ok: [localhost]

TASK [Evaluate oo_etcd_hosts_to_upgrade] ***************************************
ok: [localhost] => (item=mnode1.ocp.eabdc)
ok: [localhost] => (item=mnode2.ocp.eabdc)
ok: [localhost] => (item=mnode3.ocp.eabdc)

TASK [Evaluate oo_etcd_hosts_to_backup] ****************************************
ok: [localhost] => (item=mnode1.ocp.eabdc)
ok: [localhost] => (item=mnode2.ocp.eabdc)
ok: [localhost] => (item=mnode3.ocp.eabdc)

TASK [Evaluate oo_nodes_to_config] *********************************************
ok: [localhost] => (item=appnode4.ocp.eabdc)

TASK [Add master to oo_nodes_to_config] ****************************************
skipping: [localhost] => (item=mnode1.ocp.eabdc)
skipping: [localhost] => (item=mnode2.ocp.eabdc)
skipping: [localhost] => (item=mnode3.ocp.eabdc)

TASK [Evaluate oo_lb_to_config] ************************************************
ok: [localhost] => (item=lb.ocp.eabdc)

TASK [Evaluate oo_nfs_to_config] ***********************************************
ok: [localhost] => (item=lb.ocp.eabdc)

TASK [Evaluate oo_glusterfs_to_config] *****************************************

TASK [Evaluate oo_etcd_to_migrate] *********************************************
ok: [localhost] => (item=mnode1.ocp.eabdc)
ok: [localhost] => (item=mnode2.ocp.eabdc)
ok: [localhost] => (item=mnode3.ocp.eabdc)

PLAY [Ensure that all non-node hosts are accessible] ***************************

TASK [Gathering Facts] *********************************************************
ok: [lb.ocp.eabdc]
ok: [mnode3.ocp.eabdc]
ok: [mnode2.ocp.eabdc]
ok: [mnode1.ocp.eabdc]

PLAY [Initialize basic host facts] *********************************************

TASK [Gathering Facts] *********************************************************
ok: [lb.ocp.eabdc]
ok: [mnode3.ocp.eabdc]
ok: [mnode1.ocp.eabdc]
ok: [mnode2.ocp.eabdc]
ok: [appnode4.ocp.eabdc]

TASK [openshift_sanitize_inventory : include_tasks] ****************************
included: /usr/share/ansible/openshift-ansible/roles/openshift_sanitize_inventor                                                                             y/tasks/deprecations.yml for mnode1.ocp.eabdc, mnode2.ocp.eabdc, mnode3.ocp.eabd                                                                             c, lb.ocp.eabdc, appnode4.ocp.eabdc

TASK [openshift_sanitize_inventory : Check for usage of deprecated variables] **                                                                             *
ok: [mnode2.ocp.eabdc]
ok: [mnode3.ocp.eabdc]
ok: [mnode1.ocp.eabdc]
ok: [lb.ocp.eabdc]
ok: [appnode4.ocp.eabdc]

TASK [openshift_sanitize_inventory : debug] ************************************
skipping: [mnode1.ocp.eabdc]
skipping: [mnode2.ocp.eabdc]
skipping: [mnode3.ocp.eabdc]
skipping: [lb.ocp.eabdc]
skipping: [appnode4.ocp.eabdc]

TASK [openshift_sanitize_inventory : set_stats] ********************************
skipping: [mnode1.ocp.eabdc]
skipping: [mnode2.ocp.eabdc]
skipping: [mnode3.ocp.eabdc]
skipping: [lb.ocp.eabdc]
skipping: [appnode4.ocp.eabdc]

TASK [openshift_sanitize_inventory : Assign deprecated variables to correct coun                                                                             terparts] ***
included: /usr/share/ansible/openshift-ansible/roles/openshift_sanitize_inventor                                                                             y/tasks/__deprecations_logging.yml for mnode1.ocp.eabdc, mnode2.ocp.eabdc, mnode                                                                             3.ocp.eabdc, lb.ocp.eabdc, appnode4.ocp.eabdc
included: /usr/share/ansible/openshift-ansible/roles/openshift_sanitize_inventor                                                                             y/tasks/__deprecations_metrics.yml for mnode1.ocp.eabdc, mnode2.ocp.eabdc, mnode                                                                             3.ocp.eabdc, lb.ocp.eabdc, appnode4.ocp.eabdc

TASK [openshift_sanitize_inventory : conditional_set_fact] *********************
ok: [mnode1.ocp.eabdc]
ok: [mnode3.ocp.eabdc]
ok: [mnode2.ocp.eabdc]
ok: [lb.ocp.eabdc]
ok: [appnode4.ocp.eabdc]

TASK [openshift_sanitize_inventory : set_fact] *********************************
ok: [mnode1.ocp.eabdc]
ok: [mnode2.ocp.eabdc]
ok: [mnode3.ocp.eabdc]
ok: [lb.ocp.eabdc]
ok: [appnode4.ocp.eabdc]

TASK [openshift_sanitize_inventory : conditional_set_fact] *********************
ok: [mnode1.ocp.eabdc]
ok: [mnode2.ocp.eabdc]
ok: [mnode3.ocp.eabdc]
ok: [lb.ocp.eabdc]
ok: [appnode4.ocp.eabdc]

TASK [openshift_sanitize_inventory : Standardize on latest variable names] *****
ok: [mnode1.ocp.eabdc]
ok: [mnode2.ocp.eabdc]
ok: [mnode3.ocp.eabdc]
ok: [lb.ocp.eabdc]
ok: [appnode4.ocp.eabdc]

TASK [openshift_sanitize_inventory : Normalize openshift_release] **************
skipping: [mnode1.ocp.eabdc]
skipping: [mnode2.ocp.eabdc]
skipping: [mnode3.ocp.eabdc]
skipping: [lb.ocp.eabdc]
skipping: [appnode4.ocp.eabdc]

TASK [openshift_sanitize_inventory : Abort when openshift_release is invalid] **                                                                             *
skipping: [mnode1.ocp.eabdc]
skipping: [mnode2.ocp.eabdc]
skipping: [mnode3.ocp.eabdc]
skipping: [lb.ocp.eabdc]
skipping: [appnode4.ocp.eabdc]

TASK [openshift_sanitize_inventory : include_tasks] ****************************
included: /usr/share/ansible/openshift-ansible/roles/openshift_sanitize_inventor                                                                             y/tasks/unsupported.yml for mnode1.ocp.eabdc, mnode2.ocp.eabdc, mnode3.ocp.eabdc                                                                             , lb.ocp.eabdc, appnode4.ocp.eabdc

TASK [openshift_sanitize_inventory : Ensure that openshift_use_dnsmasq is true]                                                                              ***
skipping: [mnode1.ocp.eabdc]
skipping: [mnode2.ocp.eabdc]
skipping: [mnode3.ocp.eabdc]
skipping: [lb.ocp.eabdc]
skipping: [appnode4.ocp.eabdc]

TASK [openshift_sanitize_inventory : Ensure that openshift_node_dnsmasq_install_                                                                             network_manager_hook is true] ***
skipping: [mnode1.ocp.eabdc]
skipping: [mnode2.ocp.eabdc]
skipping: [mnode3.ocp.eabdc]
skipping: [lb.ocp.eabdc]
skipping: [appnode4.ocp.eabdc]

TASK [openshift_sanitize_inventory : set_fact] *********************************
skipping: [mnode1.ocp.eabdc] => (item=openshift_logging_storage_kind)
skipping: [mnode2.ocp.eabdc] => (item=openshift_logging_storage_kind)
skipping: [mnode3.ocp.eabdc] => (item=openshift_logging_storage_kind)
skipping: [lb.ocp.eabdc] => (item=openshift_logging_storage_kind)
skipping: [appnode4.ocp.eabdc] => (item=openshift_logging_storage_kind)

TASK [openshift_sanitize_inventory : Ensure that dynamic provisioning is set if                                                                              using dynamic storage] ***
skipping: [mnode1.ocp.eabdc]
skipping: [mnode2.ocp.eabdc]
skipping: [mnode3.ocp.eabdc]
skipping: [lb.ocp.eabdc]
skipping: [appnode4.ocp.eabdc]

TASK [openshift_sanitize_inventory : Ensure the hosted registry's GlusterFS stor                                                                             age is configured correctly] ***
skipping: [mnode1.ocp.eabdc]
skipping: [mnode2.ocp.eabdc]
skipping: [mnode3.ocp.eabdc]
skipping: [lb.ocp.eabdc]
skipping: [appnode4.ocp.eabdc]

TASK [openshift_sanitize_inventory : Ensure the hosted registry's GlusterFS stor                                                                             age is configured correctly] ***
skipping: [mnode1.ocp.eabdc]
skipping: [mnode2.ocp.eabdc]
skipping: [mnode3.ocp.eabdc]
skipping: [lb.ocp.eabdc]
skipping: [appnode4.ocp.eabdc]

TASK [openshift_sanitize_inventory : Ensure clusterid is set along with the clou                                                                             dprovider] ***
skipping: [mnode1.ocp.eabdc]
skipping: [mnode2.ocp.eabdc]
skipping: [mnode3.ocp.eabdc]
skipping: [lb.ocp.eabdc]
skipping: [appnode4.ocp.eabdc]

TASK [openshift_sanitize_inventory : Ensure ansible_service_broker_remove and an                                                                             sible_service_broker_install are mutually exclusive] ***
skipping: [mnode1.ocp.eabdc]
skipping: [mnode2.ocp.eabdc]
skipping: [mnode3.ocp.eabdc]
skipping: [lb.ocp.eabdc]
skipping: [appnode4.ocp.eabdc]

TASK [openshift_sanitize_inventory : Ensure template_service_broker_remove and t                                                                             emplate_service_broker_install are mutually exclusive] ***
skipping: [mnode1.ocp.eabdc]
skipping: [mnode2.ocp.eabdc]
skipping: [mnode3.ocp.eabdc]
skipping: [lb.ocp.eabdc]
skipping: [appnode4.ocp.eabdc]

TASK [openshift_sanitize_inventory : Ensure that all requires vsphere configurat                                                                             ion variables are set] ***
skipping: [mnode1.ocp.eabdc]
skipping: [mnode2.ocp.eabdc]
skipping: [mnode3.ocp.eabdc]
skipping: [lb.ocp.eabdc]
skipping: [appnode4.ocp.eabdc]

TASK [openshift_sanitize_inventory : Ensure removed web console extension variab                                                                             les are not set] ***
skipping: [mnode1.ocp.eabdc]
skipping: [mnode2.ocp.eabdc]
skipping: [mnode3.ocp.eabdc]
skipping: [lb.ocp.eabdc]
skipping: [appnode4.ocp.eabdc]

TASK [openshift_sanitize_inventory : Ensure that web console port matches API se                                                                             rver port] ***
skipping: [mnode1.ocp.eabdc]
skipping: [mnode2.ocp.eabdc]
skipping: [mnode3.ocp.eabdc]
skipping: [lb.ocp.eabdc]
skipping: [appnode4.ocp.eabdc]

TASK [Detecting Operating System from ostree_booted] ***************************
ok: [appnode4.ocp.eabdc]
ok: [mnode3.ocp.eabdc]
ok: [mnode1.ocp.eabdc]
ok: [mnode2.ocp.eabdc]
ok: [lb.ocp.eabdc]

TASK [set openshift_deployment_type if unset] **********************************
skipping: [mnode1.ocp.eabdc]
skipping: [mnode2.ocp.eabdc]
skipping: [mnode3.ocp.eabdc]
skipping: [lb.ocp.eabdc]
skipping: [appnode4.ocp.eabdc]

TASK [initialize_facts set fact openshift_is_atomic and openshift_is_containeriz                                                                             ed] ***
ok: [mnode1.ocp.eabdc]
ok: [mnode2.ocp.eabdc]
ok: [mnode3.ocp.eabdc]
ok: [lb.ocp.eabdc]
ok: [appnode4.ocp.eabdc]

TASK [Set use_crio to True if cri-o rpm is requested] **************************
skipping: [mnode1.ocp.eabdc]
skipping: [mnode2.ocp.eabdc]
skipping: [mnode3.ocp.eabdc]
skipping: [lb.ocp.eabdc]
skipping: [appnode4.ocp.eabdc]

TASK [Determine Atomic Host Docker Version] ************************************
skipping: [mnode1.ocp.eabdc]
skipping: [mnode2.ocp.eabdc]
skipping: [mnode3.ocp.eabdc]
skipping: [lb.ocp.eabdc]
skipping: [appnode4.ocp.eabdc]

TASK [assert atomic host docker version is 1.12 or later] **********************
skipping: [mnode1.ocp.eabdc]
skipping: [mnode2.ocp.eabdc]
skipping: [mnode3.ocp.eabdc]
skipping: [lb.ocp.eabdc]
skipping: [appnode4.ocp.eabdc]

PLAY [Initialize special first-master variables] *******************************

TASK [Gathering Facts] *********************************************************
ok: [mnode1.ocp.eabdc]

TASK [stat] ********************************************************************
skipping: [mnode1.ocp.eabdc]

TASK [slurp] *******************************************************************
skipping: [mnode1.ocp.eabdc]

TASK [set_fact] ****************************************************************
skipping: [mnode1.ocp.eabdc]

TASK [set_fact] ****************************************************************
ok: [mnode1.ocp.eabdc]

PLAY [Disable web console if required] *****************************************

TASK [set_fact] ****************************************************************
skipping: [mnode1.ocp.eabdc]
skipping: [mnode2.ocp.eabdc]
skipping: [mnode3.ocp.eabdc]

PLAY [Install packages necessary for installer] ********************************

TASK [Gathering Facts] *********************************************************
ok: [appnode4.ocp.eabdc]

TASK [Ensure openshift-ansible installer package deps are installed] ***********
ok: [appnode4.ocp.eabdc] => (item=iproute)
ok: [appnode4.ocp.eabdc] => (item=dbus-python)
ok: [appnode4.ocp.eabdc] => (item=PyYAML)
ok: [appnode4.ocp.eabdc] => (item=python-ipaddress)
ok: [appnode4.ocp.eabdc] => (item=yum-utils)

TASK [Ensure various deps for running system containers are installed] *********
skipping: [appnode4.ocp.eabdc] => (item=atomic)
skipping: [appnode4.ocp.eabdc] => (item=ostree)
skipping: [appnode4.ocp.eabdc] => (item=runc)

PLAY [Initialize cluster facts] ************************************************

TASK [Gathering Facts] *********************************************************
ok: [appnode4.ocp.eabdc]
ok: [mnode3.ocp.eabdc]
ok: [lb.ocp.eabdc]
ok: [mnode2.ocp.eabdc]
ok: [mnode1.ocp.eabdc]

TASK [Gather Cluster facts] ****************************************************
ok: [lb.ocp.eabdc]
ok: [appnode4.ocp.eabdc]
ok: [mnode3.ocp.eabdc]
ok: [mnode2.ocp.eabdc]
ok: [mnode1.ocp.eabdc]

TASK [Set fact of no_proxy_internal_hostnames] *********************************
skipping: [mnode1.ocp.eabdc]
skipping: [mnode2.ocp.eabdc]
skipping: [mnode3.ocp.eabdc]
skipping: [lb.ocp.eabdc]
skipping: [appnode4.ocp.eabdc]

TASK [Initialize openshift.node.sdn_mtu] ***************************************
ok: [lb.ocp.eabdc]
ok: [appnode4.ocp.eabdc]
ok: [mnode3.ocp.eabdc]
ok: [mnode2.ocp.eabdc]
ok: [mnode1.ocp.eabdc]

PLAY [Determine openshift_version to configure on first master] ****************

TASK [Gathering Facts] *********************************************************
skipping: [mnode1.ocp.eabdc]

TASK [include_role] ************************************************************
skipping: [mnode1.ocp.eabdc]

TASK [debug] *******************************************************************
skipping: [mnode1.ocp.eabdc]

PLAY [Set openshift_version for etcd, node, and master hosts] ******************
skipping: no hosts matched

PLAY [Ensure the requested version packages are available.] ********************
skipping: no hosts matched

PLAY [Verify Requirements] *****************************************************

TASK [Gathering Facts] *********************************************************
ok: [mnode1.ocp.eabdc]

TASK [Run variable sanity checks] **********************************************
ok: [mnode1.ocp.eabdc]

PLAY [Initialization Checkpoint End] *******************************************

TASK [Set install initialization 'Complete'] ***********************************
ok: [mnode1.ocp.eabdc]

PLAY [Validate node hostnames] *************************************************

TASK [Gathering Facts] *********************************************************
ok: [appnode4.ocp.eabdc]

TASK [Query DNS for IP address of appnode4] ************************************
ok: [appnode4.ocp.eabdc]

TASK [Validate openshift_hostname when defined] ********************************
skipping: [appnode4.ocp.eabdc]

TASK [Validate openshift_ip exists on node when defined] ***********************
skipping: [appnode4.ocp.eabdc]

PLAY [Setup yum repositories for all hosts] ************************************

TASK [rhel_subscribe : fail] ***************************************************
skipping: [appnode4.ocp.eabdc]

TASK [rhel_subscribe : Install Red Hat Subscription manager] *******************
skipping: [appnode4.ocp.eabdc]

TASK [rhel_subscribe : Is host already registered?] ****************************
skipping: [appnode4.ocp.eabdc]

TASK [rhel_subscribe : Register host] ******************************************
skipping: [appnode4.ocp.eabdc]

TASK [rhel_subscribe : fail] ***************************************************
skipping: [appnode4.ocp.eabdc]

TASK [rhel_subscribe : Determine if OpenShift Pool Already Attached] ***********
skipping: [appnode4.ocp.eabdc]

TASK [rhel_subscribe : Attach to OpenShift Pool] *******************************
skipping: [appnode4.ocp.eabdc]

TASK [rhel_subscribe : include_tasks] ******************************************
skipping: [appnode4.ocp.eabdc]

TASK [openshift_repos : openshift_repos detect ostree] *************************
ok: [appnode4.ocp.eabdc]

TASK [openshift_repos : Ensure libselinux-python is installed] *****************
ok: [appnode4.ocp.eabdc]

TASK [openshift_repos : Remove openshift_additional.repo file] *****************
ok: [appnode4.ocp.eabdc]

TASK [openshift_repos : Create any additional repos that are defined] **********

TASK [openshift_repos : include_tasks] *****************************************
skipping: [appnode4.ocp.eabdc]

TASK [openshift_repos : include_tasks] *****************************************
skipping: [appnode4.ocp.eabdc]

TASK [openshift_repos : Ensure clean repo cache in the event repos have been cha                                                                             nged manually] ***
changed: [appnode4.ocp.eabdc] => {
    "msg": "First run of openshift_repos"
}

TASK [openshift_repos : Record that openshift_repos already ran] ***************
ok: [appnode4.ocp.eabdc]

RUNNING HANDLER [openshift_repos : refresh cache] ******************************
changed: [appnode4.ocp.eabdc]

PLAY [Configure os_firewall] ***************************************************

TASK [Gathering Facts] *********************************************************
ok: [appnode4.ocp.eabdc]

TASK [os_firewall : Detecting Atomic Host Operating System] ********************
ok: [appnode4.ocp.eabdc]

TASK [os_firewall : Set fact r_os_firewall_is_atomic] **************************
ok: [appnode4.ocp.eabdc]

TASK [os_firewall : include_tasks] *********************************************
skipping: [appnode4.ocp.eabdc]

TASK [os_firewall : include_tasks] *********************************************
included: /usr/share/ansible/openshift-ansible/roles/os_firewall/tasks/iptables.                                                                             yml for appnode4.ocp.eabdc

TASK [os_firewall : Ensure firewalld service is not enabled] *******************
ok: [appnode4.ocp.eabdc]

TASK [os_firewall : Wait 10 seconds after disabling firewalld] *****************
skipping: [appnode4.ocp.eabdc]

TASK [os_firewall : Install iptables packages] *********************************
ok: [appnode4.ocp.eabdc] => (item=iptables)
ok: [appnode4.ocp.eabdc] => (item=iptables-services)

TASK [os_firewall : Start and enable iptables service] *************************
ok: [appnode4.ocp.eabdc -> appnode4.ocp.eabdc] => (item=appnode4.ocp.eabdc)

TASK [os_firewall : need to pause here, otherwise the iptables service starting                                                                              can sometimes cause ssh to fail] ***
skipping: [appnode4.ocp.eabdc]

PLAY [create oo_hosts_containerized_managed_true host group] *******************

TASK [Gathering Facts] *********************************************************
ok: [mnode3.ocp.eabdc]
ok: [mnode2.ocp.eabdc]
ok: [mnode1.ocp.eabdc]
ok: [infranode1.ocp.eabdc]
ok: [infranode2.ocp.eabdc]
ok: [appnode1.ocp.eabdc]
ok: [lb.ocp.eabdc]
ok: [infranode3.ocp.eabdc]
ok: [appnode2.ocp.eabdc]
ok: [appnode3.ocp.eabdc]

TASK [group_by] ****************************************************************
ok: [mnode1.ocp.eabdc]
ok: [mnode2.ocp.eabdc]
ok: [mnode3.ocp.eabdc]
ok: [infranode1.ocp.eabdc]
ok: [infranode2.ocp.eabdc]
ok: [infranode3.ocp.eabdc]
ok: [appnode1.ocp.eabdc]
ok: [appnode2.ocp.eabdc]
ok: [appnode3.ocp.eabdc]
ok: [lb.ocp.eabdc]

PLAY [oo_nodes_to_config] ******************************************************

TASK [Gathering Facts] *********************************************************
ok: [appnode4.ocp.eabdc]

TASK [container_runtime : Setup the docker-storage for overlay] ****************
skipping: [appnode4.ocp.eabdc]

PLAY [create oo_hosts_containerized_managed_true host group] *******************

TASK [Gathering Facts] *********************************************************
ok: [mnode3.ocp.eabdc]
ok: [mnode2.ocp.eabdc]
ok: [infranode1.ocp.eabdc]
ok: [infranode2.ocp.eabdc]
ok: [appnode1.ocp.eabdc]
ok: [infranode3.ocp.eabdc]
ok: [mnode1.ocp.eabdc]
ok: [lb.ocp.eabdc]
ok: [appnode2.ocp.eabdc]
ok: [appnode3.ocp.eabdc]

TASK [group_by] ****************************************************************
ok: [mnode1.ocp.eabdc]
ok: [mnode2.ocp.eabdc]
ok: [mnode3.ocp.eabdc]
ok: [infranode1.ocp.eabdc]
ok: [infranode2.ocp.eabdc]
ok: [infranode3.ocp.eabdc]
ok: [appnode1.ocp.eabdc]
ok: [appnode2.ocp.eabdc]
ok: [appnode3.ocp.eabdc]
ok: [lb.ocp.eabdc]

PLAY [oo_nodes_to_config] ******************************************************

TASK [Gathering Facts] *********************************************************
ok: [appnode4.ocp.eabdc]

TASK [openshift_excluder : Install excluders] **********************************
included: /usr/share/ansible/openshift-ansible/roles/openshift_excluder/tasks/in                                                                             stall.yml for appnode4.ocp.eabdc

TASK [openshift_excluder : Install docker excluder - yum] **********************
ok: [appnode4.ocp.eabdc]

TASK [openshift_excluder : Install docker excluder - dnf] **********************
skipping: [appnode4.ocp.eabdc]

TASK [openshift_excluder : Install openshift excluder - yum] *******************
skipping: [appnode4.ocp.eabdc]

TASK [openshift_excluder : Install openshift excluder - dnf] *******************
skipping: [appnode4.ocp.eabdc]

TASK [openshift_excluder : set_fact] *******************************************
ok: [appnode4.ocp.eabdc]

TASK [openshift_excluder : Enable excluders] ***********************************
included: /usr/share/ansible/openshift-ansible/roles/openshift_excluder/tasks/ex                                                                             clude.yml for appnode4.ocp.eabdc

TASK [openshift_excluder : Check for docker-excluder] **************************
ok: [appnode4.ocp.eabdc]

TASK [openshift_excluder : Enable docker excluder] *****************************
changed: [appnode4.ocp.eabdc]

TASK [openshift_excluder : Check for openshift excluder] ***********************
ok: [appnode4.ocp.eabdc]

TASK [openshift_excluder : Enable openshift excluder] **************************
skipping: [appnode4.ocp.eabdc]

TASK [container_runtime : include_tasks] ***************************************
included: /usr/share/ansible/openshift-ansible/roles/container_runtime/tasks/com                                                                             mon/pre.yml for appnode4.ocp.eabdc

TASK [container_runtime : include_tasks] ***************************************
skipping: [appnode4.ocp.eabdc]

TASK [container_runtime : Add enterprise registry, if necessary] ***************
ok: [appnode4.ocp.eabdc]

TASK [container_runtime : include_tasks] ***************************************
skipping: [appnode4.ocp.eabdc]

TASK [container_runtime : Get current installed Docker version] ****************
ok: [appnode4.ocp.eabdc]

TASK [container_runtime : include_tasks] ***************************************
included: /usr/share/ansible/openshift-ansible/roles/container_runtime/tasks/doc                                                                             ker_sanity.yml for appnode4.ocp.eabdc

TASK [container_runtime : Error out if Docker pre-installed but too old] *******
skipping: [appnode4.ocp.eabdc]

TASK [container_runtime : Error out if requested Docker is too old] ************
skipping: [appnode4.ocp.eabdc]

TASK [container_runtime : Fail if Docker version requested but downgrade is requ                                                                             ired] ***
skipping: [appnode4.ocp.eabdc]

TASK [container_runtime : Error out if attempting to upgrade Docker across the 1                                                                             .10 boundary] ***
skipping: [appnode4.ocp.eabdc]

TASK [container_runtime : Install Docker] **************************************
skipping: [appnode4.ocp.eabdc]

TASK [container_runtime : Ensure docker.service.d directory exists] ************
ok: [appnode4.ocp.eabdc]

TASK [container_runtime : Configure Docker service unit file] ******************
ok: [appnode4.ocp.eabdc]

TASK [container_runtime : stat] ************************************************
ok: [appnode4.ocp.eabdc]

TASK [container_runtime : Set registry params] *********************************
ok: [appnode4.ocp.eabdc] => (item={u'reg_conf_var': u'ADD_REGISTRY', u'reg_flag'                                                                             : u'--add-registry', u'reg_fact_val': [u'registry.access.redhat.com']})
skipping: [appnode4.ocp.eabdc] => (item={u'reg_conf_var': u'BLOCK_REGISTRY', u'r                                                                             eg_flag': u'--block-registry', u'reg_fact_val': []})
skipping: [appnode4.ocp.eabdc] => (item={u'reg_conf_var': u'INSECURE_REGISTRY',                                                                              u'reg_flag': u'--insecure-registry', u'reg_fact_val': []})

TASK [container_runtime : Place additional/blocked/insecure registries in /etc/c                                                                             ontainers/registries.conf] ***
skipping: [appnode4.ocp.eabdc]

TASK [container_runtime : Set Proxy Settings] **********************************
skipping: [appnode4.ocp.eabdc] => (item={u'reg_conf_var': u'HTTP_PROXY', u'reg_f                                                                             act_val': u''})
skipping: [appnode4.ocp.eabdc] => (item={u'reg_conf_var': u'HTTPS_PROXY', u'reg_                                                                             fact_val': u''})
skipping: [appnode4.ocp.eabdc] => (item={u'reg_conf_var': u'NO_PROXY', u'reg_fac                                                                             t_val': u''})

TASK [container_runtime : Set various Docker options] **************************
ok: [appnode4.ocp.eabdc]

TASK [container_runtime : stat] ************************************************
ok: [appnode4.ocp.eabdc]

TASK [container_runtime : Configure Docker Network OPTIONS] ********************
ok: [appnode4.ocp.eabdc]

TASK [container_runtime : Detect if docker is already started] *****************
ok: [appnode4.ocp.eabdc]

TASK [container_runtime : Start the Docker service] ****************************
ok: [appnode4.ocp.eabdc]

TASK [container_runtime : set_fact] ********************************************
ok: [appnode4.ocp.eabdc]

TASK [container_runtime : include_tasks] ***************************************
included: /usr/share/ansible/openshift-ansible/roles/container_runtime/tasks/com                                                                             mon/post.yml for appnode4.ocp.eabdc

TASK [container_runtime : Ensure /var/lib/containers exists] *******************
ok: [appnode4.ocp.eabdc]

TASK [container_runtime : Fix SELinux Permissions on /var/lib/containers] ******
ok: [appnode4.ocp.eabdc]

TASK [container_runtime : include_tasks] ***************************************
included: /usr/share/ansible/openshift-ansible/roles/container_runtime/tasks/reg                                                                             istry_auth.yml for appnode4.ocp.eabdc

TASK [container_runtime : Check for credentials file for registry auth] ********
skipping: [appnode4.ocp.eabdc]

TASK [container_runtime : Create credentials for docker cli registry auth] *****
skipping: [appnode4.ocp.eabdc]

TASK [container_runtime : Create credentials for docker cli registry auth (alter                                                                             native)] ***
skipping: [appnode4.ocp.eabdc]

TASK [container_runtime : stat the docker data dir] ****************************
ok: [appnode4.ocp.eabdc]

TASK [container_runtime : include_tasks] ***************************************
skipping: [appnode4.ocp.eabdc]

TASK [container_runtime : Fail quickly if openshift_docker_options are set] ****
skipping: [appnode4.ocp.eabdc]

TASK [container_runtime : include_tasks] ***************************************
skipping: [appnode4.ocp.eabdc]

TASK [container_runtime : include_tasks] ***************************************
skipping: [appnode4.ocp.eabdc]

TASK [container_runtime : Install Docker so we can use the client] *************
skipping: [appnode4.ocp.eabdc]

TASK [container_runtime : Disable Docker] **************************************
skipping: [appnode4.ocp.eabdc]

TASK [container_runtime : Ensure proxies are in the atomic.conf] ***************
skipping: [appnode4.ocp.eabdc]

TASK [container_runtime : debug] ***********************************************
skipping: [appnode4.ocp.eabdc]

TASK [container_runtime : include_tasks] ***************************************
skipping: [appnode4.ocp.eabdc]

TASK [container_runtime : Pre-pull Container Engine System Container image] ****
skipping: [appnode4.ocp.eabdc]

TASK [container_runtime : Ensure container-engine.service.d directory exists] **                                                                             *
skipping: [appnode4.ocp.eabdc]

TASK [container_runtime : Ensure /etc/docker directory exists] *****************
skipping: [appnode4.ocp.eabdc]

TASK [container_runtime : Install Container Engine System Container] ***********
skipping: [appnode4.ocp.eabdc]

TASK [container_runtime : Configure Container Engine Service File] *************
skipping: [appnode4.ocp.eabdc]

TASK [container_runtime : Configure Container Engine] **************************
skipping: [appnode4.ocp.eabdc]

TASK [container_runtime : Start the Container Engine service] ******************
skipping: [appnode4.ocp.eabdc]

TASK [container_runtime : set_fact] ********************************************
skipping: [appnode4.ocp.eabdc]

TASK [container_runtime : include_tasks] ***************************************
skipping: [appnode4.ocp.eabdc]

TASK [container_runtime : Check we are not using node as a Docker container with                                                                              CRI-O] ***
skipping: [appnode4.ocp.eabdc]

TASK [container_runtime : include_tasks] ***************************************
skipping: [appnode4.ocp.eabdc]

TASK [container_runtime : include_tasks] ***************************************
skipping: [appnode4.ocp.eabdc]

TASK [container_runtime : Check that overlay is in the kernel] *****************
skipping: [appnode4.ocp.eabdc]

TASK [container_runtime : Add overlay to modprobe.d] ***************************
skipping: [appnode4.ocp.eabdc]

TASK [container_runtime : Manually modprobe overlay into the kernel] ***********
skipping: [appnode4.ocp.eabdc]

TASK [container_runtime : Enable and start systemd-modules-load] ***************
skipping: [appnode4.ocp.eabdc]

TASK [container_runtime : Ensure proxies are in the atomic.conf] ***************
skipping: [appnode4.ocp.eabdc]

TASK [container_runtime : debug] ***********************************************
skipping: [appnode4.ocp.eabdc]

TASK [container_runtime : Pre-pull CRI-O System Container image] ***************
skipping: [appnode4.ocp.eabdc]

TASK [container_runtime : Install CRI-O System Container] **********************
skipping: [appnode4.ocp.eabdc]

TASK [container_runtime : Remove CRI-O default configuration files] ************
skipping: [appnode4.ocp.eabdc] => (item=/etc/cni/net.d/200-loopback.conf)
skipping: [appnode4.ocp.eabdc] => (item=/etc/cni/net.d/100-crio-bridge.conf)

TASK [container_runtime : Create the CRI-O configuration] **********************
skipping: [appnode4.ocp.eabdc]

TASK [container_runtime : Ensure CNI configuration directory exists] ***********
skipping: [appnode4.ocp.eabdc]

TASK [container_runtime : Add iptables allow rules] ****************************
skipping: [appnode4.ocp.eabdc] => (item={u'port': u'10010/tcp', u'service': u'cr                                                                             io'})

TASK [container_runtime : Remove iptables rules] *******************************

TASK [container_runtime : Add firewalld allow rules] ***************************
skipping: [appnode4.ocp.eabdc] => (item={u'port': u'10010/tcp', u'service': u'cr                                                                             io'})

TASK [container_runtime : Remove firewalld allow rules] ************************

TASK [container_runtime : Configure the CNI network] ***************************
skipping: [appnode4.ocp.eabdc]

TASK [container_runtime : Create /etc/sysconfig/crio-storage] ******************
skipping: [appnode4.ocp.eabdc]

TASK [container_runtime : Create /etc/sysconfig/crio-network] ******************
skipping: [appnode4.ocp.eabdc]

TASK [container_runtime : Start the CRI-O service] *****************************
skipping: [appnode4.ocp.eabdc]

TASK [container_runtime : include_tasks] ***************************************
skipping: [appnode4.ocp.eabdc]

TASK [container_runtime : Fail if Atomic Host since this is an rpm request] ****
skipping: [appnode4.ocp.eabdc]

TASK [container_runtime : include_tasks] ***************************************
skipping: [appnode4.ocp.eabdc]

TASK [container_runtime : Check that overlay is in the kernel] *****************
skipping: [appnode4.ocp.eabdc]

TASK [container_runtime : Add overlay to modprobe.d] ***************************
skipping: [appnode4.ocp.eabdc]

TASK [container_runtime : Manually modprobe overlay into the kernel] ***********
skipping: [appnode4.ocp.eabdc]

TASK [container_runtime : Enable and start systemd-modules-load] ***************
skipping: [appnode4.ocp.eabdc]

TASK [container_runtime : Install cri-o] ***************************************
skipping: [appnode4.ocp.eabdc]

TASK [container_runtime : Remove CRI-O default configuration files] ************
skipping: [appnode4.ocp.eabdc] => (item=/etc/cni/net.d/200-loopback.conf)
skipping: [appnode4.ocp.eabdc] => (item=/etc/cni/net.d/100-crio-bridge.conf)

TASK [container_runtime : Create the CRI-O configuration] **********************
skipping: [appnode4.ocp.eabdc]

TASK [container_runtime : Ensure CNI configuration directory exists] ***********
skipping: [appnode4.ocp.eabdc]

TASK [container_runtime : Add iptables allow rules] ****************************
skipping: [appnode4.ocp.eabdc] => (item={u'port': u'10010/tcp', u'service': u'cr                                                                             io'})

TASK [container_runtime : Remove iptables rules] *******************************

TASK [container_runtime : Add firewalld allow rules] ***************************
skipping: [appnode4.ocp.eabdc] => (item={u'port': u'10010/tcp', u'service': u'cr                                                                             io'})

TASK [container_runtime : Remove firewalld allow rules] ************************

TASK [container_runtime : Configure the CNI network] ***************************
skipping: [appnode4.ocp.eabdc]

TASK [container_runtime : Create /etc/sysconfig/crio-network] ******************
skipping: [appnode4.ocp.eabdc]

TASK [container_runtime : Start the CRI-O service] *****************************
skipping: [appnode4.ocp.eabdc]

TASK [container_runtime : include_tasks] ***************************************
skipping: [appnode4.ocp.eabdc]

PLAY [Determine openshift_version to configure on first master] ****************

TASK [Gathering Facts] *********************************************************
ok: [mnode1.ocp.eabdc]

TASK [include_role] ************************************************************

TASK [openshift_version : Use openshift.common.version fact as version to config                                                                             ure if already installed] ***
ok: [mnode1.ocp.eabdc]

TASK [openshift_version : include_tasks] ***************************************
included: /usr/share/ansible/openshift-ansible/roles/openshift_version/tasks/fir                                                                             st_master_rpm_version.yml for mnode1.ocp.eabdc

TASK [openshift_version : Set rpm version to configure if openshift_pkg_version                                                                              specified] ***
skipping: [mnode1.ocp.eabdc]

TASK [openshift_version : Set openshift_version for rpm installation] **********
included: /usr/share/ansible/openshift-ansible/roles/openshift_version/tasks/che                                                                             ck_available_rpms.yml for mnode1.ocp.eabdc

TASK [openshift_version : Get available atomic-openshift version] **************
ok: [mnode1.ocp.eabdc]

TASK [openshift_version : fail] ************************************************
skipping: [mnode1.ocp.eabdc]

TASK [openshift_version : set_fact] ********************************************
skipping: [mnode1.ocp.eabdc]

TASK [openshift_version : debug] ***********************************************
skipping: [mnode1.ocp.eabdc]

TASK [openshift_version : set_fact] ********************************************
skipping: [mnode1.ocp.eabdc]

TASK [openshift_version : debug] ***********************************************
skipping: [mnode1.ocp.eabdc]

TASK [openshift_version : set_fact] ********************************************
skipping: [mnode1.ocp.eabdc]

TASK [openshift_version : debug] ***********************************************
ok: [mnode1.ocp.eabdc] => {
    "openshift_release": "VARIABLE IS NOT DEFINED!"
}

TASK [openshift_version : debug] ***********************************************
ok: [mnode1.ocp.eabdc] => {
    "openshift_image_tag": "v3.9.15"
}

TASK [openshift_version : debug] ***********************************************
ok: [mnode1.ocp.eabdc] => {
    "openshift_pkg_version": "-3.9.14"
}

TASK [openshift_version : debug] ***********************************************
ok: [mnode1.ocp.eabdc] => {
    "openshift_version": "3.9.25"
}

TASK [debug] *******************************************************************
ok: [mnode1.ocp.eabdc] => {
    "msg": "openshift_pkg_version set to -3.9.14"
}

PLAY [Set openshift_version for etcd, node, and master hosts] ******************

TASK [Gathering Facts] *********************************************************
ok: [appnode4.ocp.eabdc]

TASK [set_fact] ****************************************************************
ok: [appnode4.ocp.eabdc]

PLAY [Ensure the requested version packages are available.] ********************

TASK [Gathering Facts] *********************************************************
ok: [appnode4.ocp.eabdc]

TASK [include_role] ************************************************************

TASK [openshift_version : Check openshift_version for rpm installation] ********
included: /usr/share/ansible/openshift-ansible/roles/openshift_version/tasks/che                                                                             ck_available_rpms.yml for appnode4.ocp.eabdc

TASK [openshift_version : Get available atomic-openshift version] **************
ok: [appnode4.ocp.eabdc]

TASK [openshift_version : fail] ************************************************
skipping: [appnode4.ocp.eabdc]

TASK [openshift_version : Fail if rpm version and docker image version are diffe                                                                             rent] ***
fatal: [appnode4.ocp.eabdc]: FAILED! => {"changed": false, "failed": true, "msg"                                                                             : "OCP rpm version 3.9.78 is different from OCP image version 3.9.25"}
        to retry, use: --limit @/usr/share/ansible/openshift-ansible/playbooks/o                                                                             penshift-node/scaleup.retry

PLAY RECAP *********************************************************************
appnode1.ocp.eabdc         : ok=4    changed=0    unreachable=0    failed=0
appnode2.ocp.eabdc         : ok=4    changed=0    unreachable=0    failed=0
appnode3.ocp.eabdc         : ok=4    changed=0    unreachable=0    failed=0
appnode4.ocp.eabdc         : ok=65   changed=3    unreachable=0    failed=1
infranode1.ocp.eabdc       : ok=4    changed=0    unreachable=0    failed=0
infranode2.ocp.eabdc       : ok=4    changed=0    unreachable=0    failed=0
infranode3.ocp.eabdc       : ok=4    changed=0    unreachable=0    failed=0
lb.ocp.eabdc               : ok=20   changed=0    unreachable=0    failed=0
localhost                  : ok=26   changed=0    unreachable=0    failed=0
mnode1.ocp.eabdc           : ok=36   changed=0    unreachable=0    failed=0
mnode2.ocp.eabdc           : ok=20   changed=0    unreachable=0    failed=0
mnode3.ocp.eabdc           : ok=20   changed=0    unreachable=0    failed=0


INSTALLER STATUS ***************************************************************
Initialization             : Complete (0:01:17)

[root@lb playbook]# vi inventory
