login as: root
root@192.168.225.122's password:
Last login: Thu May 16 01:56:47 2019 from 192.168.225.253
[root@appnode3 ~]# oc login https://admin.ocp.eabdc:8443 --token=K0NPalDqdsMVEv0                                            EIhRsa8UjkfajKW_MLEW7DsYVdrE
Logged into "https://admin.ocp.eabdc:8443" as "admin" using the token provide                                               d.

You have access to the following projects and can switch between them with 'o                                               c project <projectname>':

    121demo
    ax-project-001
    axasgprod
  * axasgsit
    axasgsit2
    axasgsit3
    default
    demo2
    eab
    eab-121-v3-dev
    eab-cafe-dev
    eab-cafe-sit
    eab-ocr-service
    eab-time-sheet
    eab-time-sheet-dev
    eabtimesheet
    iquote-sit
    kube-public
    kube-service-catalog
    kube-system
    logging
    management-infra
    ocr-service-dev
    ocr-service-prod
    ocr-service-sit
    openshift
    openshift-infra
    openshift-metrics
    openshift-node
    openshift-web-console
    php
    productconfig
    sftp
    test
    zurich-demo

Using project "axasgsit".
[root@appnode3 ~]# oc adm manage-node appnode1.ocp.eabdc --schedulable=false
NAME                 STATUS                     ROLES     AGE       VERSION
appnode1.ocp.eabdc   Ready,SchedulingDisabled   compute   355d      v1.9.1+a0                                               ce1bc657
[root@appnode3 ~]# oc adm manage-node appnode1.ocp.eabdc --schedulable=true
NAME                 STATUS    ROLES     AGE       VERSION
appnode1.ocp.eabdc   Ready     compute   355d      v1.9.1+a0ce1bc657
[root@appnode3 ~]# oc adm manage-node appnode3.ocp.eabdc --schedulable=false
NAME                 STATUS                        ROLES     AGE       VERSIO                                               N
appnode3.ocp.eabdc   NotReady,SchedulingDisabled   compute   355d      v1.9.1                                               +a0ce1bc657
[root@appnode3 ~]# systemctl stop docker atomic-openshift-node
[root@appnode3 ~]# rm -rf /var/lib/origin/openshift.local.volumes
[root@appnode3 ~]# rm -rf /var/lib/docker
rm: cannot remove ‘/var/lib/docker/containers’: Device or resource busy
rm: cannot remove ‘/var/lib/docker/devicemapper’: Device or resource busy
[root@appnode3 ~]# umount /var/lib/docker/containers
[root@appnode3 ~]# umount /var/lib/docker/devicemapper
[root@appnode3 ~]# rm -rf /var/lib/docker
[root@appnode3 ~]# docker-storage-setup --reset
  Logical volume docker-vg/docker-pool is used by another device.
[root@appnode3 ~]# docker-storage-setup
INFO: Device /dev/sdb is already partitioned and is part of volume group dock                                               er-vg
INFO: Found an already configured thin pool /dev/mapper/docker--vg-docker--po                                               ol in /etc/sysconfig/docker-storage
INFO: Device node /dev/mapper/docker--vg-docker--pool exists.
  Logical volume docker-vg/docker-pool changed.
[root@appnode3 ~]# mkdir /var/lib/docker
[root@appnode3 ~]# systemctl start docker atomic-openshift-node
Job for docker.service failed because the control process exited with error c                                               ode. See "systemctl status docker.service" and "journalctl -xe" for details.
Job for atomic-openshift-node.service failed because the control process exit                                               ed with error code. See "systemctl status atomic-openshift-node.service" and                                                "journalctl -xe" for details.
[root@appnode3 ~]# systemctl status atomic-openshift-node.service
● atomic-openshift-node.service - OpenShift Node
   Loaded: loaded (/etc/systemd/system/atomic-openshift-node.service; enabled; vendor preset: disabled)
  Drop-In: /usr/lib/systemd/system/atomic-openshift-node.service.d
           └─openshift-sdn-ovs.conf
   Active: activating (auto-restart) (Result: exit-code) since Thu 2019-05-16 03:38:09 EDT; 4s ago
     Docs: https://github.com/openshift/origin
  Process: 4073 ExecStopPost=/usr/bin/dbus-send --system --dest=uk.org.thekelleys.dnsmasq /uk/org/thekelleys/dnsmasq uk.org.:string: (code=exited, status=0/SUCCESS)
  Process: 4070 ExecStopPost=/usr/bin/rm /etc/dnsmasq.d/node-dnsmasq.conf (code=exited, status=0/SUCCESS)
  Process: 4042 ExecStart=/usr/bin/openshift start node --config=${CONFIG_FILE} $OPTIONS (code=exited, status=255)
  Process: 4040 ExecStartPre=/usr/bin/dbus-send --system --dest=uk.org.thekelleys.dnsmasq /uk/org/thekelleys/dnsmasq uk.org.:string:/in-addr.arpa/127.0.0.1,/cluster.local/127.0.0.1 (code=exited, status=0/SUCCESS)
  Process: 4037 ExecStartPre=/usr/bin/cp /etc/origin/node/node-dnsmasq.conf /etc/dnsmasq.d/ (code=exited, status=0/SUCCESS)
 Main PID: 4042 (code=exited, status=255)

May 16 03:38:09 appnode3 systemd[1]: Failed to start OpenShift Node.
May 16 03:38:09 appnode3 systemd[1]: Unit atomic-openshift-node.service entered failed state.
May 16 03:38:09 appnode3 systemd[1]: atomic-openshift-node.service failed.
May 16 03:38:14 appnode3 systemd[1]: atomic-openshift-node.service holdoff time over, scheduling restart.
May 16 03:38:16 appnode3 systemd[1]: Starting OpenShift Node...
May 16 03:38:16 appnode3 atomic-openshift-node[4187]: I0516 03:38:16.363930    4187 start_node.go:309] Reading node configur
May 16 03:38:16 appnode3 atomic-openshift-node[4187]: I0516 03:38:16.365690    4187 start_node.go:479] Starting node appnode
May 16 03:38:16 appnode3 atomic-openshift-node[4187]: W0516 03:38:16.365921    4187 server.go:185] WARNING: all flags other
May 16 03:38:16 appnode3 atomic-openshift-node[4187]: Flag --require-kubeconfig has been deprecated, You no longer need to u
May 16 03:38:16 appnode3 atomic-openshift-node[4187]: I0516 03:38:16.366585    4187 start_node.go:535] kubelet [--address=0.
May 16 03:38:16 appnode3 atomic-openshift-node[4187]: I0516 03:38:16.366682    4187 feature_gate.go:220] feature gates: &{{}
May 16 03:38:16 appnode3 atomic-openshift-node[4187]: I0516 03:38:16.366730    4187 controller.go:114] kubelet config contro
May 16 03:38:16 appnode3 atomic-openshift-node[4187]: I0516 03:38:16.366739    4187 controller.go:118] kubelet config contro
May 16 03:38:16 appnode3 atomic-openshift-node[4187]: I0516 03:38:16.372706    4187 mount_linux.go:208] Detected OS with sys
May 16 03:38:16 appnode3 atomic-openshift-node[4187]: W0516 03:38:16.372872    4187 cni.go:171] Unable to update cni config:
May 16 03:38:16 appnode3 atomic-openshift-node[4187]: I0516 03:38:16.374249    4187 node.go:151] Initializing SDN node of ty
May 16 03:38:16 appnode3 atomic-openshift-node[4187]: I0516 03:38:16.375335    4187 node.go:294] Starting openshift-sdn netw
May 16 03:38:16 appnode3 atomic-openshift-node[4187]: I0516 03:38:16.377229    4187 server.go:236] Version: v1.9.1+a0ce1bc65
May 16 03:38:16 appnode3 atomic-openshift-node[4187]: I0516 03:38:16.377294    4187 feature_gate.go:220] feature gates: &{{}
May 16 03:38:16 appnode3 atomic-openshift-node[4187]: W0516 03:38:16.377410    4187 server.go:334] --require-kubeconfig is d
May 16 03:38:16 appnode3 atomic-openshift-node[4187]: I0516 03:38:16.377425    4187 plugins.go:101] No cloud provider specif
May 16 03:38:16 appnode3 atomic-openshift-node[4187]: I0516 03:38:16.377436    4187 server.go:357] No cloud provider specifi
May 16 03:38:16 appnode3 atomic-openshift-node[4187]: I0516 03:38:16.386086    4187 manager.go:151] cAdvisor running in cont
May 16 03:38:16 appnode3 atomic-openshift-node[4187]: I0516 03:38:16.387741    4187 fs.go:140] Filesystem UUIDs: map[6e3cc93
May 16 03:38:16 appnode3 atomic-openshift-node[4187]: I0516 03:38:16.387769    4187 fs.go:141] Filesystem partitions: map[tm
May 16 03:38:16 appnode3 atomic-openshift-node[4187]: I0516 03:38:16.392171    4187 manager.go:225] Machine: {NumCores:8 Cpu
May 16 03:38:16 appnode3 atomic-openshift-node[4187]: I0516 03:38:16.392635    4187 manager.go:231] Version: {KernelVersion:
May 16 03:38:16 appnode3 atomic-openshift-node[4187]: I0516 03:38:16.393308    4187 server.go:482] --cgroups-per-qos enabled
May 16 03:38:16 appnode3 atomic-openshift-node[4187]: I0516 03:38:16.393696    4187 container_manager_linux.go:242] containe
May 16 03:38:16 appnode3 atomic-openshift-node[4187]: I0516 03:38:16.393710    4187 container_manager_linux.go:247] Creating
May 16 03:38:16 appnode3 atomic-openshift-node[4187]: I0516 03:38:16.393876    4187 container_manager_linux.go:266] Creating
May 16 03:38:16 appnode3 atomic-openshift-node[4187]: I0516 03:38:16.393935    4187 server.go:756] Using root directory: /va
May 16 03:38:16 appnode3 atomic-openshift-node[4187]: I0516 03:38:16.393985    4187 kubelet.go:314] Watching apiserver
May 16 03:38:16 appnode3 atomic-openshift-node[4187]: W0516 03:38:16.410575    4187 kubelet_network.go:139] Hairpin mode set
May 16 03:38:16 appnode3 atomic-openshift-node[4187]: I0516 03:38:16.410611    4187 kubelet.go:572] Hairpin mode set to "hai
May 16 03:38:16 appnode3 atomic-openshift-node[4187]: W0516 03:38:16.410720    4187 cni.go:171] Unable to update cni config:
May 16 03:38:16 appnode3 atomic-openshift-node[4187]: I0516 03:38:16.410737    4187 plugins.go:190] Loaded network plugin "c
May 16 03:38:16 appnode3 atomic-openshift-node[4187]: I0516 03:38:16.410795    4187 client.go:80] Connecting to docker on un
May 16 03:38:16 appnode3 atomic-openshift-node[4187]: I0516 03:38:16.410809    4187 client.go:109] Start docker client with
May 16 03:38:16 appnode3 atomic-openshift-node[4187]: E0516 03:38:16.412244    4187 kube_docker_client.go:91] failed to retr
May 16 03:38:16 appnode3 atomic-openshift-node[4187]: W0516 03:38:16.412278    4187 kube_docker_client.go:92] Using empty ve
May 16 03:38:16 appnode3 atomic-openshift-node[4187]: F0516 03:38:16.421843    4187 server.go:173] failed to run Kubelet: fa
May 16 03:38:16 appnode3 systemd[1]: atomic-openshift-node.service: main process exited, code=exited, status=255/n/a
May 16 03:38:16 appnode3 systemd[1]: Failed to start OpenShift Node.
May 16 03:38:16 appnode3 systemd[1]: Unit atomic-openshift-node.service entered failed state.
May 16 03:38:16 appnode3 systemd[1]: atomic-openshift-node.service failed.
May 16 03:38:21 appnode3 systemd[1]: atomic-openshift-node.service holdoff time over, scheduling restart.
May 16 03:38:23 appnode3 systemd[1]: Starting OpenShift Node...
May 16 03:38:23 appnode3 atomic-openshift-node[4330]: I0516 03:38:23.798581    4330 start_node.go:309] Reading node configur
May 16 03:38:23 appnode3 atomic-openshift-node[4330]: I0516 03:38:23.800509    4330 start_node.go:479] Starting node appnode
May 16 03:38:23 appnode3 atomic-openshift-node[4330]: W0516 03:38:23.800836    4330 server.go:185] WARNING: all flags other
May 16 03:38:23 appnode3 atomic-openshift-node[4330]: Flag --require-kubeconfig has been deprecated, You no longer need to u
May 16 03:38:23 appnode3 atomic-openshift-node[4330]: I0516 03:38:23.801518    4330 start_node.go:535] kubelet [--address=0.
May 16 03:38:23 appnode3 atomic-openshift-node[4330]: I0516 03:38:23.801616    4330 feature_gate.go:220] feature gates: &{{}
May 16 03:38:23 appnode3 atomic-openshift-node[4330]: I0516 03:38:23.801661    4330 controller.go:114] kubelet config contro
May 16 03:38:23 appnode3 atomic-openshift-node[4330]: I0516 03:38:23.801669    4330 controller.go:118] kubelet config contro
May 16 03:38:23 appnode3 atomic-openshift-node[4330]: I0516 03:38:23.806633    4330 node.go:151] Initializing SDN node of ty
May 16 03:38:23 appnode3 atomic-openshift-node[4330]: I0516 03:38:23.808130    4330 node.go:294] Starting openshift-sdn netw
May 16 03:38:23 appnode3 atomic-openshift-node[4330]: I0516 03:38:23.808285    4330 mount_linux.go:208] Detected OS with sys
May 16 03:38:23 appnode3 atomic-openshift-node[4330]: W0516 03:38:23.808481    4330 cni.go:171] Unable to update cni config:
May 16 03:38:23 appnode3 atomic-openshift-node[4330]: I0516 03:38:23.812764    4330 server.go:236] Version: v1.9.1+a0ce1bc65
May 16 03:38:23 appnode3 atomic-openshift-node[4330]: I0516 03:38:23.812882    4330 feature_gate.go:220] feature gates: &{{}
May 16 03:38:23 appnode3 atomic-openshift-node[4330]: W0516 03:38:23.813050    4330 server.go:334] --require-kubeconfig is d
May 16 03:38:23 appnode3 atomic-openshift-node[4330]: I0516 03:38:23.813067    4330 plugins.go:101] No cloud provider specif
May 16 03:38:23 appnode3 atomic-openshift-node[4330]: I0516 03:38:23.813079    4330 server.go:357] No cloud provider specifi
May 16 03:38:23 appnode3 atomic-openshift-node[4330]: I0516 03:38:23.817215    4330 manager.go:151] cAdvisor running in cont
May 16 03:38:23 appnode3 atomic-openshift-node[4330]: I0516 03:38:23.819602    4330 fs.go:140] Filesystem UUIDs: map[7530db6
May 16 03:38:23 appnode3 atomic-openshift-node[4330]: I0516 03:38:23.819634    4330 fs.go:141] Filesystem partitions: map[tm
May 16 03:38:23 appnode3 atomic-openshift-node[4330]: I0516 03:38:23.824877    4330 manager.go:225] Machine: {NumCores:8 Cpu
May 16 03:38:23 appnode3 atomic-openshift-node[4330]: I0516 03:38:23.825470    4330 manager.go:231] Version: {KernelVersion:
May 16 03:38:23 appnode3 atomic-openshift-node[4330]: I0516 03:38:23.826508    4330 server.go:482] --cgroups-per-qos enabled
May 16 03:38:23 appnode3 atomic-openshift-node[4330]: I0516 03:38:23.826918    4330 container_manager_linux.go:242] containe
May 16 03:38:23 appnode3 atomic-openshift-node[4330]: I0516 03:38:23.826934    4330 container_manager_linux.go:247] Creating
May 16 03:38:23 appnode3 atomic-openshift-node[4330]: I0516 03:38:23.827081    4330 container_manager_linux.go:266] Creating
May 16 03:38:23 appnode3 atomic-openshift-node[4330]: I0516 03:38:23.827145    4330 server.go:756] Using root directory: /va
May 16 03:38:23 appnode3 atomic-openshift-node[4330]: I0516 03:38:23.827201    4330 kubelet.go:314] Watching apiserver
May 16 03:38:23 appnode3 atomic-openshift-node[4330]: W0516 03:38:23.837496    4330 kubelet_network.go:139] Hairpin mode set
May 16 03:38:23 appnode3 atomic-openshift-node[4330]: I0516 03:38:23.838009    4330 kubelet.go:572] Hairpin mode set to "hai
May 16 03:38:23 appnode3 atomic-openshift-node[4330]: W0516 03:38:23.838334    4330 cni.go:171] Unable to update cni config:
May 16 03:38:23 appnode3 atomic-openshift-node[4330]: I0516 03:38:23.838613    4330 plugins.go:190] Loaded network plugin "c
May 16 03:38:23 appnode3 atomic-openshift-node[4330]: I0516 03:38:23.838944    4330 client.go:80] Connecting to docker on un
May 16 03:38:23 appnode3 atomic-openshift-node[4330]: I0516 03:38:23.839212    4330 client.go:109] Start docker client with
May 16 03:38:23 appnode3 atomic-openshift-node[4330]: E0516 03:38:23.839626    4330 kube_docker_client.go:91] failed to retr
May 16 03:38:23 appnode3 atomic-openshift-node[4330]: W0516 03:38:23.839984    4330 kube_docker_client.go:92] Using empty ve
May 16 03:38:23 appnode3 atomic-openshift-node[4330]: F0516 03:38:23.840407    4330 server.go:173] failed to run Kubelet: fa
May 16 03:38:23 appnode3 systemd[1]: atomic-openshift-node.service: main process exited, code=exited, status=255/n/a
May 16 03:38:23 appnode3 systemd[1]: Failed to start OpenShift Node.
May 16 03:38:23 appnode3 systemd[1]: Unit atomic-openshift-node.service entered failed state.
May 16 03:38:23 appnode3 systemd[1]: atomic-openshift-node.service failed.
Hint: Some lines were ellipsized, use -l to show in full.
[root@appnode3 ~]# systemctl stop atomic-openshift-node.service
[root@appnode3 ~]# systemctl start atomic-openshift-node.service
Job for atomic-openshift-node.service failed because the control process exited with error code. See "systemctl status atomiurnalctl -xe" for details.
[root@appnode3 ~]# systemctl status atomic-openshift-node.service
● atomic-openshift-node.service - OpenShift Node
   Loaded: loaded (/etc/systemd/system/atomic-openshift-node.service; enabled; vendor preset: disabled)
  Drop-In: /usr/lib/systemd/system/atomic-openshift-node.service.d
           └─openshift-sdn-ovs.conf
   Active: inactive (dead) (Result: exit-code) since Thu 2019-05-16 03:40:05 EDT; 248ms ago
     Docs: https://github.com/openshift/origin
  Process: 6358 ExecStopPost=/usr/bin/dbus-send --system --dest=uk.org.thekelleys.dnsmasq /uk/org/thekelleys/dnsmasq uk.org.:string: (code=exited, status=0/SUCCESS)
  Process: 6355 ExecStopPost=/usr/bin/rm /etc/dnsmasq.d/node-dnsmasq.conf (code=exited, status=0/SUCCESS)
  Process: 6329 ExecStart=/usr/bin/openshift start node --config=${CONFIG_FILE} $OPTIONS (code=exited, status=255)
  Process: 6325 ExecStartPre=/usr/bin/dbus-send --system --dest=uk.org.thekelleys.dnsmasq /uk/org/thekelleys/dnsmasq uk.org.:string:/in-addr.arpa/127.0.0.1,/cluster.local/127.0.0.1 (code=exited, status=0/SUCCESS)
  Process: 6323 ExecStartPre=/usr/bin/cp /etc/origin/node/node-dnsmasq.conf /etc/dnsmasq.d/ (code=exited, status=0/SUCCESS)
 Main PID: 6329 (code=exited, status=255)
   Memory: 0B
   CGroup: /system.slice/atomic-openshift-node.service

May 16 03:40:00 appnode3 systemd[1]: Failed to start OpenShift Node.
May 16 03:40:00 appnode3 systemd[1]: Unit atomic-openshift-node.service entered failed state.
May 16 03:40:00 appnode3 systemd[1]: atomic-openshift-node.service failed.
May 16 03:40:05 appnode3 systemd[1]: atomic-openshift-node.service holdoff time over, scheduling restart.
[root@appnode3 ~]# oc get nodes
NAME                   STATUS                        ROLES     AGE       VERSION
appnode1.ocp.eabdc     Ready                         compute   355d      v1.9.1+a0ce1bc657
appnode2.ocp.eabdc     Ready                         compute   355d      v1.9.1+a0ce1bc657
appnode3.ocp.eabdc     NotReady,SchedulingDisabled   compute   355d      v1.9.1+a0ce1bc657
infranode1.ocp.eabdc   Ready                         infra     355d      v1.9.1+a0ce1bc657
infranode2.ocp.eabdc   Ready                         infra     355d      v1.9.1+a0ce1bc657
infranode3.ocp.eabdc   Ready                         infra     355d      v1.9.1+a0ce1bc657
mnode1.ocp.eabdc       Ready                         master    355d      v1.9.1+a0ce1bc657
mnode2.ocp.eabdc       Ready                         master    355d      v1.9.1+a0ce1bc657
mnode3.ocp.eabdc       Ready                         master    355d      v1.9.1+a0ce1bc657
[root@appnode3 ~]# journalctl -xe
--
-- The start-up result is done.
May 16 04:02:21 appnode3 systemd[1]: Starting Kubernetes systemd probe.
-- Subject: Unit run-34436.scope has begun start-up
-- Unit registries.service has finished starting up.
--
-- The start-up result is done.
May 16 04:02:19 appnode3 container-storage-setup[34308]: INFO: Found an already configured thin pool /dev/mapper/docker--vg-
May 16 04:02:19 appnode3 container-storage-setup[34308]: INFO: Device node /dev/mapper/docker--vg-docker--pool exists.
May 16 04:02:19 appnode3 container-storage-setup[34308]: Logical volume docker-vg/docker-pool changed.
May 16 04:02:19 appnode3 systemd[1]: Started Docker Storage Setup.
-- Subject: Unit docker-storage-setup.service has finished start-up
-- Defined-By: systemd
-- Support: http://lists.freedesktop.org/mailman/listinfo/systemd-devel
--
-- Unit docker-storage-setup.service has finished starting up.
--
-- The start-up result is done.
May 16 04:02:19 appnode3 systemd[1]: Starting Docker Application Container Engine...
-- Subject: Unit docker.service has begun start-up
-- Defined-By: systemd
-- Support: http://lists.freedesktop.org/mailman/listinfo/systemd-devel
--
-- Unit docker.service has begun starting up.
May 16 04:02:20 appnode3 dockerd-current[34387]: time="2019-05-16T04:02:20.007534635-04:00" level=warning msg="could not cha
May 16 04:02:20 appnode3 dockerd-current[34387]: time="2019-05-16T04:02:20.060044872-04:00" level=info msg="libcontainerd: n
May 16 04:02:21 appnode3 dockerd-current[34387]: Error starting daemon: error initializing graphdriver: devmapper: Unable to
May 16 04:02:21 appnode3 systemd[1]: docker.service: main process exited, code=exited, status=1/FAILURE
May 16 04:02:21 appnode3 systemd[1]: Failed to start Docker Application Container Engine.
-- Subject: Unit docker.service has failed
-- Defined-By: systemd
-- Support: http://lists.freedesktop.org/mailman/listinfo/systemd-devel
--
-- Unit docker.service has failed.
--
-- The result is failed.
May 16 04:02:21 appnode3 systemd[1]: Unit docker.service entered failed state.
May 16 04:02:21 appnode3 systemd[1]: docker.service failed.
May 16 04:02:21 appnode3 systemd[1]: Starting OpenShift Node...
-- Subject: Unit atomic-openshift-node.service has begun start-up
-- Defined-By: systemd
-- Support: http://lists.freedesktop.org/mailman/listinfo/systemd-devel
--
-- Unit atomic-openshift-node.service has begun starting up.
May 16 04:02:21 appnode3 dnsmasq[1567]: setting upstream servers from DBus
May 16 04:02:21 appnode3 dnsmasq[1567]: using nameserver 8.8.8.8#53
May 16 04:02:21 appnode3 dnsmasq[1567]: using nameserver 192.168.222.3#53
May 16 04:02:21 appnode3 dnsmasq[1567]: using nameserver 127.0.0.1#53 for domain in-addr.arpa
May 16 04:02:21 appnode3 dnsmasq[1567]: using nameserver 127.0.0.1#53 for domain cluster.local
May 16 04:02:21 appnode3 atomic-openshift-node[34418]: I0516 04:02:21.303123   34418 start_node.go:309] Reading node configu
May 16 04:02:21 appnode3 atomic-openshift-node[34418]: I0516 04:02:21.305414   34418 start_node.go:479] Starting node appnod
May 16 04:02:21 appnode3 atomic-openshift-node[34418]: W0516 04:02:21.305655   34418 server.go:185] WARNING: all flags other
May 16 04:02:21 appnode3 atomic-openshift-node[34418]: Flag --require-kubeconfig has been deprecated, You no longer need to
May 16 04:02:21 appnode3 atomic-openshift-node[34418]: I0516 04:02:21.306325   34418 start_node.go:535] kubelet [--address=0
May 16 04:02:21 appnode3 atomic-openshift-node[34418]: I0516 04:02:21.306415   34418 feature_gate.go:220] feature gates: &{{
May 16 04:02:21 appnode3 atomic-openshift-node[34418]: I0516 04:02:21.306458   34418 controller.go:114] kubelet config contr
May 16 04:02:21 appnode3 atomic-openshift-node[34418]: I0516 04:02:21.306466   34418 controller.go:118] kubelet config contr
May 16 04:02:21 appnode3 atomic-openshift-node[34418]: I0516 04:02:21.311458   34418 node.go:151] Initializing SDN node of t
May 16 04:02:21 appnode3 systemd[1]: Started Kubernetes systemd probe.
-- Subject: Unit run-34436.scope has finished start-up
-- Defined-By: systemd
-- Support: http://lists.freedesktop.org/mailman/listinfo/systemd-devel
--
-- Unit run-34436.scope has finished starting up.
--
-- The start-up result is done.
May 16 04:02:21 appnode3 systemd[1]: Starting Kubernetes systemd probe.
-- Subject: Unit run-34436.scope has begun start-up
-- Subject: Unit run-34436.scope has begun start-up
-- Defined-By: systemd
-- Support: http://lists.freedesktop.org/mailman/listinfo/systemd-devel
--
-- Unit run-34436.scope has begun starting up.
May 16 04:02:21 appnode3 atomic-openshift-node[34418]: I0516 04:02:21.312692   34418 mount_linux.go:208] Detected OS with sy
May 16 04:02:21 appnode3 atomic-openshift-node[34418]: W0516 04:02:21.312881   34418 cni.go:171] Unable to update cni config
May 16 04:02:21 appnode3 atomic-openshift-node[34418]: I0516 04:02:21.313063   34418 node.go:294] Starting openshift-sdn net
May 16 04:02:21 appnode3 atomic-openshift-node[34418]: I0516 04:02:21.318907   34418 server.go:236] Version: v1.9.1+a0ce1bc6
May 16 04:02:21 appnode3 atomic-openshift-node[34418]: I0516 04:02:21.319025   34418 feature_gate.go:220] feature gates: &{{
May 16 04:02:21 appnode3 atomic-openshift-node[34418]: W0516 04:02:21.319161   34418 server.go:334] --require-kubeconfig is
May 16 04:02:21 appnode3 atomic-openshift-node[34418]: I0516 04:02:21.319177   34418 plugins.go:101] No cloud provider speci
May 16 04:02:21 appnode3 atomic-openshift-node[34418]: I0516 04:02:21.319189   34418 server.go:357] No cloud provider specif
May 16 04:02:21 appnode3 atomic-openshift-node[34418]: I0516 04:02:21.327437   34418 manager.go:151] cAdvisor running in con
May 16 04:02:21 appnode3 atomic-openshift-node[34418]: I0516 04:02:21.329548   34418 fs.go:140] Filesystem UUIDs: map[7530db
May 16 04:02:21 appnode3 atomic-openshift-node[34418]: I0516 04:02:21.329578   34418 fs.go:141] Filesystem partitions: map[t
May 16 04:02:21 appnode3 atomic-openshift-node[34418]: I0516 04:02:21.333411   34418 manager.go:225] Machine: {NumCores:8 Cp
May 16 04:02:21 appnode3 atomic-openshift-node[34418]: I0516 04:02:21.333872   34418 manager.go:231] Version: {KernelVersion
May 16 04:02:21 appnode3 atomic-openshift-node[34418]: I0516 04:02:21.334530   34418 server.go:482] --cgroups-per-qos enable
May 16 04:02:21 appnode3 atomic-openshift-node[34418]: I0516 04:02:21.334927   34418 container_manager_linux.go:242] contain
May 16 04:02:21 appnode3 atomic-openshift-node[34418]: I0516 04:02:21.334944   34418 container_manager_linux.go:247] Creatin
May 16 04:02:21 appnode3 atomic-openshift-node[34418]: I0516 04:02:21.335110   34418 container_manager_linux.go:266] Creatin
May 16 04:02:21 appnode3 atomic-openshift-node[34418]: I0516 04:02:21.335171   34418 server.go:756] Using root directory: /v
May 16 04:02:21 appnode3 atomic-openshift-node[34418]: I0516 04:02:21.335224   34418 kubelet.go:314] Watching apiserver
May 16 04:02:21 appnode3 atomic-openshift-node[34418]: W0516 04:02:21.339584   34418 kubelet_network.go:139] Hairpin mode se
May 16 04:02:21 appnode3 atomic-openshift-node[34418]: I0516 04:02:21.339638   34418 kubelet.go:572] Hairpin mode set to "ha
May 16 04:02:21 appnode3 atomic-openshift-node[34418]: W0516 04:02:21.339712   34418 cni.go:171] Unable to update cni config
May 16 04:02:21 appnode3 atomic-openshift-node[34418]: I0516 04:02:21.339729   34418 plugins.go:190] Loaded network plugin "
May 16 04:02:21 appnode3 atomic-openshift-node[34418]: I0516 04:02:21.339786   34418 client.go:80] Connecting to docker on u
May 16 04:02:21 appnode3 atomic-openshift-node[34418]: I0516 04:02:21.339800   34418 client.go:109] Start docker client with
May 16 04:02:21 appnode3 atomic-openshift-node[34418]: E0516 04:02:21.340002   34418 kube_docker_client.go:91] failed to ret
May 16 04:02:21 appnode3 atomic-openshift-node[34418]: W0516 04:02:21.340041   34418 kube_docker_client.go:92] Using empty v
May 16 04:02:21 appnode3 atomic-openshift-node[34418]: F0516 04:02:21.340244   34418 server.go:173] failed to run Kubelet: f
May 16 04:02:21 appnode3 systemd[1]: atomic-openshift-node.service: main process exited, code=exited, status=255/n/a
May 16 04:02:21 appnode3 dnsmasq[1567]: setting upstream servers from DBus
May 16 04:02:21 appnode3 dnsmasq[1567]: using nameserver 8.8.8.8#53
May 16 04:02:21 appnode3 systemd[1]: Failed to start OpenShift Node.
-- Subject: Unit atomic-openshift-node.service has failed
-- Defined-By: systemd
-- Support: http://lists.freedesktop.org/mailman/listinfo/systemd-devel
--
-- Unit atomic-openshift-node.service has failed.
--
-- The result is failed.
May 16 04:02:21 appnode3 dnsmasq[1567]: using nameserver 192.168.222.3#53
May 16 04:02:21 appnode3 systemd[1]: Unit atomic-openshift-node.service entered failed state.
May 16 04:02:21 appnode3 dbus[855]: [system] Rejected send message, 0 matched rules; type="method_return", sender=":1.18" (u
May 16 04:02:21 appnode3 systemd[1]: atomic-openshift-node.service failed.
lines 1814-1860/1860 (END)
-- Defined-By: systemd
-- Support: http://lists.freedesktop.org/mailman/listinfo/systemd-devel
--
-- Unit run-34436.scope has begun starting up.
May 16 04:02:21 appnode3 atomic-openshift-node[34418]: I0516 04:02:21.312692   3
May 16 04:02:21 appnode3 atomic-openshift-node[34418]: W0516 04:02:21.312881   3
May 16 04:02:21 appnode3 atomic-openshift-node[34418]: I0516 04:02:21.313063   3
May 16 04:02:21 appnode3 atomic-openshift-node[34418]: I0516 04:02:21.318907   3
May 16 04:02:21 appnode3 atomic-openshift-node[34418]: I0516 04:02:21.319025   3
May 16 04:02:21 appnode3 atomic-openshift-node[34418]: W0516 04:02:21.319161   3
May 16 04:02:21 appnode3 atomic-openshift-node[34418]: I0516 04:02:21.319177   3
May 16 04:02:21 appnode3 atomic-openshift-node[34418]: I0516 04:02:21.319189   3
May 16 04:02:21 appnode3 atomic-openshift-node[34418]: I0516 04:02:21.327437   3
May 16 04:02:21 appnode3 atomic-openshift-node[34418]: I0516 04:02:21.329548   3
May 16 04:02:21 appnode3 atomic-openshift-node[34418]: I0516 04:02:21.329578   3
May 16 04:02:21 appnode3 atomic-openshift-node[34418]: I0516 04:02:21.333411   3
May 16 04:02:21 appnode3 atomic-openshift-node[34418]: I0516 04:02:21.333872   3
May 16 04:02:21 appnode3 atomic-openshift-node[34418]: I0516 04:02:21.334530   3
May 16 04:02:21 appnode3 atomic-openshift-node[34418]: I0516 04:02:21.334927   3
May 16 04:02:21 appnode3 atomic-openshift-node[34418]: I0516 04:02:21.334944   3
May 16 04:02:21 appnode3 atomic-openshift-node[34418]: I0516 04:02:21.335110   3
May 16 04:02:21 appnode3 atomic-openshift-node[34418]: I0516 04:02:21.335171   3
May 16 04:02:21 appnode3 atomic-openshift-node[34418]: I0516 04:02:21.335224   3
lines 1814-1836/1860 99%
-- Defined-By: systemd
-- Support: http://lists.freedesktop.org/mailman/listinfo/systemd-devel
--
-- Unit run-34436.scope has begun starting up.
May 16 04:02:21 appnode3 atomic-openshift-node[34418]: I0516 04:02:21.312692
May 16 04:02:21 appnode3 atomic-openshift-node[34418]: W0516 04:02:21.312881
May 16 04:02:21 appnode3 atomic-openshift-node[34418]: I0516 04:02:21.313063
May 16 04:02:21 appnode3 atomic-openshift-node[34418]: I0516 04:02:21.318907
May 16 04:02:21 appnode3 atomic-openshift-node[34418]: I0516 04:02:21.319025
May 16 04:02:21 appnode3 atomic-openshift-node[34418]: W0516 04:02:21.319161
May 16 04:02:21 appnode3 atomic-openshift-node[34418]: I0516 04:02:21.319177
May 16 04:02:21 appnode3 atomic-openshift-node[34418]: I0516 04:02:21.319189
May 16 04:02:21 appnode3 atomic-openshift-node[34418]: I0516 04:02:21.327437
May 16 04:02:21 appnode3 atomic-openshift-node[34418]: I0516 04:02:21.329548
May 16 04:02:21 appnode3 atomic-openshift-node[34418]: I0516 04:02:21.329578
May 16 04:02:21 appnode3 atomic-openshift-node[34418]: I0516 04:02:21.333411
May 16 04:02:21 appnode3 atomic-openshift-node[34418]: I0516 04:02:21.333872
May 16 04:02:21 appnode3 atomic-openshift-node[34418]: I0516 04:02:21.334530
May 16 04:02:21 appnode3 atomic-openshift-node[34418]: I0516 04:02:21.334927
May 16 04:02:21 appnode3 atomic-openshift-node[34418]: I0516 04:02:21.334944
May 16 04:02:21 appnode3 atomic-openshift-node[34418]: I0516 04:02:21.335110
May 16 04:02:21 appnode3 atomic-openshift-node[34418]: I0516 04:02:21.335171
May 16 04:02:21 appnode3 atomic-openshift-node[34418]: I0516 04:02:21.335224
May 16 04:02:21 appnode3 atomic-openshift-node[34418]: W0516 04:02:21.339584
May 16 04:02:21 appnode3 atomic-openshift-node[34418]: I0516 04:02:21.339638
May 16 04:02:21 appnode3 atomic-openshift-node[34418]: W0516 04:02:21.339712
May 16 04:02:21 appnode3 atomic-openshift-node[34418]: I0516 04:02:21.339729
May 16 04:02:21 appnode3 atomic-openshift-node[34418]: I0516 04:02:21.339786
May 16 04:02:21 appnode3 atomic-openshift-node[34418]: I0516 04:02:21.339800
May 16 04:02:21 appnode3 atomic-openshift-node[34418]: E0516 04:02:21.340002
May 16 04:02:21 appnode3 atomic-openshift-node[34418]: W0516 04:02:21.340041
May 16 04:02:21 appnode3 atomic-openshift-node[34418]: F0516 04:02:21.340244
May 16 04:02:21 appnode3 systemd[1]: atomic-openshift-node.service: main proc
May 16 04:02:21 appnode3 dnsmasq[1567]: setting upstream servers from DBus
May 16 04:02:21 appnode3 dnsmasq[1567]: using nameserver 8.8.8.8#53
May 16 04:02:21 appnode3 systemd[1]: Failed to start OpenShift Node.
-- Subject: Unit atomic-openshift-node.service has failed
-- Defined-By: systemd
-- Support: http://lists.freedesktop.org/mailman/listinfo/systemd-devel
--
-- Unit atomic-openshift-node.service has failed.
--
-- The result is failed.
May 16 04:02:21 appnode3 dnsmasq[1567]: using nameserver 192.168.222.3#53
May 16 04:02:21 appnode3 systemd[1]: Unit atomic-openshift-node.service enter
May 16 04:02:21 appnode3 dbus[855]: [system] Rejected send message, 0 matched
May 16 04:02:21 appnode3 systemd[1]: atomic-openshift-node.service failed.
lines 1814-1860/1860 (END)
-- Defined-By: systemd
-- Support: http://lists.freedesktop.org/mailman/listinfo/systemd-devel
--
-- Unit run-34436.scope has begun starting up.
May 16 04:02:21 appnode3 atomic-openshift-node[34418]: I0516 04:02:21.312692   34418 mount_linux.go:208] Detected OS with sy
May 16 04:02:21 appnode3 atomic-openshift-node[34418]: W0516 04:02:21.312881   34418 cni.go:171] Unable to update cni config
May 16 04:02:21 appnode3 atomic-openshift-node[34418]: I0516 04:02:21.313063   34418 node.go:294] Starting openshift-sdn net
May 16 04:02:21 appnode3 atomic-openshift-node[34418]: I0516 04:02:21.318907   34418 server.go:236] Version: v1.9.1+a0ce1bc6
May 16 04:02:21 appnode3 atomic-openshift-node[34418]: I0516 04:02:21.319025   34418 feature_gate.go:220] feature gates: &{{
May 16 04:02:21 appnode3 atomic-openshift-node[34418]: W0516 04:02:21.319161   34418 server.go:334] --require-kubeconfig is
May 16 04:02:21 appnode3 atomic-openshift-node[34418]: I0516 04:02:21.319177   34418 plugins.go:101] No cloud provider speci
May 16 04:02:21 appnode3 atomic-openshift-node[34418]: I0516 04:02:21.319189   34418 server.go:357] No cloud provider specif
May 16 04:02:21 appnode3 atomic-openshift-node[34418]: I0516 04:02:21.327437   34418 manager.go:151] cAdvisor running in con
May 16 04:02:21 appnode3 atomic-openshift-node[34418]: I0516 04:02:21.329548   34418 fs.go:140] Filesystem UUIDs: map[7530db
May 16 04:02:21 appnode3 atomic-openshift-node[34418]: I0516 04:02:21.329578   34418 fs.go:141] Filesystem partitions: map[t
May 16 04:02:21 appnode3 atomic-openshift-node[34418]: I0516 04:02:21.333411   34418 manager.go:225] Machine: {NumCores:8 Cp
May 16 04:02:21 appnode3 atomic-openshift-node[34418]: I0516 04:02:21.333872   34418 manager.go:231] Version: {KernelVersion
May 16 04:02:21 appnode3 atomic-openshift-node[34418]: I0516 04:02:21.334530   34418 server.go:482] --cgroups-per-qos enable
May 16 04:02:21 appnode3 atomic-openshift-node[34418]: I0516 04:02:21.334927   34418 container_manager_linux.go:242] contain
May 16 04:02:21 appnode3 atomic-openshift-node[34418]: I0516 04:02:21.334944   34418 container_manager_linux.go:247] Creatin
May 16 04:02:21 appnode3 atomic-openshift-node[34418]: I0516 04:02:21.335110   34418 container_manager_linux.go:266] Creatin
May 16 04:02:21 appnode3 atomic-openshift-node[34418]: I0516 04:02:21.335171   34418 server.go:756] Using root directory: /v
May 16 04:02:21 appnode3 atomic-openshift-node[34418]: I0516 04:02:21.335224   34418 kubelet.go:314] Watching apiserver
May 16 04:02:21 appnode3 atomic-openshift-node[34418]: W0516 04:02:21.339584   34418 kubelet_network.go:139] Hairpin mode se
May 16 04:02:21 appnode3 atomic-openshift-node[34418]: I0516 04:02:21.339638   34418 kubelet.go:572] Hairpin mode set to "ha
May 16 04:02:21 appnode3 atomic-openshift-node[34418]: W0516 04:02:21.339712   34418 cni.go:171] Unable to update cni config
May 16 04:02:21 appnode3 atomic-openshift-node[34418]: I0516 04:02:21.339729   34418 plugins.go:190] Loaded network plugin "
May 16 04:02:21 appnode3 atomic-openshift-node[34418]: I0516 04:02:21.339786   34418 client.go:80] Connecting to docker on u
May 16 04:02:21 appnode3 atomic-openshift-node[34418]: I0516 04:02:21.339800   34418 client.go:109] Start docker client with
May 16 04:02:21 appnode3 atomic-openshift-node[34418]: E0516 04:02:21.340002   34418 kube_docker_client.go:91] failed to ret
May 16 04:02:21 appnode3 atomic-openshift-node[34418]: W0516 04:02:21.340041   34418 kube_docker_client.go:92] Using empty v
May 16 04:02:21 appnode3 atomic-openshift-node[34418]: F0516 04:02:21.340244   34418 server.go:173] failed to run Kubelet: f
May 16 04:02:21 appnode3 systemd[1]: atomic-openshift-node.service: main process exited, code=exited, status=255/n/a
May 16 04:02:21 appnode3 dnsmasq[1567]: setting upstream servers from DBus
May 16 04:02:21 appnode3 dnsmasq[1567]: using nameserver 8.8.8.8#53
May 16 04:02:21 appnode3 systemd[1]: Failed to start OpenShift Node.
-- Subject: Unit atomic-openshift-node.service has failed
-- Defined-By: systemd
-- Support: http://lists.freedesktop.org/mailman/listinfo/systemd-devel
--
-- Unit atomic-openshift-node.service has failed.
--
-- The result is failed.
May 16 04:02:21 appnode3 dnsmasq[1567]: using nameserver 192.168.222.3#53
May 16 04:02:21 appnode3 systemd[1]: Unit atomic-openshift-node.service entered failed state.
May 16 04:02:21 appnode3 dbus[855]: [system] Rejected send message, 0 matched rules; type="method_return", sender=":1.18" (u
May 16 04:02:21 appnode3 systemd[1]: atomic-openshift-node.service failed.
lines 1814-1860/1860 (END)
-- Defined-By: systemd
-- Support: http://lists.freedesktop.org/mailman/listinfo/systemd-devel
--
-- Unit run-34436.scope has begun starting up.
May 16 04:02:21 appnode3 atomic-openshift-node[34418]: I0516 04:02:21.312692   3
May 16 04:02:21 appnode3 atomic-openshift-node[34418]: W0516 04:02:21.312881   3
May 16 04:02:21 appnode3 atomic-openshift-node[34418]: I0516 04:02:21.313063   3
May 16 04:02:21 appnode3 atomic-openshift-node[34418]: I0516 04:02:21.318907   3
May 16 04:02:21 appnode3 atomic-openshift-node[34418]: I0516 04:02:21.319025   3
May 16 04:02:21 appnode3 atomic-openshift-node[34418]: W0516 04:02:21.319161   3
May 16 04:02:21 appnode3 atomic-openshift-node[34418]: I0516 04:02:21.319177   3
May 16 04:02:21 appnode3 atomic-openshift-node[34418]: I0516 04:02:21.319189   3
May 16 04:02:21 appnode3 atomic-openshift-node[34418]: I0516 04:02:21.327437   3
May 16 04:02:21 appnode3 atomic-openshift-node[34418]: I0516 04:02:21.329548   3
May 16 04:02:21 appnode3 atomic-openshift-node[34418]: I0516 04:02:21.329578   3
May 16 04:02:21 appnode3 atomic-openshift-node[34418]: I0516 04:02:21.333411   3
May 16 04:02:21 appnode3 atomic-openshift-node[34418]: I0516 04:02:21.333872   3
May 16 04:02:21 appnode3 atomic-openshift-node[34418]: I0516 04:02:21.334530   3
May 16 04:02:21 appnode3 atomic-openshift-node[34418]: I0516 04:02:21.334927   3
May 16 04:02:21 appnode3 atomic-openshift-node[34418]: I0516 04:02:21.334944   3
May 16 04:02:21 appnode3 atomic-openshift-node[34418]: I0516 04:02:21.335110   3
May 16 04:02:21 appnode3 atomic-openshift-node[34418]: I0516 04:02:21.335171   3
May 16 04:02:21 appnode3 atomic-openshift-node[34418]: I0516 04:02:21.335224   3
lines 1814-1836/1860 99%
-- Defined-By: systemd
-- Support: http://lists.freedesktop.org/mailman/listinfo/systemd-devel
--
-- Unit run-34436.scope has begun starting up.
May 16 04:02:21 appnode3 atomic-openshift-node[34418]: I0516 04:02:21.312692
May 16 04:02:21 appnode3 atomic-openshift-node[34418]: W0516 04:02:21.312881
May 16 04:02:21 appnode3 atomic-openshift-node[34418]: I0516 04:02:21.313063
May 16 04:02:21 appnode3 atomic-openshift-node[34418]: I0516 04:02:21.318907
May 16 04:02:21 appnode3 atomic-openshift-node[34418]: I0516 04:02:21.319025
May 16 04:02:21 appnode3 atomic-openshift-node[34418]: W0516 04:02:21.319161
May 16 04:02:21 appnode3 atomic-openshift-node[34418]: I0516 04:02:21.319177
May 16 04:02:21 appnode3 atomic-openshift-node[34418]: I0516 04:02:21.319189
May 16 04:02:21 appnode3 atomic-openshift-node[34418]: I0516 04:02:21.327437
May 16 04:02:21 appnode3 atomic-openshift-node[34418]: I0516 04:02:21.329548
May 16 04:02:21 appnode3 atomic-openshift-node[34418]: I0516 04:02:21.329578
May 16 04:02:21 appnode3 atomic-openshift-node[34418]: I0516 04:02:21.333411
May 16 04:02:21 appnode3 atomic-openshift-node[34418]: I0516 04:02:21.333872
May 16 04:02:21 appnode3 atomic-openshift-node[34418]: I0516 04:02:21.334530
May 16 04:02:21 appnode3 atomic-openshift-node[34418]: I0516 04:02:21.334927
May 16 04:02:21 appnode3 atomic-openshift-node[34418]: I0516 04:02:21.334944
May 16 04:02:21 appnode3 atomic-openshift-node[34418]: I0516 04:02:21.335110
May 16 04:02:21 appnode3 atomic-openshift-node[34418]: I0516 04:02:21.335171
May 16 04:02:21 appnode3 atomic-openshift-node[34418]: I0516 04:02:21.335224
May 16 04:02:21 appnode3 atomic-openshift-node[34418]: W0516 04:02:21.339584
May 16 04:02:21 appnode3 atomic-openshift-node[34418]: I0516 04:02:21.339638
May 16 04:02:21 appnode3 atomic-openshift-node[34418]: W0516 04:02:21.339712
May 16 04:02:21 appnode3 atomic-openshift-node[34418]: I0516 04:02:21.339729
May 16 04:02:21 appnode3 atomic-openshift-node[34418]: I0516 04:02:21.339786
May 16 04:02:21 appnode3 atomic-openshift-node[34418]: I0516 04:02:21.339800
May 16 04:02:21 appnode3 atomic-openshift-node[34418]: E0516 04:02:21.340002
May 16 04:02:21 appnode3 atomic-openshift-node[34418]: W0516 04:02:21.340041
May 16 04:02:21 appnode3 atomic-openshift-node[34418]: F0516 04:02:21.340244
May 16 04:02:21 appnode3 systemd[1]: atomic-openshift-node.service: main proc
May 16 04:02:21 appnode3 dnsmasq[1567]: setting upstream servers from DBus
May 16 04:02:21 appnode3 dnsmasq[1567]: using nameserver 8.8.8.8#53
May 16 04:02:21 appnode3 systemd[1]: Failed to start OpenShift Node.
-- Subject: Unit atomic-openshift-node.service has failed
-- Defined-By: systemd
-- Support: http://lists.freedesktop.org/mailman/listinfo/systemd-devel
--
-- Unit atomic-openshift-node.service has failed.
--
-- The result is failed.
May 16 04:02:21 appnode3 dnsmasq[1567]: using nameserver 192.168.222.3#53
May 16 04:02:21 appnode3 systemd[1]: Unit atomic-openshift-node.service enter
May 16 04:02:21 appnode3 dbus[855]: [system] Rejected send message, 0 matched
May 16 04:02:21 appnode3 systemd[1]: atomic-openshift-node.service failed.

[root@appnode3 ~]# systemctl status kubelet
Unit kubelet.service could not be found.
[root@appnode3 ~]# systemctl status kubelet.service
Unit kubelet.service could not be found.
[root@appnode3 ~]#
