login as: root
root@192.168.225.121's password:
Last login: Wed Jun  5 06:46:59 2019 from 192.168.225.253
[root@appnode2 ~]# vi /var/log
[root@appnode2 ~]# vi /var/log/openshift
[root@appnode2 ~]# cd /var/log
[root@appnode2 log]# ls
anaconda           cron-20190512          maillog-20190519    secure
audit              cron-20190519          maillog-20190526    secure-20190512
boot.log           cron-20190526          maillog-20190602    secure-20190519
boot.log-20190516  cron-20190602          messages            secure-20190526
boot.log-20190521  dmesg                  messages-20190512   secure-20190602
boot.log-20190527  dmesg.old              messages-20190519   spooler
boot.log-20190528  es-containers.log.pos  messages-20190526   spooler-20190512
boot.log-20190529  firewalld              messages-20190602   spooler-20190519
boot.log-20190601  glusterfs              openshift           spooler-20190526
boot.log-20190603  grubby                 openshift-20190605  spooler-20190602
btmp               grubby_prune_debug     openshift-20190606  tallylog
btmp-20190601      journal                openvswitch         tuned
ceph               journal.pos            pods                wtmp
chrony             lastlog                rhsm                yum.log
containers         maillog                rmlog20190415.log   yum.log-20190101
cron               maillog-20190512       samba               yum.log-20190330
[root@appnode2 log]# tail -f openshift
Jun  6 04:41:16 appnode2 atomic-openshift-node: I0606 04:41:16.605050    2451 ku                                                                             belet.go:1853] SyncLoop (DELETE, "api"): "zurich-mobile-api-31-tzcrc_zurich-demo                                                                             (85020f0e-8551-11e9-888d-00155ddeb901)"
Jun  6 04:41:16 appnode2 atomic-openshift-node: I0606 04:41:16.609389    2451 ku                                                                             belet.go:1847] SyncLoop (REMOVE, "api"): "zurich-mobile-api-31-tzcrc_zurich-demo                                                                             (85020f0e-8551-11e9-888d-00155ddeb901)"
Jun  6 04:41:16 appnode2 atomic-openshift-node: I0606 04:41:16.609446    2451 ku                                                                             belet.go:2041] Failed to delete pod "zurich-mobile-api-31-tzcrc_zurich-demo(8502                                                                             0f0e-8551-11e9-888d-00155ddeb901)", err: pod not found
Jun  6 04:41:29 appnode2 dnsmasq[1515]: setting upstream servers from DBus
Jun  6 04:41:29 appnode2 dnsmasq[1515]: using nameserver 8.8.8.8#53
Jun  6 04:41:29 appnode2 dnsmasq[1515]: using nameserver 192.168.222.3#53
Jun  6 04:41:29 appnode2 dnsmasq[1515]: using nameserver 127.0.0.1#53 for domain                                                                              in-addr.arpa
Jun  6 04:41:29 appnode2 dnsmasq[1515]: using nameserver 127.0.0.1#53 for domain                                                                              cluster.local
Jun  6 04:41:29 appnode2 dockerd-current: time="2019-06-06T04:41:29.689268679-04                                                                             :00" level=error msg="Handler for POST /v1.26/containers/32e782c2bda319010ef022e                                                                             2f44f7b47da0721edfd0cdf164a6a0138aef00074/stop?t=10 returned error: Container 32                                                                             e782c2bda319010ef022e2f44f7b47da0721edfd0cdf164a6a0138aef00074 is already stoppe                                                                             d"
Jun  6 04:41:29 appnode2 dockerd-current: time="2019-06-06T04:41:29.689611376-04                                                                             :00" level=error msg="Handler for POST /v1.26/containers/32e782c2bda319010ef022e                                                                             2f44f7b47da0721edfd0cdf164a6a0138aef00074/stop returned error: Container 32e782c                                                                             2bda319010ef022e2f44f7b47da0721edfd0cdf164a6a0138aef00074 is already stopped"
Jun  6 04:41:47 appnode2 atomic-openshift-node: I0606 04:41:47.835115    2451 kuberuntime_container.go:581] Killing container "docker://a3fd396f0a9ad35fd175fa4737791756c4286a13736cf2380679df5a971d6775" with 30 second grace period
Jun  6 04:41:47 appnode2 dockerd-current: time="2019-06-06T04:41:47.837397434-04:00" level=warning msg="container kill failed because of 'container not found' or 'no such process': Cannot kill container a3fd396f0a9ad35fd175fa4737791756c4286a13736cf2380679df5a971d6775: rpc error: code = 2 desc = containerd: container not found"
Jun  6 04:41:59 appnode2 dnsmasq[1515]: setting upstream servers from DBus
Jun  6 04:41:59 appnode2 dnsmasq[1515]: using nameserver 8.8.8.8#53
Jun  6 04:41:59 appnode2 dnsmasq[1515]: using nameserver 192.168.222.3#53
Jun  6 04:41:59 appnode2 dnsmasq[1515]: using nameserver 127.0.0.1#53 for domain in-addr.arpa
Jun  6 04:41:59 appnode2 dnsmasq[1515]: using nameserver 127.0.0.1#53 for domain cluster.local
Jun  6 04:41:59 appnode2 atomic-openshift-node: I0606 04:41:59.813855    2451 container_manager_linux.go:425] [ContainerManager]: Discovered runtime cgroups name: /system.slice/docker.service
Jun  6 04:42:17 appnode2 dockerd-current: time="2019-06-06T04:42:17.837657398-04:00" level=info msg="Container a3fd396f0a9ad35fd175fa4737791756c4286a13736cf2380679df5a971d6775 failed to exit within 30 seconds of signal 15 - using the force"
Jun  6 04:42:17 appnode2 dockerd-current: time="2019-06-06T04:42:17.838804788-04:00" level=warning msg="container kill failed because of 'container not found' or 'no such process': Cannot kill container a3fd396f0a9ad35fd175fa4737791756c4286a13736cf2380679df5a971d6775: rpc error: code = 2 desc = containerd: container not found"
^C
[root@appnode2 log]#
