{
  "host": {
    "path"        : "https://stress.ease-sit.intraeab",
    "port"        : "3000",
    "socket"      : "ws://stress.ease-sit.intraeab",
    "saml"        : "",
    "api"         : "http://ease-api:8080/ease-api" 
  },
  "redis": {
    "path"        : "redis",
    "port"        : 6379
  },
  "sg": {
    "path"        : "openshift-nginx",
    "port"        : "4984",
    "name"        : "axasgsit",
    "user"        : "easeWeb",
    "pw"          : "ABC1234"
  },
  "signdoc": {
    "host"        : "stress.ease-sit.intraeab",
    "postUrl"     : "https://stress.ease-sit.intraeab/sdweb/load/byurl",
    "getPdf"      : "http://ease-web-stress:3000/getAttachmentPdf",
    "resultUrl"   : "https://ease-sit-stress.intraeab/getSignDocResult",
    "dmsid"       : "de.softpro.sdweb.plugins.impl.ServletDms"
  }
}