﻿#Software: Microsoft Exchange Server
#Version: 15.01.1591.008
#Log-type: Message Tracking Log
#Date: 2019-12-23T06:01:43.155Z
#Fields: date-time,client-ip,client-hostname,server-ip,server-hostname,source-context,connector-id,source,event-id,internal-message-id,message-id,network-message-id,recipient-address,recipient-status,total-bytes,recipient-count,related-recipient-address,reference,message-subject,sender-address,return-path,message-info,directionality,tenant-id,original-client-ip,original-server-ip,custom-data,transport-traffic-type,log-id,schema-version
2019-12-23T06:01:43.155Z,,,,EABEXH-0,"EABEXH-1.eastpro.com.hk=250 2.6.0 <206041ad1c894bfb82be098c5a33555f@eabsystems.com> [InternalId=46952582479874, Hostname=EABEXH-1.eastpro.com.hk] Queued mail for redundancy",,SMTP,HAREDIRECT,29583734734849,<206041ad1c894bfb82be098c5a33555f@eabsystems.com>,41d858c3-a6a0-4abc-dabd-08d7876d95c4,amy.chongwc@axa.com.sg,,12941,1,,,Accepted: EASE excel PI walkthrough and updates.,johann.ruffie@eabsystems.com,johann.ruffie@eabsystems.com,,Originating,,,,S:DeliveryPriority=Normal;S:AccountForest=eastpro.com.hk,Email,78a7eca4-92e5-4f00-f665-08d7876d95da,15.01.1591.008
2019-12-23T06:01:43.172Z,192.168.225.100,EABEXH-0.eastpro.com.hk,192.168.225.100,EABEXH-0,08D6F39EA80231F3;2019-12-23T06:01:43.012Z;0,EABEXH-0\Default EABEXH-0,SMTP,RECEIVE,29583734734849,<206041ad1c894bfb82be098c5a33555f@eabsystems.com>,41d858c3-a6a0-4abc-dabd-08d7876d95c4,amy.chongwc@axa.com.sg,,12941,1,,,Accepted: EASE excel PI walkthrough and updates.,johann.ruffie@eabsystems.com,johann.ruffie@eabsystems.com,0cI: ,Originating,,172.168.11.116,fe80::a8b1:35d0:6f77:8b24%18,S:MessageValue=MediumHigh;S:Replication=EABEXH-1;S:FirstForestHop=EABEXH-0.eastpro.com.hk;S:FromEntity=Hosted;S:DeliveryPriority=Normal;S:AccountForest=eastpro.com.hk,Email,51cb3891-b8c4-4c7b-9360-08d7876d95dd,15.01.1591.008
2019-12-23T06:01:43.277Z,,EABEXH-0,,,CatContentConversion,,AGENT,AGENTINFO,29583734734849,<206041ad1c894bfb82be098c5a33555f@eabsystems.com>,41d858c3-a6a0-4abc-dabd-08d7876d95c4,amy.chongwc@axa.com.sg,,13316,1,,,Accepted: EASE excel PI walkthrough and updates.,johann.ruffie@eabsystems.com,johann.ruffie@eabsystems.com,,Originating,,172.168.11.116,fe80::a8b1:35d0:6f77:8b24%18,"S:TRA=ETRP|ruleId=3d196e10-3051-4d81-98e8-540c1d73b2b7|st=2019-08-01T05:56:52.0000000Z|ExecW=0|ExecC=0|Conditions=ISUP,M.F,0;'S:TRA=ETRP|ruleId=35df5384-41d1-45a5-9e3c-bf0852d2bec2|st=2019-05-29T03:05:50.0000000Z|ExecW=11|ExecC=0|Conditions=CP,M.S,0;CP,M.B,0|Components=FIPS_TE,0,11';S:TRA=ETRP|ruleId=a858246b-82ba-4b8b-a6cb-0695ab00fba9|st=2019-10-10T11:18:22.0000000Z|ExecW=0|ExecC=0|Conditions=IP,F,0;S:TRA=ETRI|MsgType=SummaryTnef|Ex=|IsKnown=|FipsStatus=Success|AttchUns=|ceErr=|Synth=False-Na-;S:DeliveryPriority=Normal;S:AccountForest=eastpro.com.hk",Email,875b37aa-7dec-48d0-9dd5-08d7876d95ed,15.01.1591.008
2019-12-23T06:01:43.285Z,,,,EABEXH-0,ContentConversion,,ROUTING,TRANSFER,29583734734850,<206041ad1c894bfb82be098c5a33555f@eabsystems.com>,41d858c3-a6a0-4abc-dabd-08d7876d95c4,amy.chongwc@axa.com.sg,,7379,1,,29583734734849,Accepted: EASE excel PI walkthrough and updates.,johann.ruffie@eabsystems.com,johann.ruffie@eabsystems.com,,Originating,,,,S:DeliveryPriority=Normal;S:AccountForest=eastpro.com.hk,Email,07917787-4b97-4baf-cc72-08d7876d95ee,15.01.1591.008
2019-12-23T06:01:46.416Z,192.168.225.100,EABEXH-0,185.132.180.43,mxa-00181c02.gslb.pphosted.com,;250 2.0.0 2x1pv400aq-1 Message accepted for delivery;ClientSubmitTime:,Send to External,SMTP,SENDEXTERNAL,29583734734850,<206041ad1c894bfb82be098c5a33555f@eabsystems.com>,41d858c3-a6a0-4abc-dabd-08d7876d95c4,amy.chongwc@axa.com.sg,250 2.1.5 Recipient ok,7626,1,,,Accepted: EASE excel PI walkthrough and updates.,johann.ruffie@eabsystems.com,johann.ruffie@eabsystems.com,2019-12-23T06:01:42.750Z;SRV=EABEXH-0.eastpro.com.hk:TOTAL-SUB=0.274|SA=0.199|MTSS-PEN=0.075(MTSSD-PEN=0.071(MTSSDA=0.006|MTSSDC=0.018|SDSSO-PEN=0.014 (SMSC=0.010|MTSSDM-PEN=0.003)));SRV=EABEXH-0.eastpro.com.hk:TOTAL-HUB=3.393|SMR=0.151(SMRDI=0.005|SMRC=0.145(SMRCL=0.121|X-SMRCR=0.142))|CAT=0.114(CATOS=0.074(CATSM=0.074(CATSM-SMSMSERoutingAgent=0.072))|CATORES=0.020(CATRS=0.020(CATRS-Transport Rule Agent=0.012(X-ETREX=0.012)|CATRS-Index Routing Agent=0.006))|CATORT=0.008(CATRT=0.008(CATRT-Journal Agent=0.007))|CATCC=0.008)|QDE=0.242|SMSC=1.789(X-SMSDR=0.240)|SMS=1.119,Originating,,,,S:E2ELatency=3.666;S:ExternalSendLatency=0.538;S:ToEntity=Internet;S:FromEntity=Hosted;S:MsgRecipCount=1;S:IncludeInSla=True;S:Microsoft.Exchange.Transport.MailRecipient.RequiredTlsAuthLevel=Opportunistic;S:Microsoft.Exchange.Transport.MailRecipient.EffectiveTlsAuthLevel=EncryptionOnly;S:IsSmtpResponseFromExternalServer=True;S:DeliveryPriority=Normal;S:AccountForest=eastpro.com.hk,Email,87e675fd-0bd4-4d4b-85db-08d7876d97cc,15.01.1591.008
2019-12-23T06:06:34.177Z,,,,EABEXH-0,"EABEXH-1.eastpro.com.hk=250 2.6.0 <d2bf2f3c10194fef894889f0a58965c5@eabsystems.com> [InternalId=46952582479877, Hostname=EABEXH-1.eastpro.com.hk] Queued mail for redundancy",,SMTP,HAREDIRECT,29583734734851,<d2bf2f3c10194fef894889f0a58965c5@eabsystems.com>,a8534816-c343-405c-ba9c-08d7876e4336,winkie.ng@axa.com.hk;andy.yung@axa.com.hk;paul.ho@axa.com.hk;karen.lee@axa.com.hk,,119209,4,,,RE: [New saving plan] data patch to Quote history,tony.tsoi@eabsystems.com,tony.tsoi@eabsystems.com,,Originating,,,,S:DeliveryPriority=Normal;S:AccountForest=eastpro.com.hk,Email,582f480d-30c1-4f00-5d9f-08d7876e4351,15.01.1591.008
2019-12-23T06:06:34.191Z,192.168.225.100,EABEXH-0.eastpro.com.hk,192.168.225.100,EABEXH-0,08D6F39EA80231FD;2019-12-23T06:06:34.012Z;0,EABEXH-0\Default EABEXH-0,SMTP,RECEIVE,29583734734851,<d2bf2f3c10194fef894889f0a58965c5@eabsystems.com>,a8534816-c343-405c-ba9c-08d7876e4336,winkie.ng@axa.com.hk;andy.yung@axa.com.hk;paul.ho@axa.com.hk;karen.lee@axa.com.hk,,119209,4,,,RE: [New saving plan] data patch to Quote history,tony.tsoi@eabsystems.com,tony.tsoi@eabsystems.com,0cI: ,Originating,,192.168.223.110,169.254.1.171,S:MessageValue=MediumHigh;S:Replication=EABEXH-1;S:FirstForestHop=EABEXH-0.eastpro.com.hk;S:FromEntity=Hosted;S:DeliveryPriority=Normal;S:AccountForest=eastpro.com.hk,Email,a05df9a9-5a83-4d59-7e96-08d7876e4353,15.01.1591.008
2019-12-23T06:06:34.492Z,,EABEXH-0,,,CatContentConversion,,AGENT,AGENTINFO,29583734734851,<d2bf2f3c10194fef894889f0a58965c5@eabsystems.com>,a8534816-c343-405c-ba9c-08d7876e4336,winkie.ng@axa.com.hk;andy.yung@axa.com.hk;paul.ho@axa.com.hk;karen.lee@axa.com.hk,,119599,4,,,RE: [New saving plan] data patch to Quote history,tony.tsoi@eabsystems.com,tony.tsoi@eabsystems.com,,Originating,,192.168.223.110,169.254.1.171,"S:TRA=ETRP|ruleId=3d196e10-3051-4d81-98e8-540c1d73b2b7|st=2019-08-01T05:56:52.0000000Z|ExecW=0|ExecC=0|Conditions=ISUP,M.F,0;'S:TRA=ETRP|ruleId=35df5384-41d1-45a5-9e3c-bf0852d2bec2|st=2019-05-29T03:05:50.0000000Z|ExecW=45|ExecC=0|Conditions=CP,M.S,0;CP,M.B,1|Components=FIPS_TE,0,44';'S:TRA=ETRP|ruleId=a858246b-82ba-4b8b-a6cb-0695ab00fba9|st=2019-10-10T11:18:22.0000000Z|ExecW=0|ExecC=0|Conditions=IP,F,0;IP,F,0;IP,F,0;IP,F,0';S:TRA=ETRI|MsgType=SummaryTnef|Ex=|IsKnown=|FipsStatus=Success|AttchUns=|ceErr=|Synth=False-Na-;S:DeliveryPriority=Normal;S:AccountForest=eastpro.com.hk",Email,85fab75f-8207-4b1b-7569-08d7876e4381,15.01.1591.008
2019-12-23T06:06:34.518Z,,,,EABEXH-0,ContentConversion,,ROUTING,TRANSFER,29583734734852,<d2bf2f3c10194fef894889f0a58965c5@eabsystems.com>,a8534816-c343-405c-ba9c-08d7876e4336,winkie.ng@axa.com.hk;andy.yung@axa.com.hk;paul.ho@axa.com.hk;karen.lee@axa.com.hk,;;;,151270,4,,29583734734851,RE: [New saving plan] data patch to Quote history,tony.tsoi@eabsystems.com,tony.tsoi@eabsystems.com,,Originating,,,,S:DeliveryPriority=Normal;S:AccountForest=eastpro.com.hk,Email,0b1ae83c-0aea-44ec-6a6e-08d7876e4385,15.01.1591.008
2019-12-23T06:06:40.012Z,192.168.225.100,EABEXH-0,185.183.28.15,mxa-00181c02.gslb.pphosted.com,;250 2.0.0 2x1csdjvup-1 Message accepted for delivery;ClientSubmitTime:,Send to External,SMTP,SENDEXTERNAL,29583734734852,<d2bf2f3c10194fef894889f0a58965c5@eabsystems.com>,a8534816-c343-405c-ba9c-08d7876e4336,winkie.ng@axa.com.hk;andy.yung@axa.com.hk;paul.ho@axa.com.hk;karen.lee@axa.com.hk,250 2.1.5 Recipient ok;250 2.1.5 Recipient ok;250 2.1.5 Recipient ok;250 2.1.5 Recipient ok,151538,4,,;;;,RE: [New saving plan] data patch to Quote history,tony.tsoi@eabsystems.com,tony.tsoi@eabsystems.com,2019-12-23T06:06:33.780Z;SRV=EABEXH-0.eastpro.com.hk:TOTAL-SUB=0.247|SA=0.152|MTSS-PEN=0.096(MTSSD-PEN=0.096(MTSSDA=0.003|MTSSDC=0.047|SDSSO-PEN=0.024 (SMSC=0.009(X-SMSDR=0.006)|MTSSDM-PEN=0.006)));SRV=EABEXH-0.eastpro.com.hk:TOTAL-HUB=5.990|SMR=0.168(SMRDI=0.008|SMRC=0.159(SMRCL=0.159|X-SMRCR=0.145))|CAT=0.329(CATOS=0.200(CATSM=0.200(CATSM-SMSMSERoutingAgent=0.197))|CATRESL=0.001|CATORES=0.095(CATRS=0.095(CATRS-Transport Rule Agent=0.046(X-ETREX=0.046)|CATRS-Index Routing Agent=0.046))|CATORT=0.003(CATRT=0.003(CATRT-RMS Encryption Agent=0.003))|CATCC=0.026)|QDE=0.700|SMSC=2.530(X-SMSDR=0.697)|SMS=2.274,Originating,,,,S:E2ELatency=6.233;S:ExternalSendLatency=0.741;S:ToEntity=Internet;S:FromEntity=Hosted;S:MsgRecipCount=4;S:IncludeInSla=True;S:Microsoft.Exchange.Transport.MailRecipient.RequiredTlsAuthLevel=Opportunistic;S:Microsoft.Exchange.Transport.MailRecipient.EffectiveTlsAuthLevel=EncryptionOnly;S:IsSmtpResponseFromExternalServer=True;S:DeliveryPriority=Normal;S:AccountForest=eastpro.com.hk,Email,2cb72b0d-c870-4d36-ccf9-08d7876e46cb,15.01.1591.008
2019-12-23T06:07:18.705Z,,,,EABEXH-0,"EABEXH-1.eastpro.com.hk=250 2.6.0 <450734975c2645c197f2ed2b611b65c8@eabsystems.com> [InternalId=46952582479878, Hostname=EABEXH-1.eastpro.com.hk] Queued mail for redundancy",,SMTP,HAREDIRECT,29583734734853,<450734975c2645c197f2ed2b611b65c8@eabsystems.com>,eeb15d0c-0416-4cfc-9bef-08d7876e5dc0,kelly.chan@eabsystems.com;li.zhixun@eabsystems.com,,187148,2,,,RE: PruShield - Payment UI,Hong.Pei@eabsystems.com,Hong.Pei@eabsystems.com,,Originating,,,,S:DeliveryPriority=Normal;S:AccountForest=eastpro.com.hk,Email,ad65574a-789d-43a9-d886-08d7876e5ddb,15.01.1591.008
2019-12-23T06:07:18.705Z,192.168.225.100,EABEXH-0.eastpro.com.hk,192.168.225.100,EABEXH-0,08D6F39EA8023200;2019-12-23T06:07:18.530Z;0,EABEXH-0\Default EABEXH-0,SMTP,RECEIVE,29583734734853,<450734975c2645c197f2ed2b611b65c8@eabsystems.com>,eeb15d0c-0416-4cfc-9bef-08d7876e5dc0,kelly.chan@eabsystems.com;li.zhixun@eabsystems.com,,187148,2,,,RE: PruShield - Payment UI,Hong.Pei@eabsystems.com,Hong.Pei@eabsystems.com,0cI: ,Originating,,10.0.0.68,fe80::a8b1:35d0:6f77:8b24%18,S:MessageValue=MediumHigh;S:Replication=EABEXH-1;S:FirstForestHop=EABEXH-0.eastpro.com.hk;S:FromEntity=Hosted;S:DeliveryPriority=Normal;S:AccountForest=eastpro.com.hk,Email,1a209425-b0c8-42d1-d886-08d7876e5ddb,15.01.1591.008
2019-12-23T06:07:18.964Z,,EABEXH-0,,,CatContentConversion,,AGENT,AGENTINFO,29583734734853,<450734975c2645c197f2ed2b611b65c8@eabsystems.com>,eeb15d0c-0416-4cfc-9bef-08d7876e5dc0,kelly.chan@eabsystems.com;li.zhixun@eabsystems.com,,187523,2,,,RE: PruShield - Payment UI,Hong.Pei@eabsystems.com,Hong.Pei@eabsystems.com,,Originating,,10.0.0.68,fe80::a8b1:35d0:6f77:8b24%18,"S:TRA=ETRP|ruleId=3d196e10-3051-4d81-98e8-540c1d73b2b7|st=2019-08-01T05:56:52.0000000Z|ExecW=0|ExecC=0|Conditions=ISUP,M.F,0;'S:TRA=ETRP|ruleId=35df5384-41d1-45a5-9e3c-bf0852d2bec2|st=2019-05-29T03:05:50.0000000Z|ExecW=53|ExecC=0|Conditions=CP,M.S,0;CP,M.B,0|Components=FIPS_TE,0,52';'S:TRA=ETRP|ruleId=a858246b-82ba-4b8b-a6cb-0695ab00fba9|st=2019-10-10T11:18:22.0000000Z|ExecW=0|ExecC=0|Conditions=IP,F,0;IP,F,0';S:TRA=ETRI|MsgType=SummaryTnef|Ex=|IsKnown=|FipsStatus=Success|AttchUns=|ceErr=|Synth=False-Na-;S:DeliveryPriority=Normal;S:AccountForest=eastpro.com.hk",Email,00b943cb-d91f-4dd2-6b20-08d7876e5e03,15.01.1591.008
2019-12-23T06:07:19.273Z,192.168.225.100,EABEXH-0,192.168.225.100,EABEXH-0.eastpro.com.hk,;250 2.0.0 OK <450734975c2645c197f2ed2b611b65c8@eabsystems.com> [Hostname=EABEXH-0.eastpro.com.hk];ClientSubmitTime:2019-12-23T06:07:18.205Z,Intra-Organization SMTP Send Connector,SMTP,SEND,29583734734853,<450734975c2645c197f2ed2b611b65c8@eabsystems.com>,eeb15d0c-0416-4cfc-9bef-08d7876e5dc0,kelly.chan@eabsystems.com;li.zhixun@eabsystems.com,250 2.1.5 Recipient OK;250 2.1.5 Recipient OK,193276,2,,;,RE: PruShield - Payment UI,Hong.Pei@eabsystems.com,Hong.Pei@eabsystems.com,2019-12-23T06:07:18.215Z;LSRV=EABEXH-0.eastpro.com.hk:TOTAL-HUB=0.733|SMR=0.166(SMRDI=0.014|SMRC=0.151(SMRCL=0.142|X-SMRCR=0.151))|CAT=0.260(CATOS=0.148(CATSM=0.148(CATSM-RMS Decryption Agent=0.001|CATSM-SMSMSERoutingAgent=0.144|CATSM-RMS Encryption Agent=0.001))|CATRESL=0.001|CATORES=0.106(CATRS=0.105(CATRS-Transport Rule Agent=0.054(X-ETREX=0.054)|CATRS-Index Routing Agent=0.049))|CATORT=0.001(CATRT=0.001(CATRT-RMS Encryption Agent=0.001))|CATCC=0.001)|UNK=0.001|QDM=0.014|SMSC=0.007(X-SMSDR=0.014)|SMS=0.283(SMSMBXD=0.263),Originating,,,,S:E2ELatency=1.057;S:MsgRecipCount=2;S:IncludeInSla=True;S:Microsoft.Exchange.Transport.MailRecipient.RequiredTlsAuthLevel=Opportunistic;S:IsSmtpResponseFromExternalServer=False;S:DeliveryPriority=Normal;S:AccountForest=eastpro.com.hk,Email,4b38f9ed-95c6-4a52-730c-08d7876e5e32,15.01.1591.008
2019-12-23T06:08:07.015Z,,,,EABEXH-0,"EABEXH-1.eastpro.com.hk=250 2.6.0 <64c11cce-4150-48eb-89ec-ef7b4e8c5095@email.android.com> [InternalId=46952582479880, Hostname=EABEXH-1.eastpro.com.hk] Queued mail for redundancy",,SMTP,HAREDIRECT,29583734734854,<64c11cce-4150-48eb-89ec-ef7b4e8c5095@email.android.com>,92ca2dbf-7095-4432-26a2-08d7876e7a8b,kelvin.wong@eabsystems.com,,267117,1,,,Fwd: [Digital Platform] CMS Admin UI,keith.lam@eabsystems.com,keith.lam@eabsystems.com,,Originating,,,,S:DeliveryPriority=Normal;S:AccountForest=eastpro.com.hk,Email,772910af-5bfa-4e3b-4f0b-08d7876e7aa7,15.01.1591.008
2019-12-23T06:08:07.020Z,192.168.225.100,EABEXH-0.eastpro.com.hk,192.168.225.100,EABEXH-0,08D6F39EA8023206;2019-12-23T06:08:06.832Z;0,EABEXH-0\Default EABEXH-0,SMTP,RECEIVE,29583734734854,<64c11cce-4150-48eb-89ec-ef7b4e8c5095@email.android.com>,92ca2dbf-7095-4432-26a2-08d7876e7a8b,kelvin.wong@eabsystems.com,,267117,1,,,Fwd: [Digital Platform] CMS Admin UI,keith.lam@eabsystems.com,keith.lam@eabsystems.com,0cI: ,Originating,,fe80::a8b1:35d0:6f77:8b24,192.168.225.100,S:MessageValue=MediumHigh;S:Replication=EABEXH-1;S:FirstForestHop=EABEXH-0.eastpro.com.hk;S:FromEntity=Hosted;S:DeliveryPriority=Normal;S:AccountForest=eastpro.com.hk,Email,505dcb13-6d02-40db-11e1-08d7876e7aa8,15.01.1591.008
2019-12-23T06:08:07.843Z,,EABEXH-0,,,CatContentConversion,,AGENT,AGENTINFO,29583734734854,<64c11cce-4150-48eb-89ec-ef7b4e8c5095@email.android.com>,92ca2dbf-7095-4432-26a2-08d7876e7a8b,kelvin.wong@eabsystems.com,,267492,1,,,Fwd: [Digital Platform] CMS Admin UI,keith.lam@eabsystems.com,Keith.lam@eabsystems.com,,Originating,,fe80::a8b1:35d0:6f77:8b24,192.168.225.100,"S:TRA=ETRP|ruleId=3d196e10-3051-4d81-98e8-540c1d73b2b7|st=2019-08-01T05:56:52.0000000Z|ExecW=0|ExecC=0|Conditions=ISUP,M.F,0;'S:TRA=ETRP|ruleId=35df5384-41d1-45a5-9e3c-bf0852d2bec2|st=2019-05-29T03:05:50.0000000Z|ExecW=50|ExecC=15|Conditions=CP,M.S,0;CP,M.B,0|Components=FIPS_TE,0,48';S:TRA=ETRP|ruleId=a858246b-82ba-4b8b-a6cb-0695ab00fba9|st=2019-10-10T11:18:22.0000000Z|ExecW=0|ExecC=0|Conditions=IP,F,0;S:TRA=ETRI|MsgType=SummaryTnef|Ex=|IsKnown=|FipsStatus=Success|AttchUns=|ceErr=|Synth=False-Na-;S:DeliveryPriority=Normal;S:AccountForest=eastpro.com.hk",Email,b7646ca1-c78f-4b4c-ba41-08d7876e7b25,15.01.1591.008
2019-12-23T06:08:08.195Z,192.168.225.100,EABEXH-0,192.168.225.100,EABEXH-0.eastpro.com.hk,;250 2.0.0 OK <64c11cce-4150-48eb-89ec-ef7b4e8c5095@email.android.com> [Hostname=EABEXH-0.eastpro.com.hk];ClientSubmitTime:2019-12-23T06:08:06.666Z,Intra-Organization SMTP Send Connector,SMTP,SEND,29583734734854,<64c11cce-4150-48eb-89ec-ef7b4e8c5095@email.android.com>,92ca2dbf-7095-4432-26a2-08d7876e7a8b,kelvin.wong@eabsystems.com,250 2.1.5 Recipient OK,275713,1,,,Fwd: [Digital Platform] CMS Admin UI,keith.lam@eabsystems.com,Keith.lam@eabsystems.com,2019-12-23T06:08:06.669Z;LSRV=EABEXH-0.eastpro.com.hk:TOTAL-HUB=1.355|SMR=0.179(SMRDI=0.011|SMRC=0.168(SMRCL=0.167|X-SMRCR=0.162))|CAT=0.826(CATOS=0.703(CATSM=0.703(CATSM-RMS Decryption Agent=0.002|CATSM-SMSMSERoutingAgent=0.697|CATSM-RMS Encryption Agent=0.002))|CATRESL=0.002|CATORES=0.116(CATRS=0.115(CATRS-Prioritization Agent=0.001|CATRS-Transport Rule Agent=0.051(X-ETREX=0.051)|CATRS-Index Routing Agent=0.062))|CATORT=0.001(CATRT=0.001(CATRT-RMS Encryption Agent=0.001))|CATCC=0.001)|UNK=0.002|SMSC=0.010|SMS=0.338(SMSMBXD=0.328),Originating,,,,S:E2ELatency=1.527;S:MsgRecipCount=1;S:IncludeInSla=True;S:Microsoft.Exchange.Transport.MailRecipient.RequiredTlsAuthLevel=Opportunistic;S:IsSmtpResponseFromExternalServer=False;S:DeliveryPriority=Normal;S:AccountForest=eastpro.com.hk,Email,cf7a1129-5837-48fd-74b6-08d7876e7b5b,15.01.1591.008
2019-12-23T06:08:59.133Z,,eabexh-1.eastpro.com.hk,,EABEXH-0,e6a4aa6c-bfab-434a-bd53-c093e7ae58a8,,SMTP,HARECEIVE,29583734734855,<21307cbaba8548ca8bcfce850de85254@eabsystems.com>,5ffc10eb-f6c3-4827-9eed-08d7876e9993,eduardo.alde@axa.com.sg;kevin.liang@eabsystems.com;houxiao.shawn@axa.com.sg;aung.kyawsoe@axa.com.sg;bernadyn.cagampan@axa.com.sg;johann.ruffie@eabsystems.com;shaoxuan.luo@axa.com.sg;arne.ovesen@eabsystems.com;edsteve.seahxj@axa.com.sg,,66518,9,,,RE: [EXTERNAL] RE: RE: iOS Test on Monday,derek.yeung@eabsystems.com,derek.yeung@eabsystems.com,,Originating,,,,S:DeliveryPriority=Low;S:PrioritizationReason=ShadowRedundancy;S:AccountForest=eastpro.com.hk,Email,1fc3c901-001e-4c16-ff7d-08d7876e99b7,15.01.1591.008
2019-12-23T06:13:26.936Z,,eabexh-1.eastpro.com.hk,,EABEXH-0,e6a4aa6c-2d11-4625-8c5d-8b0f641b8c5c,,SMTP,HARECEIVE,29583734734856,<cc6cc21508f34a71b88a2820a1ad0770@eabsystems.com>,7805e0d2-a7f7-4789-7dd9-08d7876f3937,tan.jianfeng@eabsystems.com,,45561,1,,,RE: SZ reporting of WO / Int Proj status,raymond.ng@eabsystems.com,raymond.ng@eabsystems.com,,Originating,,,,S:DeliveryPriority=Low;S:PrioritizationReason=ShadowRedundancy;S:AccountForest=eastpro.com.hk,Email,6b9cc313-9ccf-4acd-5d05-08d7876f3957,15.01.1591.008
2019-12-23T06:15:35.507Z,,,,EABEXH-0,"EABEXH-1.eastpro.com.hk=250 2.6.0 <e7c3c4509de24625b5e53927f49188a5@eabsystems.com> [InternalId=46952582479886, Hostname=EABEXH-1.eastpro.com.hk] Queued mail for redundancy",,SMTP,HAREDIRECT,29583734734857,<e7c3c4509de24625b5e53927f49188a5@eabsystems.com>,18494ae8-7309-4228-7d12-08d7876f85de,mandysm.chan@ftlife.com.hk;karen.wong@ftlife.com.hk;irene.cheng@ftlife.com.hk,,38880,3,,,RE: todo overdue logic,derek.yeung@eabsystems.com,derek.yeung@eabsystems.com,,Originating,,,,S:DeliveryPriority=Normal;S:AccountForest=eastpro.com.hk,Email,b1071188-a866-458e-bbc0-08d7876f85f9,15.01.1591.008
2019-12-23T06:15:35.508Z,192.168.225.100,EABEXH-0.eastpro.com.hk,192.168.225.100,EABEXH-0,08D6F39EA8023217;2019-12-23T06:15:35.330Z;0,EABEXH-0\Default EABEXH-0,SMTP,RECEIVE,29583734734857,<e7c3c4509de24625b5e53927f49188a5@eabsystems.com>,18494ae8-7309-4228-7d12-08d7876f85de,mandysm.chan@ftlife.com.hk;karen.wong@ftlife.com.hk;irene.cheng@ftlife.com.hk,,38880,3,,,RE: todo overdue logic,derek.yeung@eabsystems.com,derek.yeung@eabsystems.com,0cI: ,Originating,,192.168.223.176,fe80::d029:dd94:46c8:5607%4,S:MessageValue=MediumHigh;S:Replication=EABEXH-1;S:FirstForestHop=EABEXH-0.eastpro.com.hk;S:FromEntity=Hosted;S:DeliveryPriority=Normal;S:AccountForest=eastpro.com.hk,Email,e3f39d0f-1655-4b1b-e2b6-08d7876f85f9,15.01.1591.008
2019-12-23T06:15:35.625Z,,EABEXH-0,,,CatContentConversion,,AGENT,AGENTINFO,29583734734857,<e7c3c4509de24625b5e53927f49188a5@eabsystems.com>,18494ae8-7309-4228-7d12-08d7876f85de,mandysm.chan@ftlife.com.hk;karen.wong@ftlife.com.hk;irene.cheng@ftlife.com.hk,,39255,3,,,RE: todo overdue logic,derek.yeung@eabsystems.com,derek.yeung@eabsystems.com,,Originating,,192.168.223.176,fe80::d029:dd94:46c8:5607%4,"S:TRA=ETRP|ruleId=3d196e10-3051-4d81-98e8-540c1d73b2b7|st=2019-08-01T05:56:52.0000000Z|ExecW=0|ExecC=0|Conditions=ISUP,M.F,0;'S:TRA=ETRP|ruleId=35df5384-41d1-45a5-9e3c-bf0852d2bec2|st=2019-05-29T03:05:50.0000000Z|ExecW=35|ExecC=0|Conditions=CP,M.S,0;CP,M.B,1|Components=FIPS_TE,0,35';'S:TRA=ETRP|ruleId=a858246b-82ba-4b8b-a6cb-0695ab00fba9|st=2019-10-10T11:18:22.0000000Z|ExecW=0|ExecC=0|Conditions=IP,F,0;IP,F,0;IP,F,0';S:TRA=ETRI|MsgType=SummaryTnef|Ex=|IsKnown=|FipsStatus=Success|AttchUns=|ceErr=|Synth=False-Na-;S:DeliveryPriority=Normal;S:AccountForest=eastpro.com.hk",Email,87345a22-8acf-49e7-d897-08d7876f860b,15.01.1591.008
2019-12-23T06:15:35.783Z,,,,EABEXH-0,ContentConversion,,ROUTING,TRANSFER,29583734734858,<e7c3c4509de24625b5e53927f49188a5@eabsystems.com>,18494ae8-7309-4228-7d12-08d7876f85de,mandysm.chan@ftlife.com.hk;karen.wong@ftlife.com.hk;irene.cheng@ftlife.com.hk,;;,43990,3,,29583734734857,RE: todo overdue logic,derek.yeung@eabsystems.com,derek.yeung@eabsystems.com,,Originating,,,,S:DeliveryPriority=Normal;S:AccountForest=eastpro.com.hk,Email,5658a420-56c3-48eb-e503-08d7876f8623,15.01.1591.008
2019-12-23T06:15:36.034Z,192.168.225.100,EABEXH-0,220.241.143.18,mx1.ftlife.com.hk,;250 2.0.0 Ok: queued as 88BA9265FF4_E005B8BF;ClientSubmitTime:,Send to External,SMTP,SENDEXTERNAL,29583734734858,<e7c3c4509de24625b5e53927f49188a5@eabsystems.com>,18494ae8-7309-4228-7d12-08d7876f85de,mandysm.chan@ftlife.com.hk;karen.wong@ftlife.com.hk;irene.cheng@ftlife.com.hk,250 2.1.5 Ok;250 2.1.5 Ok;250 2.1.5 Ok,44279,3,,;;,RE: todo overdue logic,derek.yeung@eabsystems.com,derek.yeung@eabsystems.com,2019-12-23T06:15:35.286Z;SRV=EABEXH-0.eastpro.com.hk:TOTAL-SUB=0.063|SA=0.009|MTSS-PEN=0.054(MTSSD-PEN=0.054(MTSSDA=0.012|MTSSDC=0.009|SDSSO-PEN=0.022 (SMSC=0.015|MTSSDM-PEN=0.006)));SRV=EABEXH-0.eastpro.com.hk:TOTAL-HUB=0.688|SMR=0.162(SMRDI=0.009|SMRC=0.152(SMRCL=0.124|X-SMRCR=0.150))|CAT=0.277(CATOS=0.036(CATSM=0.036(CATSM-SMSMSERoutingAgent=0.021|CATSM-Journal Agent=0.013))|CATRESL=0.001|CATORES=0.074(CATRS=0.074(CATRS-Transport Rule Agent=0.037(X-ETREX=0.036)|CATRS-Index Routing Agent=0.036))|CATORT=0.003(CATRT=0.003(CATRT-Journal Agent=0.003))|CATCC=0.157)|QDE=0.122|SMSC=0.091(X-SMSDR=0.121)|SMS=0.035,Originating,,,,S:E2ELatency=0.748;S:ExternalSendLatency=0.500;S:ToEntity=Internet;S:FromEntity=Hosted;S:MsgRecipCount=3;S:IncludeInSla=True;S:Microsoft.Exchange.Transport.MailRecipient.RequiredTlsAuthLevel=Opportunistic;S:Microsoft.Exchange.Transport.MailRecipient.EffectiveTlsAuthLevel=EncryptionOnly;S:IsSmtpResponseFromExternalServer=True;S:DeliveryPriority=Normal;S:AccountForest=eastpro.com.hk,Email,e371c07c-0975-4d9e-401f-08d7876f864a,15.01.1591.008
2019-12-23T06:18:54.765Z,,eabexh-1.eastpro.com.hk,,EABEXH-0,e6a4aa6c-c2d9-4168-ad7d-981e8603668c,,SMTP,HARECEIVE,29583734734859,<d95deba7e5b2449cb769f4ffbbc25be7@eabsystems.com>,1362fcd1-1c45-495c-e619-08d7876ffc9c,Joe.Jiang@eabsystems.com,,37930,1,,,RE: Timesheet (16 to 20-Dec) & Weekly Project Report,raymond.ng@eabsystems.com,raymond.ng@eabsystems.com,,Originating,,,,S:DeliveryPriority=Low;S:PrioritizationReason=ShadowRedundancy;S:AccountForest=eastpro.com.hk,Email,c607c98a-c217-4e26-3b5c-08d7876ffcbe,15.01.1591.008
2019-12-23T06:20:52.895Z,,eabexh-1.eastpro.com.hk,,EABEXH-0,e6a4aa6c-2c20-4f10-a7e5-60ccb42566c8,,SMTP,HARECEIVE,29583734734860,<c2131b841b1148e09873f1beea0a063b@eabsystems.com>,c41ceeb4-bdc3-415c-20fe-08d7877042fc,raymond.ng@eabsystems.com,,77100,1,,,RE: SZ reporting of WO / Int Proj status,tan.jianfeng@eabsystems.com,tan.jianfeng@eabsystems.com,,Originating,,,,S:DeliveryPriority=Low;S:PrioritizationReason=ShadowRedundancy;S:AccountForest=eastpro.com.hk,Email,f0fbf3cd-bc8c-432b-5af8-08d787704327,15.01.1591.008
2019-12-23T06:22:23.181Z,,eabexh-1.eastpro.com.hk,,EABEXH-0,e6a4aa6c-a84f-412b-911f-65d215725e95,,SMTP,HARECEIVE,29583734734861,<15357bc18e2d41e08f07c86a3eef70c6@eabsystems.com>,cbc3a963-b060-48e0-bbbc-08d7877078d5,jessika.lim@prudential.com.sg;sunento.agustiar@prudential.com.sg;Kong.Huay.Yaw@prudential.com.sg;anchal.tiwari@prudential.com.sg;Hong.Pei@eabsystems.com;li.zhixun@eabsystems.com,,36407,6,,,PACSSM-5277 PCI DSS - PruShield url_validation,kelly.chan@eabsystems.com,kelly.chan@eabsystems.com,,Originating,,,,S:DeliveryPriority=Low;S:PrioritizationReason=ShadowRedundancy;S:AccountForest=eastpro.com.hk,Email,fe059e16-a0a5-4db8-face-08d7877078f7,15.01.1591.008
2019-12-23T06:22:35.015Z,,,,EABEXH-0,"EABEXH-1.eastpro.com.hk=250 2.6.0 <42f7cb4a3fd145bdae20562a09159e7a@eabsystems.com> [InternalId=46952582479893, Hostname=EABEXH-1.eastpro.com.hk] Queued mail for redundancy",,SMTP,HAREDIRECT,29583734734862,<42f7cb4a3fd145bdae20562a09159e7a@eabsystems.com>,f349dd65-cc77-476a-57c1-08d787707fec,maggie.chen@eabsystems.com;peddi@eabsystems.com;cherrie.hung@eabsystems.com,,28404,3,,,RE: 24 Dec请无薪假一天,zheng.lifan@eabsystems.com,zheng.lifan@eabsystems.com,,Originating,,,,S:DeliveryPriority=Normal;S:AccountForest=eastpro.com.hk,Email,8531e07e-bd73-4c17-9bdb-08d787708005,15.01.1591.008
2019-12-23T06:22:35.043Z,192.168.225.100,EABEXH-0.eastpro.com.hk,192.168.225.100,EABEXH-0,08D6F39EA8023225;2019-12-23T06:22:34.852Z;0,EABEXH-0\Default EABEXH-0,SMTP,RECEIVE,29583734734862,<42f7cb4a3fd145bdae20562a09159e7a@eabsystems.com>,f349dd65-cc77-476a-57c1-08d787707fec,maggie.chen@eabsystems.com;peddi@eabsystems.com;cherrie.hung@eabsystems.com,,28404,3,,,RE: 24 Dec请无薪假一天,zheng.lifan@eabsystems.com,zheng.lifan@eabsystems.com,0cI: ,Originating,,10.0.0.152,fe80::d029:dd94:46c8:5607%4,S:MessageValue=MediumHigh;S:Replication=EABEXH-1;S:FirstForestHop=EABEXH-0.eastpro.com.hk;S:FromEntity=Hosted;S:DeliveryPriority=Normal;S:AccountForest=eastpro.com.hk,Email,e325d274-805f-4ee9-ded9-08d787708009,15.01.1591.008
2019-12-23T06:22:35.190Z,,EABEXH-0,,,CatContentConversion,,AGENT,AGENTINFO,29583734734862,<42f7cb4a3fd145bdae20562a09159e7a@eabsystems.com>,f349dd65-cc77-476a-57c1-08d787707fec,maggie.chen@eabsystems.com;peddi@eabsystems.com;cherrie.hung@eabsystems.com,,28779,3,,,RE: 24 Dec请无薪假一天,zheng.lifan@eabsystems.com,zheng.lifan@eabsystems.com,,Originating,,10.0.0.152,fe80::d029:dd94:46c8:5607%4,"S:TRA=ETRP|ruleId=3d196e10-3051-4d81-98e8-540c1d73b2b7|st=2019-08-01T05:56:52.0000000Z|ExecW=0|ExecC=0|Conditions=ISUP,M.F,0;'S:TRA=ETRP|ruleId=35df5384-41d1-45a5-9e3c-bf0852d2bec2|st=2019-05-29T03:05:50.0000000Z|ExecW=28|ExecC=0|Conditions=CP,M.S,0;CP,M.B,0|Components=FIPS_TE,0,28';'S:TRA=ETRP|ruleId=a858246b-82ba-4b8b-a6cb-0695ab00fba9|st=2019-10-10T11:18:22.0000000Z|ExecW=0|ExecC=0|Conditions=IP,F,0;IP,F,0;IP,F,0';S:TRA=ETRI|MsgType=SummaryTnef|Ex=|IsKnown=|FipsStatus=Success|AttchUns=|ceErr=|Synth=False-Na-;S:DeliveryPriority=Normal;S:AccountForest=eastpro.com.hk",Email,7e5c3349-18ff-4153-65b8-08d787708020,15.01.1591.008
2019-12-23T06:22:35.609Z,192.168.225.100,EABEXH-0,192.168.225.100,EABEXH-0.eastpro.com.hk,;250 2.0.0 OK <42f7cb4a3fd145bdae20562a09159e7a@eabsystems.com> [Hostname=EABEXH-0.eastpro.com.hk];ClientSubmitTime:2019-12-23T06:22:34.633Z,Intra-Organization SMTP Send Connector,SMTP,SEND,29583734734862,<42f7cb4a3fd145bdae20562a09159e7a@eabsystems.com>,f349dd65-cc77-476a-57c1-08d787707fec,maggie.chen@eabsystems.com;peddi@eabsystems.com;cherrie.hung@eabsystems.com,250 2.1.5 Recipient OK;250 2.1.5 Recipient OK;250 2.1.5 Recipient OK,30834,3,,;;,RE: 24 Dec请无薪假一天,zheng.lifan@eabsystems.com,zheng.lifan@eabsystems.com,2019-12-23T06:22:34.643Z;LSRV=EABEXH-0.eastpro.com.hk:TOTAL-HUB=0.742|SMR=0.176(SMRDI=0.008|SMRC=0.167(SMRCL=0.166|X-SMRCR=0.138))|CAT=0.147(CATOS=0.083(CATSM=0.083(CATSM-SMSMSERoutingAgent=0.082))|CATRESL=0.001|CATORES=0.055(CATRS=0.055(CATRS-Transport Rule Agent=0.030(X-ETREX=0.030)|CATRS-Index Routing Agent=0.023))|CATORT=0.003(CATRT=0.003(CATRT-RMS Encryption Agent=0.003)))|UNK=0.001|QDM=0.033|SMSC=0.008(X-SMSDR=0.032)|SMS=0.375(SMSMBXD=0.367),Originating,,,,S:E2ELatency=0.967;S:MsgRecipCount=3;S:IncludeInSla=True;S:Microsoft.Exchange.Transport.MailRecipient.RequiredTlsAuthLevel=Opportunistic;S:IsSmtpResponseFromExternalServer=False;S:DeliveryPriority=Normal;S:AccountForest=eastpro.com.hk,Email,cf4d697b-5718-4791-52fe-08d787708060,15.01.1591.008
2019-12-23T06:28:14.360Z,,eabexh-1.eastpro.com.hk,,EABEXH-0,e6a4aa6c-3707-498c-b32a-c87cbe45f7cb,,SMTP,HARECEIVE,29583734734863,<2ca7546fdb934227b4db89acd5cd5efc@eabsystems.com>,d8efb27a-75a3-428b-8781-08d787714a21,xiaoyi.li.act@axa.com.hk;its.servicedesk@axa.com.hk;hk_ipro_enotification_hbul_l1@axa.com.hk;shuhua.yu.act@axa.com.hk,,124375,4,,,RE: Chinese Character Error on Supplement to Application - 505-3131123,patrick.yeung@eabsystems.com,patrick.yeung@eabsystems.com,,Originating,,,,S:DeliveryPriority=Low;S:PrioritizationReason=ShadowRedundancy;S:AccountForest=eastpro.com.hk,Email,06a33d96-e4c9-4af2-8f53-08d787714a49,15.01.1591.008
2019-12-23T06:33:41.256Z,,,,EABEXH-0,"EABEXH-1.eastpro.com.hk=250 2.6.0 <5f18099bff754922b3468844cef9b789@eabsystems.com> [InternalId=46952582479898, Hostname=EABEXH-1.eastpro.com.hk] Queued mail for redundancy",,SMTP,HAREDIRECT,29583734734864,<5f18099bff754922b3468844cef9b789@eabsystems.com>,e1f6ab87-4f54-46cf-7c54-08d787720d07,maggie.chen@eabsystems.com,,55567,1,,,RE: SZ reporting of WO / Int Proj status,Hong.Pei@eabsystems.com,Hong.Pei@eabsystems.com,,Originating,,,,S:DeliveryPriority=Normal;S:AccountForest=eastpro.com.hk,Email,0b99aaa7-5272-4d47-f840-08d787720d21,15.01.1591.008
2019-12-23T06:33:41.257Z,192.168.225.100,EABEXH-0.eastpro.com.hk,192.168.225.100,EABEXH-0,08D6F39EA802323B;2019-12-23T06:33:41.086Z;0,EABEXH-0\Default EABEXH-0,SMTP,RECEIVE,29583734734864,<5f18099bff754922b3468844cef9b789@eabsystems.com>,e1f6ab87-4f54-46cf-7c54-08d787720d07,maggie.chen@eabsystems.com,,55567,1,,,RE: SZ reporting of WO / Int Proj status,Hong.Pei@eabsystems.com,Hong.Pei@eabsystems.com,0cI: ,Originating,,10.0.0.68,fe80::a8b1:35d0:6f77:8b24%18,S:MessageValue=MediumHigh;S:Replication=EABEXH-1;S:FirstForestHop=EABEXH-0.eastpro.com.hk;S:FromEntity=Hosted;S:DeliveryPriority=Normal;S:AccountForest=eastpro.com.hk,Email,8e8486f5-162a-4252-1f57-08d787720d22,15.01.1591.008
2019-12-23T06:33:42.185Z,,EABEXH-0,,,CatContentConversion,,AGENT,AGENTINFO,29583734734864,<5f18099bff754922b3468844cef9b789@eabsystems.com>,e1f6ab87-4f54-46cf-7c54-08d787720d07,maggie.chen@eabsystems.com,,55942,1,,,RE: SZ reporting of WO / Int Proj status,Hong.Pei@eabsystems.com,Hong.Pei@eabsystems.com,,Originating,,10.0.0.68,fe80::a8b1:35d0:6f77:8b24%18,"S:TRA=ETRP|ruleId=3d196e10-3051-4d81-98e8-540c1d73b2b7|st=2019-08-01T05:56:52.0000000Z|ExecW=0|ExecC=0|Conditions=ISUP,M.F,0;'S:TRA=ETRP|ruleId=35df5384-41d1-45a5-9e3c-bf0852d2bec2|st=2019-05-29T03:05:50.0000000Z|ExecW=38|ExecC=15|Conditions=CP,M.S,0;CP,M.B,0|Components=FIPS_TE,0,38';S:TRA=ETRP|ruleId=a858246b-82ba-4b8b-a6cb-0695ab00fba9|st=2019-10-10T11:18:22.0000000Z|ExecW=0|ExecC=0|Conditions=IP,F,0;S:TRA=ETRI|MsgType=SummaryTnef|Ex=|IsKnown=|FipsStatus=Success|AttchUns=|ceErr=|Synth=False-Na-;S:DeliveryPriority=Normal;S:AccountForest=eastpro.com.hk",Email,8fa4f77b-6f85-4442-b54b-08d787720daf,15.01.1591.008
2019-12-23T06:33:42.498Z,192.168.225.100,EABEXH-0,192.168.225.100,EABEXH-0.eastpro.com.hk,;250 2.0.0 OK <5f18099bff754922b3468844cef9b789@eabsystems.com> [Hostname=EABEXH-0.eastpro.com.hk];ClientSubmitTime:2019-12-23T06:33:40.865Z,Intra-Organization SMTP Send Connector,SMTP,SEND,29583734734864,<5f18099bff754922b3468844cef9b789@eabsystems.com>,e1f6ab87-4f54-46cf-7c54-08d787720d07,maggie.chen@eabsystems.com,250 2.1.5 Recipient OK,59753,1,,,RE: SZ reporting of WO / Int Proj status,Hong.Pei@eabsystems.com,Hong.Pei@eabsystems.com,2019-12-23T06:33:40.875Z;LSRV=EABEXH-0.eastpro.com.hk:TOTAL-HUB=1.404|SMR=0.163(SMRDI=0.017|SMRC=0.145(SMRCL=0.142|X-SMRCR=0.144))|CAT=0.947(CATOS=0.274(CATSM=0.274(CATSM-SMSMSERoutingAgent=0.272))|CATRESL=0.001|CATORES=0.649(CATRS=0.648(CATRS-Transport Rule Agent=0.041(X-ETREX=0.040)|CATRS-Index Routing Agent=0.606))|CATORT=0.003(CATRT=0.003(CATRT-Journal Agent=0.003))|CATCC=0.017)|QDM=0.018|SMSC=0.010(X-SMSDR=0.017)|SMS=0.266(SMSMBXD=0.259),Originating,,,,S:E2ELatency=1.623;S:MsgRecipCount=1;S:IncludeInSla=True;S:Microsoft.Exchange.Transport.MailRecipient.RequiredTlsAuthLevel=Opportunistic;S:IsSmtpResponseFromExternalServer=False;S:DeliveryPriority=Normal;S:AccountForest=eastpro.com.hk,Email,7cd21f24-66cd-4907-8052-08d787720ddf,15.01.1591.008
2019-12-23T06:36:17.734Z,,,,EABEXH-0,"EABEXH-1.eastpro.com.hk=250 2.6.0 <06045689ac8e478d9932b3abf67cf704@eabsystems.com> [InternalId=46952582479900, Hostname=EABEXH-1.eastpro.com.hk] Queued mail for redundancy",,SMTP,HAREDIRECT,29583734734865,<06045689ac8e478d9932b3abf67cf704@eabsystems.com>,b4d6d9c0-2647-4f6f-5b0b-08d787726a4b,plato.chow@axa.com.hk;ronald.ng@axa.com.hk;christopher.li@axa.com.hk;daniel.lok@axa.com.hk;ray.ip@axa.com.hk;catherine.lok@axa.com.hk;jayson.mak@axa.com.hk;paul.ho@axa.com.hk;yun.lai@axa.com.hk;tony.tsoi@eabsystems.com;raymond.ng@eabsystems.com;franky.man@axa.com.hk;candy.sun@axa.com.hk;rick.wk.leung@axa.com.hk;edwin.cheng@axa.com.hk;chak.tam@axa.com.hk;karen.lee@axa.com.hk,,141629,17,,,RE: (Review by 17 Dec) CI rider Conversion FS for review,patrick.yeung@eabsystems.com,patrick.yeung@eabsystems.com,,Originating,,,,S:DeliveryPriority=Normal;S:AccountForest=eastpro.com.hk,Email,db470a7f-4dc6-4ba0-9b5e-08d787726a66,15.01.1591.008
2019-12-23T06:36:17.735Z,192.168.225.100,EABEXH-0.eastpro.com.hk,192.168.225.100,EABEXH-0,08D6F39EA8023241;2019-12-23T06:36:17.558Z;0,EABEXH-0\Default EABEXH-0,SMTP,RECEIVE,29583734734865,<06045689ac8e478d9932b3abf67cf704@eabsystems.com>,b4d6d9c0-2647-4f6f-5b0b-08d787726a4b,plato.chow@axa.com.hk;ronald.ng@axa.com.hk;christopher.li@axa.com.hk;daniel.lok@axa.com.hk;ray.ip@axa.com.hk;catherine.lok@axa.com.hk;jayson.mak@axa.com.hk;paul.ho@axa.com.hk;yun.lai@axa.com.hk;tony.tsoi@eabsystems.com;raymond.ng@eabsystems.com;franky.man@axa.com.hk;candy.sun@axa.com.hk;rick.wk.leung@axa.com.hk;edwin.cheng@axa.com.hk;chak.tam@axa.com.hk;karen.lee@axa.com.hk,,141629,17,,,RE: (Review by 17 Dec) CI rider Conversion FS for review,patrick.yeung@eabsystems.com,patrick.yeung@eabsystems.com,0cI: ,Originating,,192.168.223.103,fe80::d029:dd94:46c8:5607%4,S:MessageValue=MediumHigh;S:Replication=EABEXH-1;S:FirstForestHop=EABEXH-0.eastpro.com.hk;S:FromEntity=Hosted;S:DeliveryPriority=Normal;S:AccountForest=eastpro.com.hk,Email,fa0d097f-ab60-4148-c216-08d787726a66,15.01.1591.008
2019-12-23T06:36:18.072Z,,EABEXH-0,,,CatContentConversion,,AGENT,AGENTINFO,29583734734865,<06045689ac8e478d9932b3abf67cf704@eabsystems.com>,b4d6d9c0-2647-4f6f-5b0b-08d787726a4b,plato.chow@axa.com.hk;ronald.ng@axa.com.hk;christopher.li@axa.com.hk;daniel.lok@axa.com.hk;ray.ip@axa.com.hk;catherine.lok@axa.com.hk;jayson.mak@axa.com.hk;paul.ho@axa.com.hk;yun.lai@axa.com.hk;tony.tsoi@eabsystems.com;raymond.ng@eabsystems.com;franky.man@axa.com.hk;candy.sun@axa.com.hk;rick.wk.leung@axa.com.hk;edwin.cheng@axa.com.hk;chak.tam@axa.com.hk;karen.lee@axa.com.hk,,142005,17,,,RE: (Review by 17 Dec) CI rider Conversion FS for review,patrick.yeung@eabsystems.com,patrick.yeung@eabsystems.com,,Originating,,192.168.223.103,fe80::d029:dd94:46c8:5607%4,"S:TRA=ETRP|ruleId=3d196e10-3051-4d81-98e8-540c1d73b2b7|st=2019-08-01T05:56:52.0000000Z|ExecW=0|ExecC=0|Conditions=ISUP,M.F,0;'S:TRA=ETRP|ruleId=35df5384-41d1-45a5-9e3c-bf0852d2bec2|st=2019-05-29T03:05:50.0000000Z|ExecW=66|ExecC=0|Conditions=CP,M.S,0;CP,M.B,1|Components=FIPS_TE,0,65';'S:TRA=ETRP|ruleId=a858246b-82ba-4b8b-a6cb-0695ab00fba9|st=2019-10-10T11:18:22.0000000Z|ExecW=0|ExecC=0|Conditions=IP,F,0;IP,F,0;IP,F,0;IP,F,0;IP,F,0;IP,F,0;IP,F,0;IP,F,0;IP,F,0;IP,F,0;IP,F,0;IP,F,0;IP,F,0;IP,F,0;IP,F,0;IP,F,0;IP,F,0';S:TRA=ETRI|MsgType=SummaryTnef|Ex=|IsKnown=|FipsStatus=Success|AttchUns=|ceErr=|Synth=False-Na-;S:DeliveryPriority=Normal;S:AccountForest=eastpro.com.hk",Email,4a938a3d-c2d7-4286-3b94-08d787726a9a,15.01.1591.008
2019-12-23T06:36:18.139Z,,,,EABEXH-0,ContentConversion,,ROUTING,TRANSFER,29583734734866,<06045689ac8e478d9932b3abf67cf704@eabsystems.com>,b4d6d9c0-2647-4f6f-5b0b-08d787726a4b,plato.chow@axa.com.hk;ronald.ng@axa.com.hk;christopher.li@axa.com.hk;daniel.lok@axa.com.hk;ray.ip@axa.com.hk;catherine.lok@axa.com.hk;jayson.mak@axa.com.hk;paul.ho@axa.com.hk;yun.lai@axa.com.hk;franky.man@axa.com.hk;candy.sun@axa.com.hk;rick.wk.leung@axa.com.hk;edwin.cheng@axa.com.hk;chak.tam@axa.com.hk;karen.lee@axa.com.hk,;;;;;;;;;;;;;;,200564,15,,29583734734865,RE: (Review by 17 Dec) CI rider Conversion FS for review,patrick.yeung@eabsystems.com,patrick.yeung@eabsystems.com,,Originating,,,,S:DeliveryPriority=Normal;S:AccountForest=eastpro.com.hk,Email,f9c94499-7825-46d4-6046-08d787726aa4,15.01.1591.008
2019-12-23T06:36:18.719Z,192.168.225.100,EABEXH-0,192.168.225.100,EABEXH-0.eastpro.com.hk,;250 2.0.0 OK <06045689ac8e478d9932b3abf67cf704@eabsystems.com> [Hostname=EABEXH-0.eastpro.com.hk];ClientSubmitTime:2019-12-23T06:36:17.382Z,Intra-Organization SMTP Send Connector,SMTP,SEND,29583734734865,<06045689ac8e478d9932b3abf67cf704@eabsystems.com>,b4d6d9c0-2647-4f6f-5b0b-08d787726a4b,tony.tsoi@eabsystems.com;raymond.ng@eabsystems.com,250 2.1.5 Recipient OK;250 2.1.5 Recipient OK,154385,2,,;,RE: (Review by 17 Dec) CI rider Conversion FS for review,patrick.yeung@eabsystems.com,patrick.yeung@eabsystems.com,2019-12-23T06:36:17.398Z;LSRV=EABEXH-0.eastpro.com.hk:TOTAL-HUB=1.149|SMR=0.168(SMRDI=0.013|SMRC=0.154(SMRCL=0.142|X-SMRCR=0.151))|CAT=0.407(CATOS=0.192(CATSM=0.192(CATSM-RMS Decryption Agent=0.001|CATSM-SMSMSERoutingAgent=0.189|CATSM-RMS Encryption Agent=0.001))|CATRESL=0.003|CATORES=0.140(CATRS=0.140(CATRS-Prioritization Agent=0.001|CATRS-Transport Rule Agent=0.068(X-ETREX=0.067)|CATRS-Index Routing Agent=0.070))|CATORT=0.001(CATRT=0.001)|CATCC=0.067)|UNK=0.001|SMSC=0.009|SMS=0.571(SMSMBXD=0.422),Originating,,,,S:E2ELatency=1.321;S:MsgRecipCount=17;S:IncludeInSla=True;S:Microsoft.Exchange.Transport.MailRecipient.RequiredTlsAuthLevel=Opportunistic;S:IsSmtpResponseFromExternalServer=False;S:DeliveryPriority=Normal;S:AccountForest=eastpro.com.hk,Email,22a3b449-16e0-48e8-cc21-08d787726afc,15.01.1591.008
2019-12-23T06:36:23.125Z,192.168.225.100,EABEXH-0,185.183.28.15,mxa-00181c02.gslb.pphosted.com,;250 2.0.0 2x1csdk2w2-1 Message accepted for delivery;ClientSubmitTime:,Send to External,SMTP,SENDEXTERNAL,29583734734866,<06045689ac8e478d9932b3abf67cf704@eabsystems.com>,b4d6d9c0-2647-4f6f-5b0b-08d787726a4b,plato.chow@axa.com.hk;ronald.ng@axa.com.hk;christopher.li@axa.com.hk;daniel.lok@axa.com.hk;ray.ip@axa.com.hk;catherine.lok@axa.com.hk;jayson.mak@axa.com.hk;paul.ho@axa.com.hk;yun.lai@axa.com.hk;franky.man@axa.com.hk;candy.sun@axa.com.hk;rick.wk.leung@axa.com.hk;edwin.cheng@axa.com.hk;chak.tam@axa.com.hk;karen.lee@axa.com.hk,250 2.1.5 Recipient ok;250 2.1.5 Recipient ok;250 2.1.5 Recipient ok;250 2.1.5 Recipient ok;250 2.1.5 Recipient ok;250 2.1.5 Recipient ok;250 2.1.5 Recipient ok;250 2.1.5 Recipient ok;250 2.1.5 Recipient ok;250 2.1.5 Recipient ok;250 2.1.5 Recipient ok;250 2.1.5 Recipient ok;250 2.1.5 Recipient ok;250 2.1.5 Recipient ok;250 2.1.5 Recipient ok,200902,15,,;;;;;;;;;;;;;;,RE: (Review by 17 Dec) CI rider Conversion FS for review,patrick.yeung@eabsystems.com,patrick.yeung@eabsystems.com,2019-12-23T06:36:17.398Z;SRV=EABEXH-0.eastpro.com.hk:TOTAL-SUB=0.177|SA=0.072|MTSS-PEN=0.105(MTSSD-PEN=0.105(MTSSDA=0.003|MTSSDC=0.050|SDSSO-PEN=0.018 (SMSC=0.009|MTSSDM-PEN=0.008)));SRV=EABEXH-0.eastpro.com.hk:TOTAL-HUB=5.556|SMR=0.168(SMRDI=0.013|SMRC=0.154(SMRCL=0.142|X-SMRCR=0.151))|CAT=0.411(CATOS=0.192(CATSM=0.192(CATSM-RMS Decryption Agent=0.001|CATSM-SMSMSERoutingAgent=0.189|CATSM-RMS Encryption Agent=0.001))|CATRESL=0.003|CATORES=0.140(CATRS=0.140(CATRS-Prioritization Agent=0.001|CATRS-Transport Rule Agent=0.068(X-ETREX=0.067)|CATRS-Index Routing Agent=0.070))|CATORT=0.001(CATRT=0.001)|CATCC=0.067)|QDE=0.032|SMSC=2.029(X-SMSDR=0.031)|SMS=2.954,Originating,,,,S:E2ELatency=5.727;S:ExternalSendLatency=0.747;S:ToEntity=Internet;S:FromEntity=Hosted;S:MsgRecipCount=17;S:IncludeInSla=True;S:Microsoft.Exchange.Transport.MailRecipient.RequiredTlsAuthLevel=Opportunistic;S:Microsoft.Exchange.Transport.MailRecipient.EffectiveTlsAuthLevel=EncryptionOnly;S:IsSmtpResponseFromExternalServer=True;S:DeliveryPriority=Normal;S:AccountForest=eastpro.com.hk,Email,c00df48f-29e7-4c6a-3694-08d787726d9d,15.01.1591.008
2019-12-23T06:39:44.971Z,,,,EABEXH-0,"EABEXH-1.eastpro.com.hk=250 2.6.0 <45ab7267a7214aa998df2d951a46ea0e@eabsystems.com> [InternalId=46952582479916, Hostname=EABEXH-1.eastpro.com.hk] Queued mail for redundancy",,SMTP,HAREDIRECT,29583734734867,<45ab7267a7214aa998df2d951a46ea0e@eabsystems.com>,ef4f281f-664f-41f9-31a1-08d78772e5c8,Hong.Pei@eabsystems.com,,36978,1,,,RE: SZ reporting of WO / Int Proj status,maggie.chen@eabsystems.com,maggie.chen@eabsystems.com,,Originating,,,,S:DeliveryPriority=Normal;S:AccountForest=eastpro.com.hk,Email,3f414f3a-f901-425b-6b7a-08d78772e5ec,15.01.1591.008
2019-12-23T06:39:44.972Z,192.168.225.100,EABEXH-0.eastpro.com.hk,192.168.225.100,EABEXH-0,08D6F39EA8023252;2019-12-23T06:39:44.749Z;0,EABEXH-0\Default EABEXH-0,SMTP,RECEIVE,29583734734867,<45ab7267a7214aa998df2d951a46ea0e@eabsystems.com>,ef4f281f-664f-41f9-31a1-08d78772e5c8,Hong.Pei@eabsystems.com,,36978,1,,,RE: SZ reporting of WO / Int Proj status,maggie.chen@eabsystems.com,maggie.chen@eabsystems.com,0cI: ,Originating,,113.88.161.135,192.168.225.100,S:MessageValue=MediumHigh;S:Replication=EABEXH-1;S:FirstForestHop=EABEXH-0.eastpro.com.hk;S:FromEntity=Hosted;S:DeliveryPriority=Normal;S:AccountForest=eastpro.com.hk,Email,fecb6895-3825-439f-9274-08d78772e5ec,15.01.1591.008
2019-12-23T06:39:45.104Z,,EABEXH-0,,,CatContentConversion,,AGENT,AGENTINFO,29583734734867,<45ab7267a7214aa998df2d951a46ea0e@eabsystems.com>,ef4f281f-664f-41f9-31a1-08d78772e5c8,Hong.Pei@eabsystems.com,,37368,1,,,RE: SZ reporting of WO / Int Proj status,maggie.chen@eabsystems.com,maggie.chen@eabsystems.com,,Originating,,113.88.161.135,192.168.225.100,"S:TRA=ETRP|ruleId=3d196e10-3051-4d81-98e8-540c1d73b2b7|st=2019-08-01T05:56:52.0000000Z|ExecW=0|ExecC=0|Conditions=ISUP,M.F,0;'S:TRA=ETRP|ruleId=35df5384-41d1-45a5-9e3c-bf0852d2bec2|st=2019-05-29T03:05:50.0000000Z|ExecW=36|ExecC=0|Conditions=CP,M.S,0;CP,M.B,0|Components=FIPS_TE,0,36';S:TRA=ETRP|ruleId=a858246b-82ba-4b8b-a6cb-0695ab00fba9|st=2019-10-10T11:18:22.0000000Z|ExecW=0|ExecC=0|Conditions=IP,F,0;S:TRA=ETRI|MsgType=SummaryTnef|Ex=|IsKnown=|FipsStatus=Success|AttchUns=|ceErr=|Synth=False-Na-;S:DeliveryPriority=Normal;S:AccountForest=eastpro.com.hk",Email,78bcb410-18ab-4f3a-d11a-08d78772e600,15.01.1591.008
2019-12-23T06:39:45.213Z,192.168.225.100,EABEXH-0,192.168.225.100,EABEXH-0.eastpro.com.hk,;250 2.0.0 OK <45ab7267a7214aa998df2d951a46ea0e@eabsystems.com> [Hostname=EABEXH-0.eastpro.com.hk];ClientSubmitTime:2019-12-23T06:39:44.623Z,Intra-Organization SMTP Send Connector,SMTP,SEND,29583734734867,<45ab7267a7214aa998df2d951a46ea0e@eabsystems.com>,ef4f281f-664f-41f9-31a1-08d78772e5c8,Hong.Pei@eabsystems.com,250 2.1.5 Recipient OK,40531,1,,,RE: SZ reporting of WO / Int Proj status,maggie.chen@eabsystems.com,maggie.chen@eabsystems.com,2019-12-23T06:39:44.632Z;LSRV=EABEXH-0.eastpro.com.hk:TOTAL-HUB=0.454|SMR=0.214(SMRDI=0.069|SMRC=0.144(SMRCL=0.123|X-SMRCR=0.143))|CAT=0.135(CATOS=0.071(CATSM=0.071(CATSM-SMSMSERoutingAgent=0.070))|CATRESL=0.001|CATORES=0.054(CATRS=0.054(CATRS-Transport Rule Agent=0.038(X-ETREX=0.037)|CATRS-Index Routing Agent=0.014))|CATORT=0.004(CATRT=0.004(CATRT-RMS Encryption Agent=0.003))|CATFIN=0.001)|UNK=0.001|QDM=0.001|SMSC=0.009|SMS=0.092(SMSMBXD=0.085),Originating,,,,S:E2ELatency=0.581;S:MsgRecipCount=1;S:IncludeInSla=True;S:Microsoft.Exchange.Transport.MailRecipient.RequiredTlsAuthLevel=Opportunistic;S:IsSmtpResponseFromExternalServer=False;S:DeliveryPriority=Normal;S:AccountForest=eastpro.com.hk,Email,f6406627-e911-4b73-67de-08d78772e611,15.01.1591.008
2019-12-23T06:48:50.075Z,,eabexh-1.eastpro.com.hk,,EABEXH-0,e6a4aa6c-ba00-4870-979f-96208e791663,,SMTP,HARECEIVE,29583734734868,<be55b5ef164440f78db465a39bd3ac25@eabsystems.com>,2b0f1f35-d2b2-4d26-078d-08d787742a95,yadong.shao@eabsystems.com,,112240,1,,,RE: PACSSM-5640 Upload PLVAP Chinese Product Summary,jinhua.zhang@eabsystems.com,jinhua.zhang@eabsystems.com,,Originating,,,,S:DeliveryPriority=Low;S:PrioritizationReason=ShadowRedundancy;S:AccountForest=eastpro.com.hk,Email,059eed6f-1e84-43b9-a704-08d787742ad4,15.01.1591.008
2019-12-23T06:51:41.022Z,,eabexh-1.eastpro.com.hk,,EABEXH-0,e6a4aa6c-2399-4283-a726-01be62b62653,,SMTP,HARECEIVE,29583734734869,<33bb6c6c32844b3ca2ee6eed60427918@eabsystems.com>,23b93168-99af-4a59-c121-08d78774908f,Hong.Pei@eabsystems.com;li.zhixun@eabsystems.com,,223233,2,,,RE: PruShield - Payment UI,kelly.chan@eabsystems.com,kelly.chan@eabsystems.com,,Originating,,,,S:DeliveryPriority=Low;S:PrioritizationReason=ShadowRedundancy;S:AccountForest=eastpro.com.hk,Email,e37b51ca-6e17-431c-27a9-08d7877490b9,15.01.1591.008
2019-12-23T06:56:48.240Z,,,,EABEXH-0,"EABEXH-1.eastpro.com.hk=250 2.6.0 <1deba4711c414b0e83112ce189b12386@eabsystems.com> [InternalId=46952582479947, Hostname=EABEXH-1.eastpro.com.hk] Queued mail for redundancy",,SMTP,HAREDIRECT,29583734734870,<1deba4711c414b0e83112ce189b12386@eabsystems.com>,fca43cf7-eaaa-4a08-a75a-08d7877547a5,himanshu.anandani@axa.com.sg;muragaiah.muthirevula@axa.com.sg;romain.bourgeois@axa.com.sg;arne.ovesen@eabsystems.com,,992511,4,,,RE: ease datalake transfer logs,patrick.chan@eabsystems.com,patrick.chan@eabsystems.com,,Originating,,,,S:DeliveryPriority=Normal;S:AccountForest=eastpro.com.hk,Email,6f10b098-2330-4809-fa46-08d7877547d6,15.01.1591.008
2019-12-23T06:56:48.241Z,192.168.225.100,EABEXH-0.eastpro.com.hk,192.168.225.100,EABEXH-0,08D6F39EA8023275;2019-12-23T06:56:47.934Z;0,EABEXH-0\Default EABEXH-0,SMTP,RECEIVE,29583734734870,<1deba4711c414b0e83112ce189b12386@eabsystems.com>,fca43cf7-eaaa-4a08-a75a-08d7877547a5,himanshu.anandani@axa.com.sg;muragaiah.muthirevula@axa.com.sg;romain.bourgeois@axa.com.sg;arne.ovesen@eabsystems.com,,992511,4,,,RE: ease datalake transfer logs,patrick.chan@eabsystems.com,patrick.chan@eabsystems.com,0cI: ,Originating,,192.168.223.115,192.168.225.100,S:MessageValue=MediumHigh;S:Replication=EABEXH-1;S:FirstForestHop=EABEXH-0.eastpro.com.hk;S:FromEntity=Hosted;S:DeliveryPriority=Normal;S:AccountForest=eastpro.com.hk,Email,e598c463-2d1f-4cc2-218b-08d7877547d7,15.01.1591.008
2019-12-23T06:56:49.568Z,,EABEXH-0,,,CatContentConversion,,AGENT,AGENTINFO,29583734734870,<1deba4711c414b0e83112ce189b12386@eabsystems.com>,fca43cf7-eaaa-4a08-a75a-08d7877547a5,himanshu.anandani@axa.com.sg;muragaiah.muthirevula@axa.com.sg;romain.bourgeois@axa.com.sg;arne.ovesen@eabsystems.com,,992901,4,,,RE: ease datalake transfer logs,patrick.chan@eabsystems.com,patrick.chan@eabsystems.com,,Originating,,192.168.223.115,192.168.225.100,"S:TRA=ETRP|ruleId=3d196e10-3051-4d81-98e8-540c1d73b2b7|st=2019-08-01T05:56:52.0000000Z|ExecW=0|ExecC=0|Conditions=ISUP,M.F,0;'S:TRA=ETRP|ruleId=35df5384-41d1-45a5-9e3c-bf0852d2bec2|st=2019-05-29T03:05:50.0000000Z|ExecW=1005|ExecC=15|Conditions=CP,M.S,0;CP,M.B,3|Components=FIPS_TE,0,999';'S:TRA=ETRP|ruleId=a858246b-82ba-4b8b-a6cb-0695ab00fba9|st=2019-10-10T11:18:22.0000000Z|ExecW=0|ExecC=0|Conditions=IP,F,0;IP,F,0;IP,F,0;IP,F,0';S:TRA=ETRI|MsgType=SummaryTnef|Ex=|IsKnown=|FipsStatus=Success|AttchUns=|ceErr=|Synth=False-Na-;S:DeliveryPriority=Normal;S:AccountForest=eastpro.com.hk",Email,90d7feaa-1cfe-40fe-96e9-08d7877548a1,15.01.1591.008
2019-12-23T06:56:49.685Z,,,,EABEXH-0,ContentConversion,,ROUTING,TRANSFER,29583734734871,<1deba4711c414b0e83112ce189b12386@eabsystems.com>,fca43cf7-eaaa-4a08-a75a-08d7877547a5,himanshu.anandani@axa.com.sg;muragaiah.muthirevula@axa.com.sg;romain.bourgeois@axa.com.sg,;;,1180774,3,,29583734734870,RE: ease datalake transfer logs,patrick.chan@eabsystems.com,patrick.chan@eabsystems.com,,Originating,,,,S:DeliveryPriority=Normal;S:AccountForest=eastpro.com.hk,Email,8d357ded-3a9e-4ace-722c-08d7877548b3,15.01.1591.008
2019-12-23T06:56:50.371Z,192.168.225.100,EABEXH-0,192.168.225.100,EABEXH-0.eastpro.com.hk,;250 2.0.0 OK <1deba4711c414b0e83112ce189b12386@eabsystems.com> [Hostname=EABEXH-0.eastpro.com.hk];ClientSubmitTime:2019-12-23T06:56:47.652Z,Intra-Organization SMTP Send Connector,SMTP,SEND,29583734734870,<1deba4711c414b0e83112ce189b12386@eabsystems.com>,fca43cf7-eaaa-4a08-a75a-08d7877547a5,arne.ovesen@eabsystems.com,250 2.1.5 Recipient OK,1006376,1,,,RE: ease datalake transfer logs,patrick.chan@eabsystems.com,patrick.chan@eabsystems.com,2019-12-23T06:56:47.676Z;LSRV=EABEXH-0.eastpro.com.hk:TOTAL-HUB=2.427|SMR=0.301(SMRDI=0.072|SMRC=0.227(SMRCL=0.147|X-SMRCR=0.226))|CAT=1.456(CATOS=0.128(CATSM=0.128(CATSM-RMS Decryption Agent=0.004|CATSM-SMSMSERoutingAgent=0.118|CATSM-RMS Encryption Agent=0.004))|CATRESL=0.005|CATORES=1.180(CATRS=1.180(CATRS-Prioritization Agent=0.003|CATRS-Transport Rule Agent=1.007(X-ETREX=1.006)|CATRS-Index Routing Agent=0.169))|CATORT=0.021(CATRT=0.020(CATRT-RMS Encryption Agent=0.010|CATRT-Journal Agent=0.010))|CATCC=0.118)|UNK=0.005|QDM=0.031|SMSC=0.008(X-SMSDR=0.031)|SMS=0.643(SMSMBXD=0.610),Originating,,,,S:E2ELatency=2.695;S:MsgRecipCount=4;S:IncludeInSla=True;S:Microsoft.Exchange.Transport.MailRecipient.RequiredTlsAuthLevel=Opportunistic;S:IsSmtpResponseFromExternalServer=False;S:DeliveryPriority=Normal;S:AccountForest=eastpro.com.hk,Email,3225101e-7460-4ab5-04d2-08d78775491c,15.01.1591.008
2019-12-23T06:56:58.013Z,192.168.225.100,EABEXH-0,185.183.28.15,mxa-00181c02.gslb.pphosted.com,;250 2.0.0 2x1csdk7fk-1 Message accepted for delivery;ClientSubmitTime:,Send to External,SMTP,SENDEXTERNAL,29583734734871,<1deba4711c414b0e83112ce189b12386@eabsystems.com>,fca43cf7-eaaa-4a08-a75a-08d7877547a5,himanshu.anandani@axa.com.sg;muragaiah.muthirevula@axa.com.sg;romain.bourgeois@axa.com.sg,250 2.1.5 Recipient ok;250 2.1.5 Recipient ok;250 2.1.5 Recipient ok,1181174,3,,;;,RE: ease datalake transfer logs,patrick.chan@eabsystems.com,patrick.chan@eabsystems.com,2019-12-23T06:56:47.676Z;SRV=EABEXH-0.eastpro.com.hk:TOTAL-SUB=0.272|SA=0.178|MTSS-PEN=0.094(MTSSD-PEN=0.094(MTSSDA=0.003|MTSSDC=0.046|SDSSO-PEN=0.031 (SMSC=0.016(X-SMSDR=0.008)|MTSSDM-PEN=0.006)));SRV=EABEXH-0.eastpro.com.hk:TOTAL-HUB=10.069|SMR=0.301(SMRDI=0.072|SMRC=0.227(SMRCL=0.147|X-SMRCR=0.226))|CAT=1.486(CATOS=0.128(CATSM=0.128(CATSM-RMS Decryption Agent=0.004|CATSM-SMSMSERoutingAgent=0.118|CATSM-RMS Encryption Agent=0.004))|CATRESL=0.005|CATORES=1.180(CATRS=1.180(CATRS-Prioritization Agent=0.003|CATRS-Transport Rule Agent=1.007(X-ETREX=1.006)|CATRS-Index Routing Agent=0.169))|CATORT=0.021(CATRT=0.020(CATRT-RMS Encryption Agent=0.010|CATRT-Journal Agent=0.010))|CATCC=0.118)|QDE=0.028|SMSC=2.052(X-SMSDR=0.028)|SMS=6.279,Originating,,,,S:E2ELatency=10.337;S:ExternalSendLatency=2.041;S:ToEntity=Internet;S:FromEntity=Hosted;S:MsgRecipCount=4;S:IncludeInSla=True;S:Microsoft.Exchange.Transport.MailRecipient.RequiredTlsAuthLevel=Opportunistic;S:Microsoft.Exchange.Transport.MailRecipient.EffectiveTlsAuthLevel=EncryptionOnly;S:IsSmtpResponseFromExternalServer=True;S:DeliveryPriority=Normal;S:AccountForest=eastpro.com.hk,Email,d7bf4adc-34ee-438e-1cfe-08d787754daa,15.01.1591.008
2019-12-23T06:58:53.481Z,,,,EABEXH-0,"EABEXH-1.eastpro.com.hk=250 2.6.0 <03661a1d5c41449e9a2a4dde2a813ef0@eabsystems.com> [InternalId=46952582479951, Hostname=EABEXH-1.eastpro.com.hk] Queued mail for redundancy",,SMTP,HAREDIRECT,29583734734872,<03661a1d5c41449e9a2a4dde2a813ef0@eabsystems.com>,3bf89976-e25f-4132-2b3e-08d787759259,karen.lee@axa.com.hk;andy.yung@axa.com.hk;ceslaus.lee@axa.com.hk;patrick.yeung@eabsystems.com;raymond.ng@eabsystems.com,,234348,5,,,RE: [request signoff] Work order doc and FSD on WO2019-087 - Non-Med Limit Increase,tony.tsoi@eabsystems.com,tony.tsoi@eabsystems.com,,Originating,,,,S:DeliveryPriority=Normal;S:AccountForest=eastpro.com.hk,Email,518c0f6b-a682-40c1-231b-08d78775927d,15.01.1591.008
2019-12-23T06:58:53.503Z,192.168.225.100,EABEXH-0.eastpro.com.hk,192.168.225.100,EABEXH-0,08D6F39EA802327C;2019-12-23T06:58:53.248Z;0,EABEXH-0\Default EABEXH-0,SMTP,RECEIVE,29583734734872,<03661a1d5c41449e9a2a4dde2a813ef0@eabsystems.com>,3bf89976-e25f-4132-2b3e-08d787759259,karen.lee@axa.com.hk;andy.yung@axa.com.hk;ceslaus.lee@axa.com.hk;patrick.yeung@eabsystems.com;raymond.ng@eabsystems.com,,234348,5,,,RE: [request signoff] Work order doc and FSD on WO2019-087 - Non-Med Limit Increase,tony.tsoi@eabsystems.com,tony.tsoi@eabsystems.com,0cI: ,Originating,,192.168.223.110,169.254.1.171,S:MessageValue=MediumHigh;S:Replication=EABEXH-1;S:FirstForestHop=EABEXH-0.eastpro.com.hk;S:FromEntity=Hosted;S:DeliveryPriority=Normal;S:AccountForest=eastpro.com.hk,Email,e06a98da-f642-4b7e-7b9b-08d787759280,15.01.1591.008
2019-12-23T06:58:53.911Z,,EABEXH-0,,,CatContentConversion,,AGENT,AGENTINFO,29583734734872,<03661a1d5c41449e9a2a4dde2a813ef0@eabsystems.com>,3bf89976-e25f-4132-2b3e-08d787759259,karen.lee@axa.com.hk;andy.yung@axa.com.hk;ceslaus.lee@axa.com.hk;patrick.yeung@eabsystems.com;raymond.ng@eabsystems.com,,234723,5,,,RE: [request signoff] Work order doc and FSD on WO2019-087 - Non-Med Limit Increase,tony.tsoi@eabsystems.com,tony.tsoi@eabsystems.com,,Originating,,192.168.223.110,169.254.1.171,"S:TRA=ETRP|ruleId=3d196e10-3051-4d81-98e8-540c1d73b2b7|st=2019-08-01T05:56:52.0000000Z|ExecW=0|ExecC=0|Conditions=ISUP,M.F,0;'S:TRA=ETRP|ruleId=35df5384-41d1-45a5-9e3c-bf0852d2bec2|st=2019-05-29T03:05:50.0000000Z|ExecW=252|ExecC=0|Conditions=CP,M.S,0;CP,M.B,3|Components=FIPS_TE,0,248';'S:TRA=ETRP|ruleId=a858246b-82ba-4b8b-a6cb-0695ab00fba9|st=2019-10-10T11:18:22.0000000Z|ExecW=0|ExecC=0|Conditions=IP,F,0;IP,F,0;IP,F,0;IP,F,0;IP,F,0';S:TRA=ETRI|MsgType=SummaryTnef|Ex=|IsKnown=|FipsStatus=Success|AttchUns=|ceErr=|Synth=False-Na-;S:DeliveryPriority=Normal;S:AccountForest=eastpro.com.hk",Email,149ccbe1-631a-4271-d65e-08d7877592be,15.01.1591.008
2019-12-23T06:58:54.096Z,,,,EABEXH-0,ContentConversion,,ROUTING,TRANSFER,29583734734873,<03661a1d5c41449e9a2a4dde2a813ef0@eabsystems.com>,3bf89976-e25f-4132-2b3e-08d787759259,karen.lee@axa.com.hk;andy.yung@axa.com.hk;ceslaus.lee@axa.com.hk,;;,382957,3,,29583734734872,RE: [request signoff] Work order doc and FSD on WO2019-087 - Non-Med Limit Increase,tony.tsoi@eabsystems.com,tony.tsoi@eabsystems.com,,Originating,,,,S:DeliveryPriority=Normal;S:AccountForest=eastpro.com.hk,Email,5b40c286-da68-4092-f90f-08d7877592da,15.01.1591.008
2019-12-23T06:58:54.406Z,192.168.225.100,EABEXH-0,192.168.225.100,EABEXH-0.eastpro.com.hk,;250 2.0.0 OK <03661a1d5c41449e9a2a4dde2a813ef0@eabsystems.com> [Hostname=EABEXH-0.eastpro.com.hk];ClientSubmitTime:2019-12-23T06:58:52.962Z,Intra-Organization SMTP Send Connector,SMTP,SEND,29583734734872,<03661a1d5c41449e9a2a4dde2a813ef0@eabsystems.com>,3bf89976-e25f-4132-2b3e-08d787759259,patrick.yeung@eabsystems.com;raymond.ng@eabsystems.com,250 2.1.5 Recipient OK;250 2.1.5 Recipient OK,250363,2,,;,RE: [request signoff] Work order doc and FSD on WO2019-087 - Non-Med Limit Increase,tony.tsoi@eabsystems.com,tony.tsoi@eabsystems.com,2019-12-23T06:58:52.978Z;LSRV=EABEXH-0.eastpro.com.hk:TOTAL-HUB=1.149|SMR=0.247(SMRDI=0.057|SMRC=0.189(SMRCL=0.188|X-SMRCR=0.166))|CAT=0.595(CATOS=0.063(CATSM=0.063(CATSM-RMS Decryption Agent=0.001|CATSM-SMSMSERoutingAgent=0.059|CATSM-RMS Encryption Agent=0.001))|CATRESL=0.002|CATORES=0.340(CATRS=0.340(CATRS-Prioritization Agent=0.001|CATRS-Transport Rule Agent=0.253(X-ETREX=0.253)|CATRS-Index Routing Agent=0.084))|CATORT=0.002(CATRT=0.001(CATRT-RMS Encryption Agent=0.001))|CATCC=0.185)|UNK=0.002|SMSC=0.008|SMS=0.298(SMSMBXD=0.274),Originating,,,,S:E2ELatency=1.428;S:MsgRecipCount=5;S:IncludeInSla=True;S:Microsoft.Exchange.Transport.MailRecipient.RequiredTlsAuthLevel=Opportunistic;S:IsSmtpResponseFromExternalServer=False;S:DeliveryPriority=Normal;S:AccountForest=eastpro.com.hk,Email,497c4a5b-d62e-46c3-456b-08d78775930a,15.01.1591.008
2019-12-23T06:59:00.251Z,192.168.225.100,EABEXH-0,185.183.28.15,mxa-00181c02.gslb.pphosted.com,;250 2.0.0 2x26fgmv1k-1 Message accepted for delivery;ClientSubmitTime:,Send to External,SMTP,SENDEXTERNAL,29583734734873,<03661a1d5c41449e9a2a4dde2a813ef0@eabsystems.com>,3bf89976-e25f-4132-2b3e-08d787759259,karen.lee@axa.com.hk;andy.yung@axa.com.hk;ceslaus.lee@axa.com.hk,250 2.1.5 Recipient ok;250 2.1.5 Recipient ok;250 2.1.5 Recipient ok,383329,3,,;;,RE: [request signoff] Work order doc and FSD on WO2019-087 - Non-Med Limit Increase,tony.tsoi@eabsystems.com,tony.tsoi@eabsystems.com,2019-12-23T06:58:52.978Z;SRV=EABEXH-0.eastpro.com.hk:TOTAL-SUB=0.282|SA=0.214|MTSS-PEN=0.068(MTSSD-PEN=0.068(MTSSDA=0.005|MTSSDC=0.029|SDSSO-PEN=0.014 (SMSC=0.008|MTSSDM-PEN=0.005)));SRV=EABEXH-0.eastpro.com.hk:TOTAL-HUB=6.994|SMR=0.247(SMRDI=0.057|SMRC=0.189(SMRCL=0.188|X-SMRCR=0.166))|CAT=0.599(CATOS=0.063(CATSM=0.063(CATSM-RMS Decryption Agent=0.001|CATSM-SMSMSERoutingAgent=0.059|CATSM-RMS Encryption Agent=0.001))|CATRESL=0.002|CATORES=0.340(CATRS=0.340(CATRS-Prioritization Agent=0.001|CATRS-Transport Rule Agent=0.253(X-ETREX=0.253)|CATRS-Index Routing Agent=0.084))|CATORT=0.002(CATRT=0.001(CATRT-RMS Encryption Agent=0.001))|CATCC=0.185)|QDE=0.844|SMSC=2.027(X-SMSDR=0.841)|SMS=3.297,Originating,,,,S:E2ELatency=7.272;S:ExternalSendLatency=1.124;S:ToEntity=Internet;S:FromEntity=Hosted;S:MsgRecipCount=5;S:IncludeInSla=True;S:Microsoft.Exchange.Transport.MailRecipient.RequiredTlsAuthLevel=Opportunistic;S:Microsoft.Exchange.Transport.MailRecipient.EffectiveTlsAuthLevel=EncryptionOnly;S:IsSmtpResponseFromExternalServer=True;S:DeliveryPriority=Normal;S:AccountForest=eastpro.com.hk,Email,7768c20a-7aab-49af-37e8-08d787759686,15.01.1591.008
2019-12-23T06:59:47.608Z,,eabexh-1.eastpro.com.hk,,EABEXH-0,e6a4aa6c-58ae-4714-a79d-176ceb3f6ea6,,SMTP,HARECEIVE,29583734734874,<e68ea8216d314e7da8af4105eaddaec9@eabsystems.com>,267f082c-efa6-40be-7108-08d78775b29b,Hong.Pei@eabsystems.com,,20102,1,,,北站吃饭地方,maggie.chen@eabsystems.com,maggie.chen@eabsystems.com,,Originating,,,,S:DeliveryPriority=Low;S:PrioritizationReason=ShadowRedundancy;S:AccountForest=eastpro.com.hk,Email,2c052074-bce1-461f-4357-08d78775b2c0,15.01.1591.008
